﻿2000.1.1 = {
	add_ideas = {
		#pop_050
		gdp_4
		shia
	}

	#Influence system
	init_influence = yes
	set_variable = { domestic_influence_amount = 45 }
	add_to_array = { influence_array = SYR.id }
	add_to_array = { influence_array_val = 55 }
	add_to_array = { influence_array = LEB.id }
	add_to_array = { influence_array_val = 20 }
	add_to_array = { influence_array = ISR.id }
	add_to_array = { influence_array_val = 85 }
	add_to_array = { influence_array = JOR.id }
	add_to_array = { influence_array_val = 5 }
	add_to_array = { influence_array = USA.id }
	add_to_array = { influence_array_val = 0 }
	add_to_array = { influence_array = CHI.id }
	add_to_array = { influence_array_val = 0 }
	startup_influence = yes

	capital = 185
	oob = "DRU_2000"

	set_convoys = 120

	# Starting tech
	set_technology = {
		legacy_doctrines = 1
		armoured_mass_assault = 1
		deep_echelon_advance = 1
		rigid_hierarchy = 1
		praetorian_guard = 1

		infantry_weapons = 1

		command_control_equipment = 1
		util_vehicle_0 = 1
		Anti_tank_0 = 1
		Heavy_Anti_tank_0 = 1
		Anti_Air_0 = 1

		basic_computing = 1
		integrated_circuit = 1
		computing1 = 1
		decryption1 = 1
		encryption1 = 1
		radar = 1
		internet1 = 1 	#1G
		fuel_silos =1
	}
}

2017.1.1 = {
	capital = 185
	oob = "DRU_2017"
	set_convoys = 120

	add_ideas = {
		#pop_050
		gdp_4
		shia
	}
	#set_country_flag = gdp_4

	set_technology = {
		microprocessors = 1
		computing2 = 1
		decryption2 = 1
		encryption2 = 1
		internet2 = 1 	#2G
		gprs = 1
		wifi = 1
		internet3 = 1	#3G
		construction1 = 1
		excavation1 = 1
	}


	set_popularities = {
		democratic = 10
		fascism = 10
		communism = 10
		neutrality = 60
		nationalist = 10
	}
	set_politics = {

		ruling_party = neutrality
		last_election = "2017.1.1"
		election_frequency = 60
		elections_allowed = yes
	}
}