
##############################
##############################
### EU_budget_category ###
##############################
##############################

EU_budget_category = {

#######################
### Testing section ###
#######################

	### For testing ### remove has_country_flag = unvisible
	
	EU_budget_update_test_old = { 
	
		available = {
			has_idea = EU_member
		}
		
		visible = { 
			has_country_flag = unvisible #old
			has_idea = EU_member 
		}
		
		complete_effect = {
			custom_effect_tooltip = "Update EU Budget"
			hidden_effect = {
				distribute_EU_budget = yes
			}
		}
		ai_will_do = {
			factor = 0
		}		
	}

	EU_budget_test_old = { 
	
		available = {
			#as_idea = EU_member
		}
		
		visible = {
			has_country_flag = unvisible #old
			has_idea = EU_member 
		}
		
		complete_effect = {
			set_variable = { global.EU_budget_call_rate = 1.00 }
			set_EU_gdp = yes
			set_EU_total_budget = yes
			update_EU_average_gdp_lvl = yes
			update_EU_average_eco_lvl = yes

		}
		ai_will_do = {
			factor = 0
		}		
	}

	EU_budget_exp_test_old = { 
	
		available = {
			has_idea = EU_member
		}
		
		visible = {
			has_country_flag = unvisible #old
			has_idea = EU_member 
		}
		
		complete_effect = {
			set_EU_expenditure = yes
		}
		ai_will_do = {
			factor = 0
		}		
	}

	EU_budget_mff_EP_test = { 
	
		available = {
			has_idea = EU_member
		}
		
		visible = {
			has_country_flag = unvisible 
			has_idea = EU_member 
		}
		
		complete_effect = {
			activate_mission = EU_mff_preparations
			#set_country_flag = EU_mff_draft
			### EP
			#set_country_flag = focus_EU_mff_EP_agenda			
			#set_country_flag = focus_on_EP_agenda
			#set_ruling_party_PG_support = yes
			#activate_mission = EU_parliament_focus_EUXXX_approve
		}
		ai_will_do = {
			factor = 0
		}		
	}

	EU_budget_EU_budget_EP_test = { 
	
		available = {
			has_idea = EU_member
		}
		
		visible = {
			has_country_flag = unvisible
			has_idea = EU_member 
		}
		
		complete_effect = {
			activate_mission = EU_budget_preparations
			#set_country_flag = EU_budget_draft
			### EP
			#set_country_flag = focus_EU_budget_EP_agenda			
			#set_country_flag = focus_on_EP_agenda
			#set_ruling_party_PG_support = yes
			#activate_mission = EU_parliament_focus_EUXXX_approve
		}
		ai_will_do = {
			factor = 0
		}		
	}

##############################
### End of Testing section ###
##############################	

### budget UI

EU_budget_show_contribution_member_states = { 
	
	available = {
		has_idea = EU_member
	}
	
	visible = { 
		NOT = { has_country_flag = show_EU_contribution_member_states }
		has_idea = EU_member 
	}
	
	complete_effect = {
		custom_effect_tooltip = "Show Contribution of the member states"
		hidden_effect = {
			set_country_flag = show_EU_contribution_member_states
		}
	}
	ai_will_do = {
		factor = 0
	}		
}

EU_budget_hide_contribution_member_states = { 
	
	available = {
		has_idea = EU_member
	}
	
	visible = { 
		has_country_flag = show_EU_contribution_member_states
		has_idea = EU_member 
	}
	
	complete_effect = {
		custom_effect_tooltip = "Hide Contribution of the member states"
		hidden_effect = {
			clr_country_flag = show_EU_contribution_member_states
		}
	}
	ai_will_do = {
		factor = 0
	}		
}


EU_budget_show_distribution_member_states = { 
	
	available = {
		has_idea = EU_member
	}
	
	visible = { 
		NOT = { has_country_flag = show_EU_distribution_member_states }
		has_idea = EU_member 
	}
	
	complete_effect = {
		custom_effect_tooltip = "Show Distribution to the member states"
		hidden_effect = {
			set_country_flag = show_EU_distribution_member_states
		}
	}
	ai_will_do = {
		factor = 0
	}		
}

EU_budget_hide_distribution_member_states = { 
	
	available = {
		has_idea = EU_member
	}
	
	visible = { 
		has_country_flag = show_EU_distribution_member_states
		has_idea = EU_member 
	}
	
	complete_effect = {
		custom_effect_tooltip = "Hide Distribution to the member states"
		hidden_effect = {
			clr_country_flag = show_EU_distribution_member_states
		}
	}
	ai_will_do = {
		factor = 0
	}		
}

###

EU_mff_preparations = {
	allowed = {
		always = yes
	}
	available = {
		has_global_flag = focus_EU_mff_EP_approval
		has_country_flag = EU_mff_draft
	}	
	activation = {
		always = no
	}	
	visible = { 
		has_idea = EU_member
		NOT = { has_global_flag = EU_budget_mff }
	} 	
	days_mission_timeout = 30	
	selectable_mission = yes	
	fire_only_once = yes
	complete_effect = {	
		add_political_power = global.EU_mff_draft_invested_PP
		hidden_effect = {
			set_global_flag = EU_budget_mff
			clear_variable = global.EU_mff_draft_invested_PP
		}
		effect_tooltip = {
			activate_mission = EU_budget_mff_active
		}
		hidden_effect = {
			every_country = {
				limit = {
					has_idea = EU_member
				}
				activate_mission = EU_budget_mff_active
				remove_mission = EU_mff_preparations
				remove_mission = EU_mff_draft_mission
				if = {
					limit = {
						has_country_flag = focus_EU_mff_EP_agenda
					}
					remove_mission = EU_parliament_focus_EUXXX_approve
				}			
			}
		}
	}
	timeout_effect = {
		effect_tooltip = {
			activate_mission = EU_budget_mff_active
		}
		hidden_effect = {		
			set_global_flag = EU_budget_mff
			clear_variable = global.EU_mff_draft_invested_PP
			every_country = {
				limit = {
					has_idea = EU_member
				}
				activate_mission = EU_budget_mff_active
				remove_mission = EU_mff_preparations
				remove_mission = EU_mff_draft_mission
				if = {
					limit = {
						has_country_flag = focus_EU_mff_EP_agenda
					}
					remove_mission = EU_parliament_focus_EUXXX_approve
				}			
			}
		}		
	}	
	ai_will_do = {
		factor = 1
	}
}

EU_budget_mff_active = {
	allowed = {
		always = yes
	}
	available = {
		NOT = { has_global_flag = EU_budget_mff }	
	}	
	activation = {
		always = no
	}
	
	visible = { 
		has_idea = EU_member		
	} 
	
	days_mission_timeout = 1795
	
	selectable_mission = no
	
	fire_only_once = yes

	complete_effect = {

	}
	timeout_effect = {
		clr_global_flag = EU_budget_mff
		clr_global_flag = focus_EU_mff_EP_approval
		every_country = {
			limit = {
				has_idea = EU_member
			}
			clr_country_flag = EU_mff_draft
			activate_mission = EU_mff_preparations
			remove_mission = EU_budget_mff_active
		}
		set_variable = { global.EU_budget_call_rate = 1.00 }
		set_EU_gdp = yes
		set_EU_total_budget = yes
		update_EU_average_gdp_lvl = yes
		update_EU_average_eco_lvl = yes		
	}	
	ai_will_do = {
		factor = 0
	}
}

EU_budget_mff_renegotiate = {
	cost = 300
	available = {
		has_active_mission = EU_budget_mff_active
		has_idea = EU_member
	}	
	visible = {
		has_active_mission = EU_budget_mff_active
		has_idea = EU_member 
	}
	complete_effect = {
		EU_eurosceptic_rise_5_percent = yes
		clr_global_flag = EU_budget_mff
		clr_global_flag = focus_EU_mff_EP_approval
		every_country = {
			limit = {
				has_idea = EU_member
			}
			clr_country_flag = EU_mff_draft
			activate_mission = EU_mff_preparations
			remove_mission = EU_budget_mff_active
		}
		set_variable = { global.EU_budget_call_rate = 1.00 }
		set_EU_gdp = yes
		set_EU_total_budget = yes
		update_EU_average_gdp_lvl = yes
		update_EU_average_eco_lvl = yes
	}
	ai_will_do = {
		factor = 0
	}		
}

### mff draft ###

EU_budget_mff_draft = {

	available = {
		NOT = {
			any_country = {
				has_country_flag = EU_mff_draft				
			}
			any_country = {				
				has_country_flag = focus_on_EP_agenda
			}			
		}	
		has_idea = EU_member
	}	
	visible = {
		any_country = {
			NOT = {
				has_country_flag = EU_mff_draft
			}	
			has_active_mission = EU_mff_preparations
		}				
		has_idea = EU_member 
	}
	complete_effect = {
		set_country_flag = EU_mff_draft
		set_variable = { global.EU_mff_draft_invested_PP = 0 }
		activate_mission = EU_mff_draft_mission
		set_variable = { PG_desire_mff_cons = 0 }
		set_variable = { PG_desire_mff_libs = 0 }
		set_variable = { PG_desire_mff_social = 0 }
		set_variable = { PG_desire_mff_green = 0 }
		set_variable = { PG_desire_mff_comms = 0 }
		set_variable = { PG_desire_mff_nats = 0 }		
	}	
	ai_will_do = {
		factor = 0
	}		
}

EU_mff_draft_mission = { 
	allowed = {
		always = yes
	}
	available = {
		OR = {
			influence_on_all_other_EU_members_10_percent = yes
			AND = {
				has_idea = EU_council_president
				influence_on_all_other_EU_members_5_percent = yes
			}
			has_idea = EU_finance_minister
		}
		NOT = {
			any_country = {				
				has_country_flag = focus_on_EP_agenda
			}
		}		
	}	
	activation = {
		always = no
	}
	visible = { 
		has_idea = EU_member
		has_country_flag = EU_mff_draft
		NOT = { has_global_flag = EU_budget_mff }
	} 
	days_mission_timeout = 14
	selectable_mission = yes
	fire_only_once = yes
	complete_effect = {
		custom_effect_tooltip = "Puts the draft on the agenda of the European Parliament"
		hidden_effect = {
			set_country_flag = focus_EU_mff_EP_agenda			
			set_country_flag = focus_on_EP_agenda
			set_ruling_party_PG_support = yes
			activate_mission = EU_parliament_focus_EUXXX_approve
		}
	}
	timeout_effect = {
		if = {
			limit = {
				NOT = {
					any_country = {				
						has_country_flag = focus_on_EP_agenda
					}
				}					
			}
			custom_effect_tooltip = "Puts the draft on the agenda of the European Parliament"
			hidden_effect = {			
				set_country_flag = focus_EU_mff_EP_agenda			
				set_country_flag = focus_on_EP_agenda
				set_ruling_party_PG_support = yes
				activate_mission = EU_parliament_focus_EUXXX_approve				
			}
		}	
	}	
	ai_will_do = {
		factor = 1
	}
}

### global ###

EU_budget_raise_global_call_rate = { 
	cost = 100
	available = {
		has_idea = EU_member
	}
	visible = {				 
		has_idea = EU_member
		NOT = { has_global_flag = EU_budget_mff }
		any_country = {
			has_country_flag = EU_mff_draft
			has_active_mission = EU_mff_draft_mission
		}		
	}	
	complete_effect = {
		custom_effect_tooltip = "tooltip_EU_budget_raise_global_call_rate_effect"
		hidden_effect = {
			add_to_variable = { global.EU_budget_call_rate = 0.05 }
			set_EU_total_budget = yes
			add_to_variable = { global.EU_mff_draft_invested_PP = 100 }
			add_to_variable = { THIS.EU_mff_draft_invested_PP = 100 }
			### PG desire ###
			add_to_variable = { PG_desire_mff_cons = -10 } ### gov_resist
			add_to_variable = { PG_desire_mff_libs = -25 } ### gov_strong_resist
			add_to_variable = { PG_desire_mff_social = 25 } ### gov_strong_support
			add_to_variable = { PG_desire_mff_green = 25 } ### gov_strong_support
			add_to_variable = { PG_desire_mff_comms = 25 } ### gov_strong_support
			add_to_variable = { PG_desire_mff_nats = -25 } ### ### gov_strong_resist	
		}					
	}
	ai_will_do = {
		factor = 0
		modifier = {
			add = 1
			check_variable = { global.EU_budget_call_rate < 1.15 }
			check_variable = { global.var_europeanism < 0.80 }			
			check_variable = { global.EU_average_eco_lvl < 3 }			
		}
	}		
}

EU_budget_lower_global_call_rate = { 
	cost = 100
	available = {
		has_idea = EU_member
	}
	visible = {		
		has_idea = EU_member
		NOT = { has_global_flag = EU_budget_mff }
		any_country = {
			has_country_flag = EU_mff_draft
			has_active_mission = EU_mff_draft_mission
		}		 
	}
	complete_effect = {
		custom_effect_tooltip = "tooltip_EU_budget_lower_global_call_rate_effect"
		hidden_effect = {		
			subtract_from_variable = { global.EU_budget_call_rate = 0.05 }
			set_EU_total_budget = yes
			add_to_variable = { global.EU_mff_draft_invested_PP = 100 }
			add_to_variable = { THIS.EU_mff_draft_invested_PP = 100 }
			### PG desire ###
			add_to_variable = { PG_desire_mff_cons = 10 } ### gov_support
			add_to_variable = { PG_desire_mff_libs = 25 } ### gov_strong_support  
			add_to_variable = { PG_desire_mff_social = -25 } ### gov_strong_resist
			add_to_variable = { PG_desire_mff_green = -25 } ### gov_strong_resist
			add_to_variable = { PG_desire_mff_comms = -25 } ### gov_strong_resist
			add_to_variable = { PG_desire_mff_nats = 25 } ### gov_strong_support
		}					
	}
	ai_will_do = {
		factor = 0
		modifier = {
			add = 1
			check_variable = { global.EU_budget_call_rate > 1.25 }			
		}
	}		
}

### THIS ###

EU_budget_raise_THIS_call_rate = { 
	cost = 100
	available = {
		has_idea = EU_member
	}	
	visible = {		 
		has_idea = EU_member
		NOT = { has_global_flag = EU_budget_mff }
		any_country = {
			has_country_flag = EU_mff_draft
			has_active_mission = EU_mff_draft_mission
		}		 
	}	
	complete_effect = {
		custom_effect_tooltip = "tooltip_EU_budget_raise_THIS_call_rate_effect"
		THIS_eurosceptic_rise_5_percent = yes
		EU_eurosceptic_decline_3_percent = yes
		hidden_effect = {
			add_to_variable = { THIS.EU_budget_call_rate = 0.05 }
			update_EU_budget_call_rate = yes
			hidden_effect = {
				THIS_eurosceptic_rise_3_percent = yes
			}
			add_to_variable = { global.EU_mff_draft_invested_PP = 100 }
			add_to_variable = { THIS.EU_mff_draft_invested_PP = 100 }
			### PG desire ###
			add_to_variable = { PG_desire_mff_cons = 10 } ### gov_support
			add_to_variable = { PG_desire_mff_libs = -10 } ### gov_resist
			add_to_variable = { PG_desire_mff_social = 25 } ### gov_strong_support
			add_to_variable = { PG_desire_mff_green = 25 } ### gov_strong_support
			add_to_variable = { PG_desire_mff_comms = 25 } ### gov_strong_support
			add_to_variable = { PG_desire_mff_nats = 0 } 	
		}				
	}
	ai_will_do = {
		factor = 0
		modifier = {
			add = 1
			check_variable = { THIS.EU_budget_call_rate = 1.10 }
			check_variable = { global.var_europeanism < 0.60 }
			check_variable = { global.EU_average_gdp_lvl < EU_average_gdp_lvl }
			check_variable = { global.EU_average_eco_lvl < EU_average_eco_lvl }			
		}
		
	}		
}

EU_budget_lower_THIS_call_rate = { 
	cost = 100
	available = {
		has_idea = EU_member
	}	
	visible = {		
		has_idea = EU_member
		NOT = { has_global_flag = EU_budget_mff }
		any_country = {
			has_country_flag = EU_mff_draft
			has_active_mission = EU_mff_draft_mission
		}		 
	}	
	complete_effect = {
		custom_effect_tooltip = "tooltip_EU_budget_lower_THIS_call_rate_effect"
		THIS_eurosceptic_decline_5_percent = yes
		EU_eurosceptic_rise_3_percent = yes
		hidden_effect = {
			subtract_from_variable = { THIS.EU_budget_call_rate = 0.05 }
			update_EU_budget_call_rate = yes
			hidden_effect = {
				THIS_eurosceptic_decline_3_percent = yes
			}
			add_to_variable = { global.EU_mff_draft_invested_PP = 100 }
			add_to_variable = { THIS.EU_mff_draft_invested_PP = 100 }
			### PG desire ###
			add_to_variable = { PG_desire_mff_cons = -10 } ### gov_resist 
			add_to_variable = { PG_desire_mff_libs = 10 } ### gov_support
			add_to_variable = { PG_desire_mff_social = -25 } ### gov_strong_resist
			add_to_variable = { PG_desire_mff_green = -25 } ### gov_strong_resist
			add_to_variable = { PG_desire_mff_comms = -25 } ### gov_strong_resist
			add_to_variable = { PG_desire_mff_nats = 0 }	
		}				
	}
	ai_will_do = {
		factor = 0
		modifier = {
			add = 1
			check_variable = { THIS.EU_budget_call_rate > 0.90 }
			gov_is_eurosceptical = yes
		}
		modifier = {
			add = 1
			check_variable = { THIS.EU_budget_call_rate > 0.85 }
			tag = ENG
		}
		modifier = {
			factor = 0
			check_variable = { THIS.eurosceptic < 0.2 }
		}				
	}		
}

### FROM ###

EU_budget_raise_FROM_call_rate = {
	cost = 100 
	target_trigger = {
		FROM = {			
			has_idea = EU_member
			OR = {
				NOT = {
					check_variable = { FROM.EU_budget_call_rate = global.EU_budget_call_rate }
				}
				check_variable = { FROM.eurosceptic > 0.40 }
			}
		}		
	}	
	available = {
		has_idea = EU_member
	}	
	visible = {		 
		has_idea = EU_member
		NOT = { has_global_flag = EU_budget_mff }
		any_country = {
			has_country_flag = EU_mff_draft
			has_active_mission = EU_mff_draft_mission
		}		 
	}	
	complete_effect = {
		custom_effect_tooltip = "tooltip_EU_budget_raise_FROM_call_rate_effect"
		FROM_eurosceptic_rise_5_percent = yes
		EU_eurosceptic_decline_3_percent = yes
		hidden_effect = {
			add_to_variable = { FROM.EU_budget_call_rate = 0.05 }
			update_EU_budget_call_rate = yes			
			hidden_effect = {
				FROM_eurosceptic_rise_3_percent = yes
			}						
			add_to_variable = { global.EU_mff_draft_invested_PP = 100 }
			add_to_variable = { THIS.EU_mff_draft_invested_PP = 100 }
			### PG desire ###
			add_to_variable = { PG_desire_mff_cons = -10 } ### gov_resist
			add_to_variable = { PG_desire_mff_libs = -25 } ### gov_strong_resist
			add_to_variable = { PG_desire_mff_social = 10 } ### gov_support
			add_to_variable = { PG_desire_mff_green = 10 } ### gov_support
			add_to_variable = { PG_desire_mff_comms = 10 } ### gov_support
			add_to_variable = { PG_desire_mff_nats = -25 } ### gov_strong_resist
		}							
	}
	ai_will_do = {
		factor = 0
		modifier = {
			add = 1
			check_variable = { FROM.EU_average_eco_lvl > 4 }
			check_variable = { FROM.EU_average_gdp_lvl > 8 }
			check_variable = { global.EU_average_eco_lvl > EU_average_eco_lvl }
			check_variable = { FROM.eurosceptic < 0.4 }
		}
	}		
}

EU_budget_lower_FROM_call_rate = {
	cost = 100
	target_trigger = {
		FROM = {			
			has_idea = EU_member
			OR = {
				NOT = {
					check_variable = { FROM.EU_budget_call_rate = global.EU_budget_call_rate }
				}
				check_variable = { FROM.eurosceptic > 0.40 }
			}
		}
	}	
	available = {
		has_idea = EU_member
	}	
	visible = {		
		has_idea = EU_member
		NOT = { has_global_flag = EU_budget_mff }
		any_country = {
			has_country_flag = EU_mff_draft
			has_active_mission = EU_mff_draft_mission
		}		 
	}	
	complete_effect = {
		custom_effect_tooltip = "tooltip_EU_budget_lower_FROM_call_rate_effect"
		FROM_eurosceptic_decline_5_percent = yes
		EU_eurosceptic_rise_3_percent = yes
		hidden_effect = {
			subtract_from_variable = { FROM.EU_budget_call_rate = 0.05 }
			update_EU_budget_call_rate = yes			
			hidden_effect = {
				FROM_eurosceptic_decline_3_percent = yes
			}			
			add_to_variable = { global.EU_mff_draft_invested_PP = 100 }
			add_to_variable = { THIS.EU_mff_draft_invested_PP = 100 }
			### PG desire ###
			add_to_variable = { PG_desire_mff_cons = 10 } ### gov_support
			add_to_variable = { PG_desire_mff_libs = 25 } ### gov_strong_support
			add_to_variable = { PG_desire_mff_social = -10 } ### gov_resist
			add_to_variable = { PG_desire_mff_green = -10 } ### gov_resist
			add_to_variable = { PG_desire_mff_comms = -10 } ### gov_resist
			add_to_variable = { PG_desire_mff_nats = 25 } ### gov_strong_support	
		}							
	}
	ai_will_do = {
		factor = 0
		
		modifier = {
			add = 1
			FROM = {
				gov_is_eurosceptical = yes
			}
			check_variable = { global.var_europeanism < 0.60 }
			check_variable = { THIS.eurosceptic < 0.2 }
			check_variable = { FROM.EU_budget_call_rate > 0.90 }
		}
	}		
}

### budget draft of the next fiscal year ###


EU_budget_preparations = {
	allowed = {
		always = yes
	}
	available = {
		has_global_flag = focus_EU_budget_EP_approval
		has_country_flag = EU_budget_draft
	}	
	activation = {
		always = no
	}	
	visible = { 
		has_idea = EU_member
		NOT = { has_global_flag = EU_budget_nfy }
	} 	
	days_mission_timeout = 30	
	selectable_mission = yes	
	fire_only_once = yes
	complete_effect = {
		add_political_power = global.EU_budget_draft_invested_PP
		effect_tooltip = {
			activate_mission = EU_budget_nfy_active
		}
		hidden_effect = {
			set_global_flag = EU_budget_nfy
			clear_variable = global.EU_budget_draft_invested_PP
			every_country = {
				limit = {
					has_idea = EU_member
				}
				activate_mission = EU_budget_nfy_active
				remove_mission = EU_budget_preparations
				remove_mission = EU_budget_draft_mission
				if = {
					limit = {
						has_country_flag = focus_EU_budget_EP_agenda
					}
					remove_mission = EU_parliament_focus_EUXXX_approve
				}
			}
		}
	}
	timeout_effect = {
		effect_tooltip = {
			activate_mission = EU_budget_nfy_active
		}
		hidden_effect = {		
			set_global_flag = EU_budget_nfy
			clear_variable = global.EU_budget_draft_invested_PP
			every_country = {
				limit = {
					has_idea = EU_member
				}
				activate_mission = EU_budget_nfy_active
				remove_mission = EU_budget_preparations
				remove_mission = EU_budget_draft_mission
				if = {
					limit = {
						has_country_flag = focus_EU_budget_EP_agenda
					}
					remove_mission = EU_parliament_focus_EUXXX_approve
				}						
			}
		}		
	}	
	ai_will_do = {
		factor = 1
	}
}

EU_budget_nfy_active = {
	allowed = {
		always = yes
	}
	available = {
		NOT = { has_global_flag = EU_budget_nfy }	
	}	
	activation = {
		always = no
	}	
	visible = { 
		has_idea = EU_member
	} 	
	days_mission_timeout = 335	
	selectable_mission = no	
	fire_only_once = yes
	complete_effect = {
		#non
	}
	timeout_effect = {
		clr_global_flag = EU_budget_nfy
		clr_global_flag = focus_EU_budget_EP_approval
		every_country = {
			limit = {
				has_idea = EU_member
			}
			clr_country_flag = EU_budget_draft
			activate_mission = EU_budget_preparations
			remove_mission = EU_budget_nfy_active
		}
		update_EU_average_gdp_lvl = yes
		update_EU_average_eco_lvl = yes
		set_EU_gdp = yes
		update_EU_total_budget = yes
		set_EU_expenditure = yes
		distribute_EU_budget = yes
	}	
	ai_will_do = {
		factor = 0
	}
}

EU_budget_draft = {

	available = {
		NOT = {
			any_country = {
				has_country_flag = EU_budget_draft				
			}
			any_country = {				
				has_country_flag = focus_on_EP_agenda
			}
		}	
		has_idea = EU_member
	}
	
	visible = {		
		any_country = {
			NOT = {
				has_country_flag = EU_budget_draft
			}	
			has_active_mission = EU_budget_preparations
		}				
		has_idea = EU_member 
	}
	
	complete_effect = {
		set_country_flag = EU_budget_draft
		set_variable = { global.EU_budget_draft_invested_PP = 0 }
		activate_mission = EU_budget_draft_mission
		### PG desire ###
		set_variable = { PG_desire_budget_cons = 0 }
		set_variable = { PG_desire_budget_libs = 0 }
		set_variable = { PG_desire_budget_social = 0 }
		set_variable = { PG_desire_budget_green = 0 }
		set_variable = { PG_desire_budget_comms = 0 }
		set_variable = { PG_desire_budget_nats = 0 }
	}	
	ai_will_do = {
		factor = 0
	}		
}


EU_budget_draft_mission = { 
	allowed = {
		always = yes
	}
	available = {
		OR = {
			influence_on_all_other_EU_members_10_percent = yes
			AND = {
				has_idea = EU_commission_president
				influence_on_all_other_EU_members_5_percent = yes
			}
			has_idea = EU_finance_minister
		}
		NOT = {
			any_country = {				
				has_country_flag = focus_on_EP_agenda
			}
		}
	}	
	activation = {
		always = no
	}
	visible = { 
		has_idea = EU_member
		has_country_flag = EU_budget_draft
		NOT = { has_global_flag = EU_budget_nfy }
	} 
	days_mission_timeout = 14
	selectable_mission = yes
	fire_only_once = yes
	complete_effect = {
		custom_effect_tooltip = "Puts the draft on the agenda of the European Parliament"
		hidden_effect = {
			set_country_flag = focus_EU_budget_EP_agenda			
			set_country_flag = focus_on_EP_agenda
			set_ruling_party_PG_support = yes
			activate_mission = EU_parliament_focus_EUXXX_approve
		}
	}
	timeout_effect = {
		if = {
			limit = {
				NOT = {
					any_country = {				
						has_country_flag = focus_on_EP_agenda
					}
				}					
			}
			custom_effect_tooltip = "Puts the draft on the agenda of the European Parliament"
			hidden_effect = {				
				set_country_flag = focus_EU_budget_EP_agenda			
				set_country_flag = focus_on_EP_agenda
				set_ruling_party_PG_support = yes
				activate_mission = EU_parliament_focus_EUXXX_approve
			}
		}
	}	
	ai_will_do = {
		factor = 1
	}
}

### EU_expenditure ###

### growth/natural ###
EU_budget_growth_up_natural_down = { 
	cost = 100
	available = {
		has_idea = EU_member
	}	
	visible = {		
		has_idea = EU_member
		check_variable = { global.EU_natural_exp_ratio > 0.10 }
		check_variable = { global.EU_growth_exp_ratio < 0.80 }
		any_country = {
			has_country_flag = EU_budget_draft
			has_active_mission = EU_budget_draft_mission
		}		
	}	
	complete_effect = {
		custom_effect_tooltip = "tooltip_EU_budget_growth_up_natural_down_effect"
		hidden_effect = {
			log = "[GetDateText]: [ROOT.GetName]: decision EU_budget_growth_up_natural_down"		
			add_to_variable = { global.EU_growth_exp_ratio = 0.05 }		
			subtract_from_variable = { global.EU_natural_exp_ratio = 0.05 }
			update_EU_expenditure = yes
			distribute_EU_budget = yes
			add_to_variable = { global.EU_budget_draft_invested_PP = 100 }
			add_to_variable = { THIS.EU_budget_draft_invested_PP = 100 }
			### PG desire ###
			add_to_variable = { PG_desire_budget_cons = -25 } ### gov_strong_resist
			add_to_variable = { PG_desire_budget_libs = 25 } ### gov_strong_support
			add_to_variable = { PG_desire_budget_social = 25 } ### gov_strong_support
			add_to_variable = { PG_desire_budget_green = -25 } ### gov_strong_resist
			add_to_variable = { PG_desire_budget_comms = 25 } ### gov_strong_support
			add_to_variable = { PG_desire_budget_nats = 0 }		
		}	
	}
	ai_will_do = {
		factor = 0
		modifier = {
			add = 1
			check_variable = { global.EU_growth_exp_ratio < 0.60 }
			OR = {
				is_in_array = { ruling_party = 3 } ### socialism
				is_in_array = { ruling_party = 18 } ### neutral_Social
				is_in_array = { ruling_party = 17 } ### Neutral_green
			}
		}
		modifier = {
			add = 1
			check_variable = { global.EU_growth_exp_ratio < 0.70 }
			OR = {
				is_in_array = { ruling_party = 2 } ### liberalism
				is_in_array = { ruling_party = 16 } ### Neutral_Libertarian
			}
		}
		modifier = {
			add = 1
			check_variable = { global.EU_growth_exp_ratio < 0.60 }
			OR = {
				is_in_array = { ruling_party = 4 } ### Communist-State
				is_in_array = { ruling_party = 5 } ### anarchist_communism
				is_in_array = { ruling_party = 19 } ### Neutral_Communism
			}
		}
		modifier = {
			add = 1
			check_variable = { global.EU_average_eco_lvl > EU_average_eco_lvl }
		}
		modifier = {
			factor = 0
			check_variable = { global.EU_average_eco_lvl < EU_average_eco_lvl }
		}
		modifier = {
			factor = 0
			check_variable = { THIS.EU_budget_draft_invested_PP > 99 }
		}																
	}		
}

EU_budget_growth_down_natural_up = { 
	cost = 100
	available = {
		has_idea = EU_member
	}	
	visible = {		
		has_idea = EU_member
		check_variable = { global.EU_growth_exp_ratio > 0.10 }
		check_variable = { global.EU_natural_exp_ratio < 0.80 }
		any_country = {
			has_country_flag = EU_budget_draft
			has_active_mission = EU_budget_draft_mission
		}				 
	}	
	complete_effect = {
		custom_effect_tooltip = "tooltip_EU_budget_growth_down_natural_up_effect"
		hidden_effect = {
			log = "[GetDateText]: [ROOT.GetName]: decision EU_budget_growth_down_natural_up"
			subtract_from_variable = { global.EU_growth_exp_ratio = 0.05 }
			add_to_variable = { global.EU_natural_exp_ratio = 0.05 }
			update_EU_expenditure = yes
			distribute_EU_budget = yes
			add_to_variable = { global.EU_budget_draft_invested_PP = 100 }
			add_to_variable = { THIS.EU_budget_draft_invested_PP = 100 }
			### PG desire ###
			add_to_variable = { PG_desire_budget_cons = 25 } ### gov_strong_support
			add_to_variable = { PG_desire_budget_libs = -25 } ### gov_strong_resist
			add_to_variable = { PG_desire_budget_social = -25 } ### gov_strong_resist
			add_to_variable = { PG_desire_budget_green = 25 } ### gov_strong_support
			add_to_variable = { PG_desire_budget_comms = -25 } ### gov_strong_resist
			add_to_variable = { PG_desire_budget_nats = 0 }	
		}	
	}
	ai_will_do = {
		factor = 0
		modifier = {
			add = 1
			check_variable = { global.EU_natural_exp_ratio < 0.60 }
			OR = {
				is_in_array = { ruling_party = 1 } ### conservatism
				is_in_array = { ruling_party = 6 } ### Conservative
				is_in_array = { ruling_party = 14 } ### Neutral_conservatism
			}
		}
		modifier = {
			add = 1
			check_variable = { global.EU_natural_exp_ratio < 0.60 }
			is_in_array = { ruling_party = 17 } ### Neutral_green
		}
		modifier = {
			add = 1
			check_variable = { global.EU_average_gdp_lvl > EU_average_gdp_lvl }
		}
		modifier = {
			factor = 0
			check_variable = { THIS.EU_budget_draft_invested_PP > 99 }
		}								
	}		
}

### global ###
EU_budget_raise_global_exp = { 
	cost = 100
	available = {
		has_idea = EU_member
	}	
	visible = {		
		has_idea = EU_member
		check_variable = { global.EU_global_exp_ratio < 0.80 }
		check_variable = { global.EU_growth_exp_ratio > 0.07 }
		check_variable = { global.EU_natural_exp_ratio > 0.07 }
		any_country = {
			has_country_flag = EU_budget_draft
			has_active_mission = EU_budget_draft_mission
		}		
	}	
	complete_effect = {
		custom_effect_tooltip = "tooltip_EU_budget_raise_global_exp_effect"
		hidden_effect = {
			log = "[GetDateText]: [ROOT.GetName]: decision EU_budget_raise_global_exp"
			add_to_variable = { global.EU_global_exp_ratio = 0.04 }
			subtract_from_variable = { global.EU_growth_exp_ratio = 0.02 }
			subtract_from_variable = { global.EU_natural_exp_ratio = 0.02 }		
			update_EU_expenditure = yes
			distribute_EU_budget = yes
			add_to_variable = { global.EU_budget_draft_invested_PP = 100 }
			add_to_variable = { THIS.EU_budget_draft_invested_PP = 100 }
			### PG desire ###
			add_to_variable = { PG_desire_budget_cons = -10 } ### gov_resist
			add_to_variable = { PG_desire_budget_libs = 10 } ### gov_support
			add_to_variable = { PG_desire_budget_social = -10 } ### gov_resist
			add_to_variable = { PG_desire_budget_green = -10 } ### gov_resist
			add_to_variable = { PG_desire_budget_comms = -10 } ### gov_resist
			add_to_variable = { PG_desire_budget_nats = -10 } ### gov_resist
		}		
	}
	ai_will_do = {
		factor = 0
		modifier = {
			add = 1
			check_variable = { global.EU_global_exp_ratio < 0.12 }
			OR = {
				is_in_array = { ruling_party = 2 } ### liberalism
				is_in_array = { ruling_party = 16 } ### Neutral_Libertarian
			}
		}
		modifier = {
			add = 4
			check_variable = { global.EU_global_exp_ratio < 0.18 }
			is_leader_of_EU_foreign_policy = yes
		}
		modifier = {
			factor = 0
			check_variable = { THIS.EU_budget_draft_invested_PP > 99 }
		}		
	}		
}

EU_budget_lower_global_exp = { 
	cost = 100
	available = {
		has_idea = EU_member
	}	
	visible = {		
		has_idea = EU_member
		check_variable = { global.EU_global_exp_ratio > 0.09 }
		check_variable = { global.EU_growth_exp_ratio < 0.80 }
		check_variable = { global.EU_natural_exp_ratio < 0.80 }
		any_country = {
			has_country_flag = EU_budget_draft
			has_active_mission = EU_budget_draft_mission
		}				 
	}	
	complete_effect = {
		custom_effect_tooltip = "tooltip_EU_budget_lower_global_exp_effect"
		hidden_effect = {
			log = "[GetDateText]: [ROOT.GetName]: decision EU_budget_lower_global_exp"
			subtract_from_variable = { global.EU_global_exp_ratio = 0.04 }
			add_to_variable = { global.EU_growth_exp_ratio = 0.02 }
			add_to_variable = { global.EU_natural_exp_ratio = 0.02 }
			update_EU_expenditure = yes
			distribute_EU_budget = yes
			add_to_variable = { global.EU_budget_draft_invested_PP = 100 }
			add_to_variable = { THIS.EU_budget_draft_invested_PP = 100 }
			### PG desire ###
			add_to_variable = { PG_desire_budget_cons = 10 } ### gov_support
			add_to_variable = { PG_desire_budget_libs = -10 } ### gov_resist
			add_to_variable = { PG_desire_budget_social = 10 } ### gov_support
			add_to_variable = { PG_desire_budget_green = 10 } ### gov_support
			add_to_variable = { PG_desire_budget_comms = 10 } ### gov_support
			add_to_variable = { PG_desire_budget_nats = 10 } ### gov_support		
		}
	}
	ai_will_do = {
		factor = 0
		modifier = {
			add = 1
			check_variable = { global.EU_global_exp_ratio > 0.09 }
			OR = {
				is_in_array = { ruling_party = 20 } ### Nat_Populism
				is_in_array = { ruling_party = 21 } ### Nat_Fascism
				is_in_array = { ruling_party = 22 } ### Nat_Autocracy
				is_in_array = { ruling_party = 23 } ### Monarchist
			}
		}
		modifier = {
			factor = 0
			check_variable = { THIS.EU_budget_draft_invested_PP > 99 }
		}				
	}		
}

### admin ###
EU_budget_raise_admin_exp = { 
	cost = 100
	available = {
		has_idea = EU_member
	}	
	visible = {		
		has_idea = EU_member
		check_variable = { global.EU_admin_exp_ratio < 0.80 }
		check_variable = { global.EU_growth_exp_ratio > 0.05 }
		check_variable = { global.EU_natural_exp_ratio > 0.05 }
		any_country = {
			has_country_flag = EU_budget_draft
			has_active_mission = EU_budget_draft_mission
		}				 
	}	
	complete_effect = {
		custom_effect_tooltip = "tooltip_EU_budget_raise_admin_exp_effect"
		hidden_effect = {
			log = "[GetDateText]: [ROOT.GetName]: decision EU_budget_raise_admin_exp"		
			add_to_variable = { global.EU_admin_exp_ratio = 0.04 }
			subtract_from_variable = { global.EU_growth_exp_ratio = 0.02 }
			subtract_from_variable = { global.EU_natural_exp_ratio = 0.02 }	
			update_EU_expenditure = yes
			distribute_EU_budget = yes
			add_to_variable = { global.EU_budget_draft_invested_PP = 100 }
			add_to_variable = { THIS.EU_budget_draft_invested_PP = 100 }
			### PG desire ###
			add_to_variable = { PG_desire_budget_cons = -10 } ### gov_resist
			add_to_variable = { PG_desire_budget_libs = -10 } ### gov_resist
			add_to_variable = { PG_desire_budget_social = 0 } 
			add_to_variable = { PG_desire_budget_green = 0 } 
			add_to_variable = { PG_desire_budget_comms = 0 } 
			add_to_variable = { PG_desire_budget_nats = 10 } ### gov_support		
		}
	}
	ai_will_do = {
		factor = 0
		modifier = {
			add = 1
			check_variable = { global.EU_admin_exp_ratio < 0.18 }
			OR = {
				is_in_array = { ruling_party = 20 } ### Nat_Populism
				is_in_array = { ruling_party = 21 } ### Nat_Fascism
				is_in_array = { ruling_party = 22 } ### Nat_Autocracy
				is_in_array = { ruling_party = 23 } ### Monarchist
			}
		}
		modifier = {
			factor = 0
			check_variable = { THIS.EU_budget_draft_invested_PP > 99 }
		}				
	}		
}

EU_budget_lower_admin_exp = { 
	cost = 100
	available = {
		has_idea = EU_member
	}	
	visible = {		
		has_idea = EU_member
		check_variable = { global.EU_admin_exp_ratio > 0.09 }
		check_variable = { global.EU_growth_exp_ratio < 0.80 }
		check_variable = { global.EU_natural_exp_ratio < 0.80 }
		any_country = {
			has_country_flag = EU_budget_draft
			has_active_mission = EU_budget_draft_mission
		}		
	}	
	complete_effect = {
		custom_effect_tooltip = "tooltip_EU_budget_lower_admin_exp_effect"
		hidden_effect = {
			log = "[GetDateText]: [ROOT.GetName]: decision EU_budget_lower_admin_exp"
			subtract_from_variable = { global.EU_admin_exp_ratio = 0.04 }
			add_to_variable = { global.EU_growth_exp_ratio = 0.02 }
			add_to_variable = { global.EU_natural_exp_ratio = 0.02 }
			update_EU_expenditure = yes
			distribute_EU_budget = yes
			add_to_variable = { global.EU_budget_draft_invested_PP = 100 }
			add_to_variable = { THIS.EU_budget_draft_invested_PP = 100 }
			### PG desire ###
			add_to_variable = { PG_desire_budget_cons = 10 } ### gov_support
			add_to_variable = { PG_desire_budget_libs = 10 } ### gov_support
			add_to_variable = { PG_desire_budget_social = 0 } 
			add_to_variable = { PG_desire_budget_green = 0 } 
			add_to_variable = { PG_desire_budget_comms = 0 } 
			add_to_variable = { PG_desire_budget_nats = -10 } ### gov_resist	
		}	
	}
	ai_will_do = {
		factor = 0
		modifier = {
			add = 1
			check_variable = { global.EU_admin_exp_ratio > 0.09 }
			OR = {
				is_in_array = { ruling_party = 2 } ### liberalism
				is_in_array = { ruling_party = 16 } ### Neutral_Libertarian
			}
		}
		modifier = {
			factor = 0
			check_variable = { THIS.EU_budget_draft_invested_PP > 99 }
		}				
	}		
}

} 

###################################
### End of EU_budget_category	###
###################################

