version="1.1"
name="Millennium_Dawn DEV"
tags={
	"Alternative History"
	"Gameplay"
	"Events"
	"Graphics"
}
supported_version="1.10.*"
picture = "thumbnail.png"
remote_file_id="719416488"

replace_path = "events"
replace_path = "common/abilities"
replace_path = "common/ai_focuses"
replace_path = "common/ai_peace"
replace_path = "common/ai_strategy"
replace_path = "common/ai_strategy_plans"
replace_path = "common/ai_templates"
replace_path = "common/autonomous_states"
replace_path = "common/countries"
replace_path = "common/decisions"
replace_path = "common/decisions/categories"
replace_path = "common/ideas"
replace_path = "common/national_focus"
replace_path = "common/scripted_effects"
replace_path = "common/scripted_localisation"
replace_path = "common/scripted_triggers"
replace_path = "common/scripted_diplomatic_actions"
replace_path = "common/technologies"
replace_path = "common/technology_sharing"
replace_path = "common/units"
replace_path = "common/units/equipment"
replace_path = "common/units/equipment/upgrades"
replace_path = "common/units/names_divisions"
replace_path = "common/units/codenames_operatives"
replace_path = "common/wargoals"
replace_path = "history/states"
replace_path = "history/units"
replace_path = "history/countries"
replace_path = "map/strategicregions"
replace_path = "map/supplyareas"
replace_path = "history/countries/"
replace_path = "events/"
replace_path = "gfx/loadingscreens"
replace_path = "portraits"
