ideas = {

	Vehicle_Company = {
	
		designer = yes
		
		SYR_hmisho_vehicles = {
			on_add = { log = "[GetDateText]: [Root.GetName]: add idea SYR_hmisho_vehicles" }
		
			picture = Hmisho_Vehicles_SYR
			
			allowed = {
				OR = {
					original_tag = SYR
					original_tag = FSA
					original_tag = NUS
				}
			}
			
			available = {
				has_completed_focus = SYR_subsidise_hmisho_vehicles
			}
			
			cost = 150
			
			removal_cost = 10
			
			research_bonus = {
				Cat_UTIL = 0.10
			}
			
			traits = {
				Cat_AFV_1
			}
			ai_will_do = {
				factor = 0.3 #All countries need a land army, vehicles are part of modern warfare
				
				modifier = {
					num_of_military_factories > 10 #has the industry to take advantage of the company
					factor = 1
				}
				modifier = {
					is_major = yes #Majors project power
					factor = 1
				}
				modifier = {
					has_better_than_AFV_1 = yes
					factor = 0
				}
				modifier = {
					is_researching_afv = yes
					factor = 4000
				}
			}
			
		}
	}
	
	Infantry_Weapon_Company = {
	
		designer = yes
		
		SYR_damascus_steel = {
			on_add = { log = "[GetDateText]: [Root.GetName]: add idea SYR_damascus_steel" }
		
			picture = Damascus_Steel_SYR
			
			allowed = {
				OR = {
					original_tag = SYR
					original_tag = FSA
					original_tag = NUS
				}
			}
			
			available = {
				has_completed_focus = SYR_form_damascus_steel
			}
			
			cost = 150
			
			removal_cost = 10
			
			research_bonus = {
				Cat_INF_WEP = 0.05
			}
			
			traits = {
				Cat_INF_WEP_2
			
			}
			ai_will_do = {
				factor = 0.3 #All countries need a land army, vehicles are part of modern warfare
				
				modifier = {
					num_of_military_factories > 5 #has the industry to take advantage of the company
					factor = 1
				}
				modifier = {
					is_major = yes #Majors project power
					factor = 1
				}
				modifier = {
					has_better_than_INF_WEP_2 = yes
					factor = 0
				}
				modifier = {
					is_researching_infantry_weapons = yes
					factor = 4000
				}
			}
			
		}
	}
	
}
