###Angriest Bird/Tortoise

focus_tree = {
	
	id = brazil
	
	country = {
		factor = 0
		modifier = {
			add = 25
			tag = BRA
		}
	}
	
	continuous_focus_position = { x = 1000 y = 1600 }
	#Lula main political tree
	focus = {
		id = BRA_lula
		icon = workers_party
		
		x = 2
		y = 0
		
		cost = 5

		available = { 
			has_country_leader = { name = "Luiz Inacio Lula De Silva" }
		}
		bypass = { 
			date > 2016.12.31
		}
		cancel_if_invalid = yes
		continue_if_invalid = yes
		available_if_capitulated = no
		
		search_filters = {FOCUS_FILTER_POLITICAL}
		
		complete_tooltip = { }
		completion_reward = {
			log = "[GetDateText]: [Root.GetName]: Focus BRA_lula"
			country_event = brazil.4
			unlock_decision_category_tooltip = BRA_workers_party_alignment_decision_category
		}
		
		ai_will_do = {
			factor = 1
		}
	}
	
	focus = {
		id = BRA_nossa_economia
		icon = money

		x = 0
		y = 1
		relative_position_id = BRA_lula
		
		cost = 5
		
		prerequisite = { focus = BRA_lula }
		mutually_exclusive = { }
		available = { }
		historical_ai = { }
		select_effect = { }
		bypass = { }
		cancel = { }
		
		search_filters = {FOCUS_FILTER_INDUSTRY}
		
		cancel_if_invalid = yes
		continue_if_invalid = yes
		available_if_capitulated = no
		
		complete_tooltip = { }
		completion_reward = {
			log = "[GetDateText]: [Root.GetName]: Focus BRA_nossa_economia"
			add_ideas = BRA_idea_nossa_economia
			if = {
				limit = { has_idea = BRA_idea_crippled_currency }
				remove_ideas = BRA_idea_crippled_currency
			}
		}
		
		ai_will_do = {
			factor = 1
		}
	}
	
	focus = {
		id = BRA_the_internal
		icon = neutrality
		
		x = 2
		y = 1
		relative_position_id = BRA_lula
		
		cost = 5
		
		prerequisite = { focus = BRA_lula }
		
		cancel_if_invalid = yes
		continue_if_invalid = yes
		available_if_capitulated = no
		
		search_filters = {FOCUS_FILTER_EXPENDITURE FOCUS_FILTER_POLITICAL}
		
		complete_tooltip = { }
		completion_reward = {
			log = "[GetDateText]: [Root.GetName]: Focus BRA_the_internal"
			decrease_centralization = yes
			subtract_from_variable = { BRA_brazilian_party_alignment = 10.0 }
			custom_effect_tooltip = BRA_the_internal_tt
		}
		
		ai_will_do = {
			factor = 1
		}
	}
	
	focus = {
		id = BRA_nosso_povo
		icon = construction

		x = 4
		y = 1
		relative_position_id = BRA_lula
		
		cost = 5
		
		prerequisite = { focus = BRA_lula }
		mutually_exclusive = { }
		available = { }
		historical_ai = { }
		select_effect = { }
		bypass = { }
		cancel = { }
		
		cancel_if_invalid = yes
		continue_if_invalid = yes
		available_if_capitulated = no
		
		search_filters = {FOCUS_FILTER_POLITICAL}
		
		complete_tooltip = { }
		completion_reward = {
			log = "[GetDateText]: [Root.GetName]: Focus BRA_nosso_povo"
			add_political_power = 100
		}
		
		ai_will_do = {
			factor = 1
		}
	}
	
	focus = {
		id = BRA_pay_back_the_imf
		icon = imf

		x = 0
		y = 2
		relative_position_id = BRA_lula
		
		cost = 5
		
		prerequisite = { focus = BRA_nossa_economia }
		mutually_exclusive = { }
		available = { }
		historical_ai = { }
		select_effect = { }
		bypass = { }
		cancel = { }
		
		cancel_if_invalid = yes
		continue_if_invalid = yes
		available_if_capitulated = no
				
		complete_tooltip = { }
		completion_reward = {
			log = "[GetDateText]: [Root.GetName]: Focus BRA_pay_back_the_imf"
			if = { 
				limit = { has_idea = BRA_idea_imf_debts }
				remove_ideas = BRA_idea_imf_debts
			}	
			subtract_from_variable = { debt = 100 }
			add_to_variable = { BRA_brazilian_party_alignment = 5.0 }
			custom_effect_tooltip = BRA_pay_back_the_imf_tt
		}
		
		ai_will_do = {
			factor = 1
		}
	}
	
	focus = {
		id = BRA_brazilian_exports
		icon = trade

		x = 0
		y = 3
		relative_position_id = BRA_lula
		
		cost = 5
		
		prerequisite = { 
			focus = BRA_pay_back_the_imf 
		}
		mutually_exclusive = { }
		available = { }
		historical_ai = { }
		select_effect = { }
		bypass = { }
		cancel = { }
		
		cancel_if_invalid = yes
		continue_if_invalid = yes
		available_if_capitulated = no
		
		complete_tooltip = { }
		completion_reward = {
			log = "[GetDateText]: [Root.GetName]: Focus BRA_brazilian_exports"
			country_event = brazil.5
		}
		
		ai_will_do = {
			factor = 1
		}
	}
	
	focus = {
		id = BRA_foreign_companies
		icon = union_negotiations

		x = 0
		y = 4
		relative_position_id = BRA_lula
		
		cost = 5
		
		prerequisite = { focus = BRA_brazilian_exports }
		cancel_if_invalid = yes
		continue_if_invalid = yes
		available_if_capitulated = no
		
		search_filters = { FOCUS_FILTER_INDUSTRY FOCUS_FILTER_INTERNAL_FACTION }
		
		complete_tooltip = { }
		completion_reward = {
			log = "[GetDateText]: [Root.GetName]: Focus BRA_foreign_companies"
			random_owned_controlled_state = {
				add_building_construction = {
					type = industrial_complex
					level = 2
					instant_build = yes
				}
			}
			subtract_from_variable = { treasury = 10 }
			custom_effect_tooltip = 10_billion_expense_tt			
			increase_industrial_conglomerates_opinion = yes
		}
		
		ai_will_do = {
			factor = 1
		}
	}
	
	focus = {
		id = BRA_discuss_the_party
		icon = national_unity

		x = 2
		y = 2
		relative_position_id = BRA_lula
		
		cost = 5
		
		prerequisite = { 
			focus = BRA_the_internal 
		}
		mutually_exclusive = { }
		available = { }
		historical_ai = { }
		select_effect = { }
		bypass = { }
		cancel = { }
		
		cancel_if_invalid = yes
		continue_if_invalid = yes
		available_if_capitulated = no
		
		search_filters = {FOCUS_FILTER_STABILITY}
		
		complete_tooltip = { }
		completion_reward = {
			log = "[GetDateText]: [Root.GetName]: Focus BRA_discuss_the_party"
			add_stability = .05
		}
		
		ai_will_do = {
			factor = 1
		}
	}
	
	focus = {
		id = BRA_finalize_the_agenda
		icon = stolen_papers

		x = 2
		y = 3
		relative_position_id = BRA_lula
		
		cost = 5
		
		prerequisite = { 
			focus = BRA_discuss_the_party 
		}
		mutually_exclusive = { }
		available = { }
		historical_ai = { }
		select_effect = { }
		bypass = { }
		cancel = { }
		
		cancel_if_invalid = yes
		continue_if_invalid = yes
		available_if_capitulated = no
		
		search_filters = {FOCUS_FILTER_POLITICAL FOCUS_FILTER_STABILITY}
		
		complete_tooltip = { }
		completion_reward = {
			log = "[GetDateText]: [Root.GetName]: Focus BRA_finalize_the_agenda"
			add_stability = .05
			add_political_power = 100
		}
		
		ai_will_do = {
			factor = 1
		}
	}
	
	focus = {
		id = BRA_root_out_corrpution
		icon = coins

		x = 2
		y = 4
		relative_position_id = BRA_lula
		
		cost = 5
		
		prerequisite = { 
			focus = BRA_finalize_the_agenda 
		}
		available = {
			OR = {
				has_idea = paralyzing_corruption
				has_idea = crippling_corruption
				has_idea = rampant_corruption
				has_idea = unrestrained_corruption
				has_idea = systematic_corruption
				has_idea = widespread_corruption
				has_idea = medium_corruption
			}
		}
		bypass = { 
			has_idea = negligible_corruption 
		}
		cancel_if_invalid = yes
		continue_if_invalid = yes
		available_if_capitulated = no
		
		search_filters = {FOCUS_FILTER_CORRUPTION FOCUS_FILTER_POLITICAL}
		
		complete_tooltip = { }
		completion_reward = {
			log = "[GetDateText]: [Root.GetName]: Focus BRA_root_out_corrpution"
			decrease_corruption = yes
			add_to_variable = { BRA_brazilian_party_alignment = 5.0 }
			custom_effect_tooltip = BRA_raise_party_alignment_by_5_tt
		}
		
		ai_will_do = {
			factor = 1
		}
	}
	
	focus = {
		id = BRA_bolsa_familia
		icon = democracy2

		x = 4
		y = 2
		relative_position_id = BRA_lula
		
		cost = 5
		
		prerequisite = { 
			focus = BRA_nosso_povo
		}
		mutually_exclusive = { }
		available = { }
		historical_ai = { }
		select_effect = { }
		bypass = { }
		cancel = { }
		
		cancel_if_invalid = yes
		continue_if_invalid = yes
		available_if_capitulated = no
		
		search_filters = {FOCUS_FILTER_EXPENDITURE FOCUS_FILTER_POLITICAL}
		
		complete_tooltip = { }
		completion_reward = {
			log = "[GetDateText]: [Root.GetName]: Focus BRA_bolsa_familia"
			increase_education_budget = yes
			add_to_variable = { BRA_brazilian_party_alignment = 5.0 }
			custom_effect_tooltip = BRA_raise_party_alignment_by_5_tt
		}
		
		ai_will_do = {
			factor = 1
		}
	}
	
	focus = {
		id = BRA_socialism_in_concept
		icon = communism3

		x = 4
		y = 3
		relative_position_id = BRA_lula
		
		cost = 5
		
		prerequisite = { 
			focus = BRA_bolsa_familia			
		}
		mutually_exclusive = { }
		available = { }
		historical_ai = { }
		select_effect = { }
		bypass = { }
		cancel = { }
		
		cancel_if_invalid = yes
		continue_if_invalid = yes
		available_if_capitulated = no
		
		search_filters = {FOCUS_FILTER_EXPENDITURE FOCUS_FILTER_POLITICAL}
		
		complete_tooltip = { }
		completion_reward = {
			log = "[GetDateText]: [Root.GetName]: Focus BRA_socialism_in_concept"
			increase_healthcare_budget = yes
			subtract_from_variable = { BRA_brazilian_party_alignment = 5.0 }
			custom_effect_tooltip = BRA_lowers_party_alignment_by_5_tt
		}
		
		ai_will_do = {
			factor = 1
		}
	}
	
	focus = {
		id = BRA_fome_zero
		icon = democracy4

		x = 4
		y = 4
		relative_position_id = BRA_lula
		
		cost = 5
		
		prerequisite = { 
			focus = BRA_socialism_in_concept 
		}
		mutually_exclusive = { }
		available = { }
		historical_ai = { }
		select_effect = { }
		bypass = { }
		cancel = { }
		
		cancel_if_invalid = yes
		continue_if_invalid = yes
		available_if_capitulated = no
		
		search_filters = {FOCUS_FILTER_EXPENDITURE}
		
		complete_tooltip = { }
		completion_reward = {
			log = "[GetDateText]: [Root.GetName]: Focus BRA_fome_zero"
			increase_social_spending = yes
		}
		
		ai_will_do = {
			factor = 1
		}
	}
	
	focus = {
		id = BRA_new_wave_ideas
		icon = tripartite_pact

		x = 2
		y = 5
		relative_position_id = BRA_lula
		
		cost = 10
		
		prerequisite = { 
			focus = BRA_root_out_corrpution
		}
		prerequisite = { 
			focus = BRA_fome_zero
		}
		prerequisite = {
			focus = BRA_foreign_companies
		}
		mutually_exclusive = { }
		available = { }
		historical_ai = { }
		select_effect = { }
		bypass = { }
		cancel = { }
		
		cancel_if_invalid = yes
		continue_if_invalid = yes
		available_if_capitulated = no
		
		search_filters = {FOCUS_FILTER_INDUSTRY FOCUS_FILTER_WAR_SUPPORT}
		
		complete_tooltip = { }
		completion_reward = {
			log = "[GetDateText]: [Root.GetName]: Focus BRA_new_wave_ideas"
			add_ideas = BRA_idea_new_wave_ideas
			add_political_power = -50
		}
		
		ai_will_do = {
			factor = 1
		}
	}
	
	focus = {
		id = BRA_war_on_the_cartels
		icon = ample_cocaine

		x = 0
		y = 5
		relative_position_id = BRA_lula
		
		cost = 10
		
		prerequisite = { 
			focus = BRA_root_out_corrpution
		}
		prerequisite = {
			focus = BRA_foreign_companies
		}
		mutually_exclusive = { }
		available = { 
			OR = {
				has_idea = cartels_4
				has_idea = cartels_3
				has_idea = cartels_2
				has_idea = cartels_1
			}
		}
		historical_ai = { }
		select_effect = { }
		bypass = { }
		cancel = { }
		
		cancel_if_invalid = yes
		continue_if_invalid = yes
		available_if_capitulated = no
		
		search_filters = {FOCUS_FILTER_CORRUPTION FOCUS_FILTER_MANPOWER FOCUS_FILTER_POLITICAL FOCUS_FILTER_STABILITY}
		
		complete_tooltip = { }
		completion_reward = {
			log = "[GetDateText]: [Root.GetName]: Focus BRA_war_on_the_cartels"
			#unlock_decision_category_tooltip = BRA_war_on_the_cartels_decision_category
			remove_ideas = cartels_3
		}
		
		ai_will_do = {
			factor = 1
		}
	}
	
	focus = {
		id = BRA_global_diplomacy
		icon = global_community

		x = 4
		y = 5
		relative_position_id = BRA_lula
		
		cost = 5
		
		prerequisite = { 
			focus = BRA_root_out_corrpution
		}
		prerequisite = {
			focus = BRA_fome_zero
		}
		mutually_exclusive = { }
		available = { 
			threat > 0.10
		}
		historical_ai = { }
		select_effect = { }
		bypass = { }
		cancel = { }
		
		cancel_if_invalid = yes
		continue_if_invalid = yes
		available_if_capitulated = no
		
		search_filters = {FOCUS_FILTER_POLITICAL}
		
		complete_tooltip = { }
		completion_reward = {
			log = "[GetDateText]: [Root.GetName]: Focus BRA_global_diplomacy"
			add_political_power = 100
		}
		
		ai_will_do = {
			factor = 1
		}
	}
	
	focus = {
		id = BRA_align_to_nato
		icon = nato

		x = 2
		y = 6
		relative_position_id = BRA_lula
		
		cost = 10
		
		prerequisite = {
			focus = BRA_global_diplomacy
		}
		
		cancel_if_invalid = yes
		continue_if_invalid = yes
		available_if_capitulated = no
		
		search_filters = {FOCUS_FILTER_POLITICAL}
		
		completion_reward = {
			log = "[GetDateText]: [Root.GetName]: Focus BRA_align_to_nato"
			add_opinion_modifier = { target = USA modifier = supports_nato }
			USA = {
				add_opinion_modifier = { target = ROOT modifier = supports_nato }
				add_political_power = 25
			}
			add_opinion_modifier = { target = FRA modifier = supports_nato }
			FRA = {
				add_opinion_modifier = { target = ROOT modifier = supports_nato }
				add_political_power = 25
			}
			add_opinion_modifier = { target = GER modifier = supports_nato }
			GER = {
				add_opinion_modifier = { target = ROOT modifier = supports_nato }
				add_political_power = 25
			}
			add_opinion_modifier = { target = ENG modifier = supports_nato }
			ENG = {
				add_opinion_modifier = { target = ROOT modifier = supports_nato }
				add_political_power = 25
			}
			add_opinion_modifier = { target = CAN modifier = supports_nato }
			CAN = {
				add_opinion_modifier = { target = ROOT modifier = supports_nato }
				add_political_power = 25
			}
			add_political_power = 50
		}
		
		ai_will_do = {
			factor = 1
		}
	}
	
	focus = {
		id = BRA_non_aligned
		icon = christ_the_redeemer

		x = 4
		y = 6
		relative_position_id = BRA_lula
		
		cost = 10
		
		prerequisite = {
			focus = BRA_global_diplomacy
		}
		mutually_exclusive = { }
		available = { 
		
		}
		historical_ai = { }
		select_effect = { }
		bypass = { }
		cancel = { }
		
		cancel_if_invalid = yes
		continue_if_invalid = yes
		available_if_capitulated = no
		
		search_filters = {FOCUS_FILTER_POLITICAL}
		
		complete_tooltip = { }
		completion_reward = {
			log = "[GetDateText]: [Root.GetName]: Focus BRA_non_aligned"
			add_political_power = 100
		}
		
		ai_will_do = {
			factor = 1
		}
	}
	
	focus = {
		id = BRA_eastern_alignment
		icon = GFX_brics

		x = 6
		y = 6
		relative_position_id = BRA_lula
		
		cost = 10
		
		prerequisite = {
			focus = BRA_global_diplomacy
		}
	
		cancel_if_invalid = yes
		continue_if_invalid = yes
		available_if_capitulated = no
		
		search_filters = {FOCUS_FILTER_POLITICAL}
		
		completion_reward = {
			log = "[GetDateText]: [Root.GetName]: Focus BRA_eastern_alignment"
			add_opinion_modifier = { target = SOV modifier = supports_the_east }
			SOV = {
				add_opinion_modifier = { target = ROOT modifier = supports_the_east }
				add_political_power = 25
			}
			add_opinion_modifier = { target = RAJ modifier = supports_the_east }
			RAJ = {
				add_opinion_modifier = { target = ROOT modifier = supports_the_east }
				add_political_power = 25
			}
			add_opinion_modifier = { target = CHI modifier = supports_the_east }
			CHI = {
				add_opinion_modifier = { target = ROOT modifier = supports_the_east }
				add_political_power = 25
			}
			add_opinion_modifier = { target = SAF modifier = supports_the_east }
			SAF = {
				add_opinion_modifier = { target = ROOT modifier = supports_the_east }
				add_political_power = 25
			}
			add_political_power = 50
		}
		
		ai_will_do = {
			factor = 1
		}
	}
	
#industrial

	focus = {
		id = BRA_growth_through_freedom
		icon = economic_prosperity

		x = -4
		y = 2
		relative_position_id = BRA_nossa_economia
		
		cost = 10
		
		prerequisite = { focus = BRA_nossa_economia }
		mutually_exclusive = { }
		available = { }
		historical_ai = { }
		select_effect = { }
		bypass = { }
		cancel = { }
		
		cancel_if_invalid = yes
		continue_if_invalid = yes
		available_if_capitulated = no
		
		search_filters = {FOCUS_FILTER_INDUSTRY FOCUS_FILTER_POLITICAL}
		
		complete_tooltip = { }
		completion_reward = {
			log = "[GetDateText]: [Root.GetName]: Focus BRA_growth_through_freedom"
			add_ideas = BRA_idea_growth_through_freedom
		}
		
		ai_will_do = {
			factor = 1
		}
	}
	
	focus = {
		id = BRA_build_fortaleza
		icon = construction

		x = -2
		y = 3
		relative_position_id = BRA_nossa_economia
		
		cost = 10
		
		prerequisite = { focus = BRA_growth_through_freedom }
		mutually_exclusive = { }
		available = { 
			has_full_control_of_state = 889
		}
		historical_ai = { }
		select_effect = { }
		bypass = { }
		cancel = { }
		
		cancel_if_invalid = yes
		continue_if_invalid = yes
		available_if_capitulated = no
		
		search_filters = {FOCUS_FILTER_INDUSTRY}
		
		complete_tooltip = { }
		completion_reward = {
			log = "[GetDateText]: [Root.GetName]: Focus BRA_build_fortaleza"
			889 = {
				add_extra_state_shared_building_slots = 2
				add_building_construction = {
					type = industrial_complex
					level = 2
					instant_build = yes
				}
			}
			hidden_effect = {
				add_to_variable = {
					treasury = -10
				}
			}
			custom_effect_tooltip = 10_billion_expense_tt
		}	
		
		ai_will_do = {
			factor = 1
		}
	}
	
	focus = {
		id = BRA_brazilian_research_and_development
		icon = research2

		x = -4
		y = 3
		relative_position_id = BRA_nossa_economia
		
		cost = 10
		
		prerequisite = { focus = BRA_growth_through_freedom }
		mutually_exclusive = { }
		available = {
			OR = {
				has_idea = modest_corruption
				has_idea = slight_corruption
				has_idea = negligible_corruption
			}
		}
		historical_ai = { }
		select_effect = { }
		bypass = { }
		cancel = { }
		
		cancel_if_invalid = yes
		continue_if_invalid = yes
		available_if_capitulated = no
		
		search_filters = {FOCUS_FILTER_RESEARCH}
		
		complete_tooltip = { }
		completion_reward = {
			log = "[GetDateText]: [Root.GetName]: Focus BRA_brazilian_research_and_development"
			add_research_slot = 1
			hidden_effect = {
				add_to_variable = {
					treasury = -10
				}
			}
			custom_effect_tooltip = 10_billion_expense_tt
		}
		
		ai_will_do = {
			factor = 1
		}
	}
	
	focus = {
		id = BRA_develop_recife
		icon = industry3

		x = -6
		y = 3
		relative_position_id = BRA_nossa_economia
		
		cost = 10
		
		prerequisite = { focus = BRA_growth_through_freedom }
		mutually_exclusive = { }
		available = { 
			has_full_control_of_state = 888
		}
		historical_ai = { }
		select_effect = { }
		bypass = { }
		cancel = { }
		
		cancel_if_invalid = yes
		continue_if_invalid = yes
		available_if_capitulated = no
		
		search_filters = {FOCUS_FILTER_INDUSTRY}
		
		complete_tooltip = { }
		completion_reward = {
			log = "[GetDateText]: [Root.GetName]: Focus BRA_develop_recife"
			888 = {
				add_extra_state_shared_building_slots = 2
				add_building_construction = {
					type = industrial_complex
					level = 2
					instant_build = yes
				}
			}
			hidden_effect = {
				add_to_variable = {
					treasury = -10
				}
			}
			custom_effect_tooltip = 10_billion_expense_tt
		}
		
		ai_will_do = {
			factor = 1
		}
	}
	
	focus = {
		id = BRA_northeastern_stimulus
		icon = industry2

		x = -8
		y = 4
		relative_position_id = BRA_nossa_economia
		
		cost = 10
		
		prerequisite = { focus = BRA_develop_recife }
		mutually_exclusive = { }
		available = {
			has_full_control_of_state = 890
		}
		historical_ai = { }
		select_effect = { }
		bypass = { }
		cancel = { }
		
		cancel_if_invalid = yes
		continue_if_invalid = yes
		available_if_capitulated = no
		
		search_filters = {FOCUS_FILTER_INDUSTRY}
		
		complete_tooltip = { }
		completion_reward = {
			log = "[GetDateText]: [Root.GetName]: Focus BRA_northeastern_stimulus"
			890 = {
				add_extra_state_shared_building_slots = 2
				add_building_construction = {
					type = industrial_complex
					level = 2
					instant_build = yes
				}
			}
			hidden_effect = {
				add_to_variable = {
					treasury = -10
				}
			}
			custom_effect_tooltip = 10_billion_expense_tt
		}
		
		ai_will_do = {
			factor = 1
		}
	}
	
	focus = {
		id = BRA_rio_employment_projects
		icon = industry

		x = -6
		y = 4
		relative_position_id = BRA_nossa_economia
		
		cost = 10
		
		prerequisite = { focus = BRA_develop_recife }
		mutually_exclusive = { }
		available = { 
			has_full_control_of_state = 883
		}
		historical_ai = { }
		select_effect = { }
		bypass = { }
		cancel = { }
		
		cancel_if_invalid = yes
		continue_if_invalid = yes
		available_if_capitulated = no
		
		search_filters = {FOCUS_FILTER_INDUSTRY}
		
		complete_tooltip = { }
		completion_reward = {
			log = "[GetDateText]: [Root.GetName]: Focus BRA_rio_employment_projects"
			883 = {
				add_extra_state_shared_building_slots = 3
				add_building_construction = {
					type = industrial_complex
					level = 2
					instant_build = yes
				}
				add_building_construction = {
					type = arms_factory
					level = 1
					instant_build = yes
				}
			}	
			hidden_effect = {
				add_to_variable = {
					treasury = -15
				}
			}
			custom_effect_tooltip = 15_billion_expense_tt
		}
		ai_will_do = {
			factor = 1
		}
	}
	
	focus = {
		id = BRA_foreign_research_methods
		icon = research3

		x = -4
		y = 4
		relative_position_id = BRA_nossa_economia
		
		cost = 10
		
		prerequisite = { focus = BRA_brazilian_research_and_development }
		mutually_exclusive = { }
		available = { }
		historical_ai = { }
		select_effect = { }
		bypass = { }
		cancel = { }
		
		cancel_if_invalid = yes
		continue_if_invalid = yes
		available_if_capitulated = no
		
		search_filters = {FOCUS_FILTER_RESEARCH}
		
		complete_tooltip = { }
		completion_reward = {
			log = "[GetDateText]: [Root.GetName]: Focus BRA_foreign_research_methods"
			add_ideas = BRA_idea_foreign_research_and_development
		}
		
		ai_will_do = {
			factor = 1
		}
	}
	
	focus = {
		id = BRA_amazonian_el_dorado
		icon = production

		x = -2
		y = 4
		relative_position_id = BRA_nossa_economia
		
		cost = 2
		
		prerequisite = { focus = BRA_build_fortaleza }
		mutually_exclusive = { }
		available = {
			has_full_control_of_state = 892
		}
		historical_ai = { }
		select_effect = { }
		bypass = { }
		cancel = { }
		
		cancel_if_invalid = yes
		continue_if_invalid = yes
		available_if_capitulated = no
		
		search_filters = {FOCUS_FILTER_INDUSTRY}
		
		complete_tooltip = { }
		completion_reward = {
			log = "[GetDateText]: [Root.GetName]: Focus BRA_amazonian_el_dorado"
			892 = {
				add_extra_state_shared_building_slots = 4
				add_building_construction = {
					type = industrial_complex
					level = 4
					instant_build = yes
				}
			}
			hidden_effect = {
				add_to_variable = {
					treasury = -20
				}
			}
			custom_effect_tooltip = 20_billion_expense_tt			
		}
		
		ai_will_do = {
			factor = 1
		}
	}
#industrial-internal factions

	focus = {
		id = BRA_help_the_farmers
		icon = agriculture

		x = -2
		y = 5
		relative_position_id = BRA_nossa_economia
		
		cost = 10
		
		prerequisite = { focus = BRA_amazonian_el_dorado }
		prerequisite = { focus = BRA_foreign_research_methods }
		mutually_exclusive = { focus = BRA_support_the_unions }
		cancel_if_invalid = yes
		continue_if_invalid = yes
		available_if_capitulated = no
		
		search_filters = {FOCUS_FILTER_INTERNAL_FACTION}
		
		complete_tooltip = { }
		completion_reward = {
			log = "[GetDateText]: [Root.GetName]: Focus BRA_help_the_farmers"
			increase_farmers_opinion = yes 
			decrease_labour_unions_opinion = yes
		}
		
		ai_will_do = {
			base = 5
			
		}
	}
	
	focus = {
		id = BRA_support_the_unions
		icon = union_negotiations

		x = -4
		y = 5
		relative_position_id = BRA_nossa_economia
		
		cost = 10
		
		prerequisite = { focus = BRA_foreign_research_methods }
		prerequisite = { focus = BRA_amazonian_el_dorado }
		mutually_exclusive = { focus = BRA_help_the_farmers }
		
		cancel_if_invalid = yes
		continue_if_invalid = yes
		available_if_capitulated = no
		
		search_filters = {FOCUS_FILTER_INTERNAL_FACTION}
		
		complete_tooltip = { }
		completion_reward = {
			log = "[GetDateText]: [Root.GetName]: Focus BRA_support_the_unions"
			increase_labour_unions_opinion = yes
			decrease_farmers_opinion = yes
		}
		
		ai_will_do = {
			factor = 1
		}
	}
	
	focus = {
		id = BRA_pro_union
		icon = steel_production

		x = -4
		y = 6
		relative_position_id = BRA_nossa_economia
		
		cost = 10
		
		prerequisite = { focus = BRA_support_the_unions }
		mutually_exclusive = { }
		available = { }
		historical_ai = { }
		select_effect = { }
		bypass = { }
		cancel = { }
		
		cancel_if_invalid = yes
		continue_if_invalid = yes
		available_if_capitulated = no
		
		search_filters = {FOCUS_FILTER_INDUSTRY}
		
		complete_tooltip = { }
		completion_reward = {
			log = "[GetDateText]: [Root.GetName]: Focus BRA_pro_union"
			add_ideas = BRA_idea_pro_unions
		}
		
		ai_will_do = {
			factor = 1
		}
	}
	focus = {
		id = BRA_agrarian_economy
		icon = agriculture2

		x = -2
		y = 6
		relative_position_id = BRA_nossa_economia
		
		cost = 10
		
		prerequisite = { focus = BRA_help_the_farmers }
		mutually_exclusive = { }
		available = { }
		historical_ai = { }
		select_effect = { }
		bypass = { }
		cancel = { }
		
		cancel_if_invalid = yes
		continue_if_invalid = yes
		available_if_capitulated = no
		
		search_filters = {FOCUS_FILTER_MANPOWER FOCUS_FILTER_RESOURCE}
		
		complete_tooltip = { }
		completion_reward = {
			log = "[GetDateText]: [Root.GetName]: Focus BRA_agrarian_economy"
			add_ideas = BRA_idea_pro_farmers
		}
		
		ai_will_do = {
			factor = 1
		}
	}
#industrial-Neighbors
	focus = {
		id = BRA_neighborly_development
		icon = industry_democratic3

		x = -9
		y = 5
		relative_position_id = BRA_nossa_economia
		
		cost = 10
		
		prerequisite = { focus = BRA_northeastern_stimulus }
		prerequisite = { focus = BRA_rio_employment_projects }
		mutually_exclusive = { }
		available = { }
		historical_ai = { }
		select_effect = { }
		bypass = { }
		cancel = { }
		
		cancel_if_invalid = yes
		continue_if_invalid = yes
		available_if_capitulated = no
		
		search_filters = {FOCUS_FILTER_MANPOWER}
		
		complete_tooltip = { }
		completion_reward = {
			log = "[GetDateText]: [Root.GetName]: Focus BRA_neighborly_development"
			add_ideas = BRA_idea_mercosur_member_state
		}
		
		ai_will_do = {
			factor = 1
		}
	}
	
	focus = {
		id = BRA_the_guays
		icon = flag_guay

		x = -7
		y = 6
		relative_position_id = BRA_nossa_economia
		
		cost = 10
		
		prerequisite = { focus = BRA_neighborly_development }
		mutually_exclusive = { }
		available = { }
		historical_ai = { }
		select_effect = { }
		bypass = { }
		cancel = { }
		
		cancel_if_invalid = yes
		continue_if_invalid = yes
		available_if_capitulated = no
		
		complete_tooltip = { }
		completion_reward = {
			log = "[GetDateText]: [Root.GetName]: Focus BRA_the_guays"
			if = {
				limit = {
					country_exists = PAR
					NOT = { has_war_with = PAR }
				}
				PAR = {
					country_event = brazil.16
				}	
			}
			if = {
				limit = {
					country_exists = URG
					NOT = { has_war_with = URG }
				}
				URG = {
					country_event = brazil.16
				}
			}
		}
		
		ai_will_do = {
			factor = 1
		}
	}
	
	focus = {
		id = BRA_argentina
		icon = flag_argentina

		x = -9
		y = 6
		relative_position_id = BRA_nossa_economia
		
		cost = 10
		
		prerequisite = { focus = BRA_neighborly_development }
		mutually_exclusive = { }
		available = { }
		historical_ai = { }
		select_effect = { }
		bypass = { }
		cancel = { }
		
		cancel_if_invalid = yes
		continue_if_invalid = yes
		available_if_capitulated = no
		
		complete_tooltip = { }
		completion_reward = {
			log = "[GetDateText]: [Root.GetName]: Focus BRA_argentina"
			if = {
				limit = {
					country_exists = ARG
					NOT = { has_war_with = ARG }
				}
				ARG = {
					country_event = brazil.16
				}
			}
		}
		
		ai_will_do = {
			factor = 1
		}
	}
	
	focus = {
		id = BRA_bolivia
		icon = flag_bolivia

		x = -11
		y = 6
		relative_position_id = BRA_nossa_economia
		
		cost = 10
		
		prerequisite = { focus = BRA_neighborly_development }
		mutually_exclusive = { }
		available = { }
		historical_ai = { }
		select_effect = { }
		bypass = { }
		cancel = { }
		
		cancel_if_invalid = yes
		continue_if_invalid = yes
		available_if_capitulated = no
		
		complete_tooltip = { }
		completion_reward = {
			log = "[GetDateText]: [Root.GetName]: Focus BRA_bolivia"
			if = {
				limit = {
					country_exists = BOL
					NOT = { has_war_with = BOL }
				}
				BOL = {
					country_event = brazil.16
				}
			}
		}
		
		ai_will_do = {
			factor = 1
		}
	}
	
	focus = {
		id = BRA_western_coastal_countries
		icon = treaty2

		x = -10
		y = 7
		relative_position_id = BRA_nossa_economia
		
		cost = 10
		
		prerequisite = { focus = BRA_bolivia }
		prerequisite = { focus = BRA_argentina }
		mutually_exclusive = { }
		available = { }
		historical_ai = { }
		select_effect = { }
		bypass = { }
		cancel = { }
		
		cancel_if_invalid = yes
		continue_if_invalid = yes
		available_if_capitulated = no
		
		complete_tooltip = { }
		completion_reward = {
			log = "[GetDateText]: [Root.GetName]: Focus BRA_western_coastal_countries"
			if = {
				limit = {
					country_exists = CHL
					NOT = { has_war_with = CHL }
				}
				CHL = {
					country_event = brazil.16
				}
			}
			if = {
				limit = {
					country_exists = PRU
					NOT = { has_war_with = PRU }
				}
				PRU = {
					country_event = brazil.16
				}
			}
			if = {
				limit = {
					country_exists = ECU
					NOT = { has_war_with = ECU }
				}
				ECU = {
					country_event = brazil.16
				}
			}
		}
		
		ai_will_do = {
			factor = 1
		}
	}
	
	focus = {
		id = BRA_northerners
		icon = treaty

		x = -8
		y = 7
		relative_position_id = BRA_nossa_economia
		
		cost = 10
		
		prerequisite = { focus = BRA_the_guays }
		prerequisite = { focus = BRA_argentina }
		mutually_exclusive = { }
		available = { }
		historical_ai = { }
		select_effect = { }
		bypass = { }
		cancel = { }
		
		cancel_if_invalid = yes
		continue_if_invalid = yes
		available_if_capitulated = no
		
		complete_tooltip = { }
		completion_reward = {
			log = "[GetDateText]: [Root.GetName]: Focus BRA_northerners"
			if = {
				limit = {
					country_exists = COL
					NOT = { has_war_with = COL }
				}
				COL = {
					country_event = brazil.16
				}
			}
			if = {
				limit = {
					country_exists = VEN
					NOT = { has_war_with = VEN }
				}
				VEN = {
					country_event = brazil.16
				}
			}
			if = {
				limit = {
					country_exists = GUY
					NOT = { has_war_with = GUY }
				}
				GUY = {
					country_event = brazil.16
				}
			}
			if = {
				limit = {
					country_exists = SUR
					NOT = { has_war_with = SUR }
				}
				SUR = {
					country_event = brazil.16
				}
			}
		}
		
		ai_will_do = {
			factor = 1
		}
	}
	
#moreforeignpolicy

	focus = {
		id = BRA_the_way_we_judge
		icon = improve_relations_cyan

		x = 2
		y = 7
		relative_position_id = BRA_lula
		
		cost = 10
		
		prerequisite = { focus = BRA_new_wave_ideas }
		mutually_exclusive = { }
		available = { }
		historical_ai = { }
		select_effect = { }
		bypass = { }
		cancel = { }
		
		cancel_if_invalid = yes
		continue_if_invalid = yes
		available_if_capitulated = no
		
		search_filters = {FOCUS_FILTER_POLITICAL}
		
		complete_tooltip = { }
		completion_reward = {
			log = "[GetDateText]: [Root.GetName]: Focus BRA_the_way_we_judge"
			add_political_power = 100
		}
		
		ai_will_do = {
			factor = 1
		}
	}
	
	focus = {
		id = BRA_isolationism
		icon = align_to_brazil

		x = 0
		y = 8
		relative_position_id = BRA_lula
		
		cost = 10
		
		prerequisite = { focus = BRA_the_way_we_judge }
		mutually_exclusive = { focus = BRA_the_country_of_brotherly_love }
		available = {
			NOT = {
				has_idea = BRA_idea_party_of_progress
				has_idea = BRA_idea_modern_reformist
			}
		}
		historical_ai = { }
		select_effect = { }
		bypass = { }
		cancel = { }
		
		cancel_if_invalid = yes
		continue_if_invalid = yes
		available_if_capitulated = no
		
		search_filters = {FOCUS_FILTER_MILITARY_LAWS}
		
		complete_tooltip = { }
		completion_reward = {
			log = "[GetDateText]: [Root.GetName]: Focus BRA_isolationism"
			if = {
				limit = { has_idea = intervention_local_security  }
				swap_ideas = { remove_idea = intervention_local_security  add_idea = intervention_isolation  }
			}
			if = {
				limit = { has_idea = intervention_limited_interventionism   }
				swap_ideas = { remove_idea = intervention_local_security  add_idea = intervention_isolation  }
			}
			if = {
				limit = { has_idea = intervention_limited_interventionism   }
				swap_ideas = { remove_idea = intervention_limited_interventionism   add_idea = intervention_isolation  }
			}
			if = {
				limit = { has_idea = intervention_isolation  }
				add_political_power = 100 #If player already has desired law
			}
		}
		
		ai_will_do = {
			factor = 1
		}
	}
	
	focus = {
		id = BRA_the_country_of_brotherly_love
		icon = race_relations2

		x = 4
		y = 8
		relative_position_id = BRA_lula
		
		cost = 10
		
		prerequisite = { focus = BRA_the_way_we_judge }
		mutually_exclusive = { focus = BRA_isolationism }
		available = { 
			NOT = {
				has_idea = BRA_idea_neo_comunista
				has_idea = BRA_idea_radical_leftist
			}
		}
		historical_ai = { }
		select_effect = { }
		bypass = { }
		cancel = { }
		
		cancel_if_invalid = yes
		continue_if_invalid = yes
		available_if_capitulated = no
		
		complete_tooltip = { }
		completion_reward = {
			log = "[GetDateText]: [Root.GetName]: Focus BRA_the_country_of_brotherly_love"
			add_ideas = BRA_idea_diplomatic_powerhouse
		}
		
		ai_will_do = {
			factor = 1
			modifier = {
				add = 5
				is_historical_focus_on = Yes
			}
		}
	}
	
	focus = {
		id = BRA_restrict_travelers
		icon = colonial_crackdown

		x = -1
		y = 9
		relative_position_id = BRA_lula
		
		cost = 10
		
		prerequisite = { focus = BRA_isolationism }
		mutually_exclusive = { }
		available = { }
		historical_ai = { }
		select_effect = { }
		bypass = { }
		cancel = { }
		
		cancel_if_invalid = yes
		continue_if_invalid = yes
		available_if_capitulated = no
		
		search_filters = {FOCUS_FILTER_STABILITY}
		
		complete_tooltip = { }
		completion_reward = {
			log = "[GetDateText]: [Root.GetName]: Focus BRA_restrict_travelers"
			add_ideas = BRA_idea_restricted_travelers
		}
		
		ai_will_do = {
			factor = 1
		}
	}
	
	focus = {
		id = BRA_shut_down_the_borders
		icon = anti_immigration1

		x = -1
		y = 10
		relative_position_id = BRA_lula
		
		cost = 10
		
		prerequisite = { focus = BRA_restrict_travelers }
		mutually_exclusive = { }
		available = { }
		historical_ai = { }
		select_effect = { }
		bypass = { }
		cancel = { }
		
		cancel_if_invalid = yes
		continue_if_invalid = yes
		available_if_capitulated = no
		
		search_filters = {FOCUS_FILTER_STABILITY}
		
		complete_tooltip = { }
		completion_reward = {
			log = "[GetDateText]: [Root.GetName]: Focus BRA_shut_down_the_borders"
			swap_ideas = {
				remove_idea = BRA_idea_restricted_travelers
				add_idea = BRA_idea_extensive_border_control
			}
		}
		
		ai_will_do = {
			factor = 1
		}
	}
	
	focus = {
		id = BRA_brazil_first
		icon = political_pressure

		x = 1
		y = 9
		relative_position_id = BRA_lula
		
		cost = 10
		
		prerequisite = { focus = BRA_isolationism }
		mutually_exclusive = { }
		available = { }
		historical_ai = { }
		select_effect = { }
		bypass = { }
		cancel = { }
		
		cancel_if_invalid = yes
		continue_if_invalid = yes
		available_if_capitulated = no
		
		search_filters = {FOCUS_FILTER_POLITICAL}
		
		complete_tooltip = { }
		completion_reward = {
			log = "[GetDateText]: [Root.GetName]: Focus BRA_brazil_first"
			add_political_power = 100
		}
		
		ai_will_do = {
			factor = 1
		}
	}
	
	focus = {
		id = BRA_gunboat_diplomacy
		icon = dangerous_deal2

		x = 1
		y = 10
		relative_position_id = BRA_lula
		
		cost = 10
		
		prerequisite = { focus = BRA_brazil_first }
		mutually_exclusive = { }
		available = { }
		historical_ai = { }
		select_effect = { }
		bypass = { }
		cancel = { }
		
		cancel_if_invalid = yes
		continue_if_invalid = yes
		available_if_capitulated = no
		
		search_filters = {FOCUS_FILTER_ANNEXATION}
		
		complete_tooltip = { }
		completion_reward = {
			log = "[GetDateText]: [Root.GetName]: Focus BRA_gunboat_diplomacy"
			893 = { add_claim_by = BRA }
			894 = { add_claim_by = BRA }
			895 = { add_claim_by = BRA }
			896 = { add_claim_by = BRA }
		}
		
		ai_will_do = {
			factor = 1
		}
	}
	
	focus = {
		id = BRA_brazil_above_all
		icon = anti_democracy3

		x = 0
		y = 11
		relative_position_id = BRA_lula
		
		cost = 10
		
		prerequisite = { focus = BRA_brazil_first }
		mutually_exclusive = { }
		available = { }
		historical_ai = { }
		select_effect = { }
		bypass = { }
		cancel = { }
		
		cancel_if_invalid = yes
		continue_if_invalid = yes
		available_if_capitulated = no
		
		search_filters = {FOCUS_FILTER_POLITICAL}
		
		complete_tooltip = { }
		completion_reward = {
			log = "[GetDateText]: [Root.GetName]: Focus BRA_brazil_above_all"
			add_popularity = {
				ideology = communism
				popularity = 0.05
			}
		}
		
		ai_will_do = {
			factor = 1
		}
	}
	
	focus = {
		id = BRA_the_international_mediator
		icon = democracy

		x = 3
		y = 9
		relative_position_id = BRA_lula
		
		cost = 10
		
		prerequisite = { focus = BRA_the_country_of_brotherly_love }
		mutually_exclusive = { }
		available = { }
		historical_ai = { }
		select_effect = { }
		bypass = { }
		cancel = { }
		
		cancel_if_invalid = yes
		continue_if_invalid = yes
		available_if_capitulated = no
		
		complete_tooltip = { }
		completion_reward = {
			log = "[GetDateText]: [Root.GetName]: Focus BRA_the_international_mediator"
			swap_ideas = {
				remove_idea = BRA_idea_diplomatic_powerhouse
				add_idea = BRA_idea_the_international_mediator
			}
		}
		
		ai_will_do = {
			factor = 1
		}
	}
	
	focus = {
		id = BRA_strength_in_cooperation
		icon = treaty2

		x = 5
		y = 9
		relative_position_id = BRA_lula
		
		cost = 10
		
		prerequisite = { focus = BRA_the_country_of_brotherly_love }
		mutually_exclusive = { }
		available = { }
		historical_ai = { }
		select_effect = { }
		bypass = { }
		cancel = { }
		
		cancel_if_invalid = yes
		continue_if_invalid = yes
		available_if_capitulated = no
		
		search_filters = {FOCUS_FILTER_POLITICAL}
		
		complete_tooltip = { }
		completion_reward = {
			log = "[GetDateText]: [Root.GetName]: Focus BRA_strength_in_cooperation"
			add_political_power = 100
		}
		
		ai_will_do = {
			factor = 1
		}
	}
	
	focus = {
		id = BRA_visit_every_country
		icon = intelligence_exchange

		x = 3
		y = 10
		relative_position_id = BRA_lula
		
		cost = 10
		
		prerequisite = { focus = BRA_the_international_mediator }
		mutually_exclusive = { }
		available = { }
		historical_ai = { }
		select_effect = { }
		bypass = { }
		cancel = { }
		
		cancel_if_invalid = yes
		continue_if_invalid = yes
		available_if_capitulated = no
		
		search_filters = {FOCUS_FILTER_STABILITY}
		
		complete_tooltip = { }
		completion_reward = {
			log = "[GetDateText]: [Root.GetName]: Focus BRA_visit_every_country"
			add_stability = 0.10
		}
		
		ai_will_do = {
			factor = 1
		}
	}
	
	focus = {
		id = BRA_support_the_little_guys
		icon = military_mission

		x = 5
		y = 10
		relative_position_id = BRA_lula
		
		cost = 10
		
		prerequisite = { focus = BRA_strength_in_cooperation }
		mutually_exclusive = { }
		available = { 
			
		}
		historical_ai = { }
		select_effect = { }
		bypass = { }
		cancel = { }
		
		cancel_if_invalid = yes
		continue_if_invalid = yes
		available_if_capitulated = no
		
		complete_tooltip = { }
		completion_reward = {
			log = "[GetDateText]: [Root.GetName]: Focus BRA_support_the_little_guys"
			if = {
				limit = {
					country_exists = GUY
					NOT = { has_war_with = BRA }
				}
				GUY = {
					877 = { add_building_construction = { type = infrastructure level = 1 instant_build = yes } }
					add_opinion_modifier = { target = BRA modifier = brazilian_investments }
					add_to_variable = { influence_array_val^0 = 5 }
				}
			}
			
			if = {
				limit = {
					country_exists = SUR
					NOT = { has_war_with = BRA }
				}
				SUR = {
					878 = { add_building_construction = { type = infrastructure level = 1 instant_build = yes } }
					add_opinion_modifier = { target = BRA modifier = brazilian_investments }
					add_to_variable = { influence_array_val^0 = 5 }
				}
			}
			
			if = {
				limit = {
					country_exists = PAR
					NOT = { has_war_with = BRA }
				}
				PAR = {
					895 = { add_building_construction = { type = infrastructure level = 1 instant_build = yes } }
					add_opinion_modifier = { target = BRA modifier = brazilian_investments }
					add_to_variable = { influence_array_val^0 = 5 }
				}
			}
			
			if = {
				limit = {
					country_exists = URG
					NOT = { has_war_with = BRA }
				}
				URG = {
					894 = { add_building_construction = { type = infrastructure level = 1 instant_build = yes } }
					add_opinion_modifier = { target = BRA modifier = brazilian_investments }
					add_to_variable = { influence_array_val^0 = 5 }
				}
			}
		}
		
		ai_will_do = {
			factor = 1
		}
	}
	
	focus = {
		id = BRA_a_global_power
		icon = diplomacy

		x = 4
		y = 11
		relative_position_id = BRA_lula
		
		cost = 10
		
		prerequisite = { focus = BRA_visit_every_country }
		prerequisite = { focus = BRA_support_the_little_guys }
		mutually_exclusive = { }
		available = { }
		historical_ai = { }
		select_effect = { }
		bypass = { }
		cancel = { }
		
		cancel_if_invalid = yes
		continue_if_invalid = yes
		available_if_capitulated = no
		
		search_filters = {FOCUS_FILTER_STABILITY}
		
		complete_tooltip = { }
		completion_reward = {
			log = "[GetDateText]: [Root.GetName]: Focus BRA_a_global_power"
			add_ideas = BRA_idea_a_global_power
		}
		
		ai_will_do = {
			factor = 1
		}
	}
	
#military
	focus = {
		id = BRA_nosso_exercito
		icon = army_reform

		x = 11
		y = 0
		
		cost = 10
		
		prerequisite = { } 
		mutually_exclusive = { }
		available = { }
		historical_ai = { }
		select_effect = { }
		bypass = { }
		cancel = { }
		
		cancel_if_invalid = yes
		continue_if_invalid = yes
		available_if_capitulated = no
		
		complete_tooltip = { }
		completion_reward = {
			log = "[GetDateText]: [Root.GetName]: Focus BRA_nosso_exercito"
			army_experience = 10
		}
		
		ai_will_do = {
			factor = 1
		}
	}
	
	focus = {
		id = BRA_marinha_do_brasil
		icon = navy2

		x = 21
		y = 0
		
		cost = 10
		
		prerequisite = { } 
		mutually_exclusive = { }
		available = { }
		historical_ai = { }
		select_effect = { }
		bypass = { }
		cancel = { }
		
		cancel_if_invalid = yes
		continue_if_invalid = yes
		available_if_capitulated = no
		
		complete_tooltip = { }
		completion_reward = {
			log = "[GetDateText]: [Root.GetName]: Focus BRA_marinha_do_brasil"
			navy_experience = 10
		}
		
		ai_will_do = {
			factor = 1
		}
	}
	
	focus = {
		id = BRA_imbel
		icon = BRA_imbel_icon

		x = 0
		y = 1
		relative_position_id = BRA_nosso_exercito
		
		cost = 10
		
		prerequisite = { focus = BRA_nosso_exercito } 
		mutually_exclusive = { }
		available = { }
		historical_ai = { }
		select_effect = { }
		bypass = { }
		cancel = { }
		
		cancel_if_invalid = yes
		continue_if_invalid = yes
		available_if_capitulated = no
		
		complete_tooltip = { }
		completion_reward = {
			log = "[GetDateText]: [Root.GetName]: Focus BRA_imbel"
			add_ideas = BRA_idea_imbel
		}
		
		ai_will_do = {
			factor = 1
		}
	}
	
	focus = {
		id = BRA_modern_artillery
		icon = artillery

		x = 0
		y = 2
		relative_position_id = BRA_nosso_exercito
		
		cost = 10
		
		prerequisite = { focus = BRA_imbel } 
		mutually_exclusive = { }
		available = { }
		historical_ai = { }
		select_effect = { }
		bypass = { }
		cancel = { }
		
		cancel_if_invalid = yes
		continue_if_invalid = yes
		available_if_capitulated = no
		
		complete_tooltip = { }
		completion_reward = {
			log = "[GetDateText]: [Root.GetName]: Focus BRA_modern_artillery"
			add_ideas = BRA_idea_modern_artillery
		}
		
		ai_will_do = {
			factor = 1
		}
	}
	
	focus = {
		id = BRA_strength_on_land
		icon = infantry_india

		x = 0
		y = 4
		relative_position_id = BRA_nosso_exercito
		
		cost = 10
		
		prerequisite = { focus = BRA_modern_artillery } 
		mutually_exclusive = { focus = BRA_reform_the_navy }
		available = {
			threat > 0.15
		}
		historical_ai = { }
		select_effect = { }
		bypass = { }
		cancel = { }
		
		cancel_if_invalid = yes
		continue_if_invalid = yes
		available_if_capitulated = no
		
		complete_tooltip = { }
		completion_reward = {
			log = "[GetDateText]: [Root.GetName]: Focus BRA_strength_on_land"
			add_ideas = BRA_idea_strength_on_land
		}
		
		ai_will_do = {
			factor = 1
		}
	}
	
	focus = {
		id = BRA_homemade_rifles
		icon = small_arms2

		x = 2
		y = 1
		relative_position_id = BRA_nosso_exercito
		
		cost = 10
		
		prerequisite = { focus = BRA_nosso_exercito } 
		mutually_exclusive = { }
		available = { }
		historical_ai = { }
		select_effect = { }
		bypass = { }
		cancel = { }
		
		cancel_if_invalid = yes
		continue_if_invalid = yes
		available_if_capitulated = no
		
		search_filters = {FOCUS_FILTER_INDUSTRY FOCUS_FILTER_RESOURCE}
		
		complete_tooltip = { }
		completion_reward = {
			log = "[GetDateText]: [Root.GetName]: Focus BRA_homemade_rifles"
			add_ideas = BRA_idea_homemade_rifles
		}
		
		ai_will_do = {
			factor = 1
		}
	}
	
	focus = {
		id = BRA_western_military_factories
		icon = industry_military

		x = 0
		y = 1
		relative_position_id = BRA_homemade_rifles
		
		cost = 10
		
		prerequisite = { focus = BRA_homemade_rifles } 
		mutually_exclusive = { }
		available = { }
		historical_ai = { }
		select_effect = { }
		bypass = { }
		cancel = { }
		
		cancel_if_invalid = yes
		continue_if_invalid = yes
		available_if_capitulated = no
		
		search_filters = {FOCUS_FILTER_INDUSTRY}
		
		complete_tooltip = { }
		completion_reward = {
			log = "[GetDateText]: [Root.GetName]: Focus BRA_western_military_factories"
			886 = {
				add_extra_state_shared_building_slots = 2
				add_building_construction = {
					type = arms_factory
					level = 2
					instant_build = yes
				}
			}
			hidden_effect = {
				add_to_variable = {
					treasury = -10
				}
			}
			custom_effect_tooltip = 10_billion_expense_tt	
		}
		
		ai_will_do = {
			factor = 1
		}
	}
	
	focus = {
		id = BRA_northeastern_military_factories
		icon = industry_military

		x = 0
		y = 2
		relative_position_id = BRA_homemade_rifles
		
		cost = 10
		
		prerequisite = { focus = BRA_western_military_factories } 
		mutually_exclusive = { }
		available = { }
		historical_ai = { }
		select_effect = { }
		bypass = { }
		cancel = { }
		
		cancel_if_invalid = yes
		continue_if_invalid = yes
		available_if_capitulated = no
		
		search_filters = {FOCUS_FILTER_INDUSTRY}
		
		complete_tooltip = { }
		completion_reward = {
			log = "[GetDateText]: [Root.GetName]: Focus BRA_northeastern_military_factories"
			889 = {
				add_extra_state_shared_building_slots = 1
				add_building_construction = {
					type = arms_factory
					level = 1
					instant_build = yes
				}
			}
			888 = {
				add_extra_state_shared_building_slots = 2
				add_building_construction = {
					type = arms_factory
					level = 2
					instant_build = yes
				}
			}
			hidden_effect = {
				add_to_variable = {
					treasury = -15
				}
			}
			custom_effect_tooltip = 15_billion_expense_tt			
		}
		
		ai_will_do = {
			factor = 1
		}
	}
	
	focus = {
		id = BRA_national_drydocks
		icon = navy

		x = -2
		y = 1
		relative_position_id = BRA_marinha_do_brasil
		
		cost = 10
		
		prerequisite = { focus = BRA_marinha_do_brasil } 
		mutually_exclusive = { }
		available = { }
		historical_ai = { }
		select_effect = { }
		bypass = { }
		cancel = { }
		
		cancel_if_invalid = yes
		continue_if_invalid = yes
		available_if_capitulated = no
		
		search_filters = {FOCUS_FILTER_INDUSTRY}
		
		complete_tooltip = { }
		completion_reward = {
			log = "[GetDateText]: [Root.GetName]: Focus BRA_national_drydocks"
			889 = {
				add_extra_state_shared_building_slots = 1
				add_building_construction = {
					type = dockyard
					level = 1
					instant_build = yes
				}
			}
			hidden_effect = {
				add_to_variable = {
					treasury = -5
				}
			}
			custom_effect_tooltip = 5_billion_expense_tt			
		}
		
		ai_will_do = {
			factor = 1
		}
	}
	
	focus = {
		id = BRA_sao_paulo_naval_industries
		icon = naval_dockyard

		x = 0
		y = 1
		relative_position_id = BRA_national_drydocks
		
		cost = 10
		
		prerequisite = { focus = BRA_national_drydocks } 
		mutually_exclusive = { }
		available = { }
		historical_ai = { }
		select_effect = { }
		bypass = { }
		cancel = { }
		
		cancel_if_invalid = yes
		continue_if_invalid = yes
		available_if_capitulated = no
		
		search_filters = {FOCUS_FILTER_INDUSTRY}
		
		complete_tooltip = { }
		completion_reward = {
			log = "[GetDateText]: [Root.GetName]: Focus BRA_sao_paulo_naval_industries"
			882 = {
				add_extra_state_shared_building_slots = 1
				add_building_construction = {
					type = dockyard
					level = 1
					instant_build = yes
				}
			}
			hidden_effect = {
				add_to_variable = {
					treasury = -5
				}
			}
			custom_effect_tooltip = 5_billion_expense_tt			
		}
		
		ai_will_do = {
			factor = 1
		}
	}
	
	focus = {
		id = BRA_rio_drydocks
		icon = naval_dockyard

		x = 0
		y = 2
		relative_position_id = BRA_national_drydocks
		
		cost = 10
		
		prerequisite = { focus = BRA_sao_paulo_naval_industries } 
		mutually_exclusive = { }
		available = { }
		historical_ai = { }
		select_effect = { }
		bypass = { }
		cancel = { }
		
		cancel_if_invalid = yes
		continue_if_invalid = yes
		available_if_capitulated = no
		
		search_filters = {FOCUS_FILTER_INDUSTRY}
		
		complete_tooltip = { }
		completion_reward = {
			log = "[GetDateText]: [Root.GetName]: Focus BRA_rio_drydocks"
			883 = {
				add_extra_state_shared_building_slots = 2
				add_building_construction = {
					type = dockyard
					level = 2
					instant_build = yes
				}
			}
			hidden_effect = {
				add_to_variable = {
					treasury = -10
				}
			}
			custom_effect_tooltip = 10_billion_expense_tt			

		}
		
		ai_will_do = {
			factor = 1
		}
	}
	
	focus = {
		id = BRA_behind_the_times
		icon = amphibious_assault

		x = 0
		y = 1
		relative_position_id = BRA_marinha_do_brasil
		
		cost = 10
		
		prerequisite = { focus = BRA_marinha_do_brasil } 
		mutually_exclusive = { }
		available = { }
		historical_ai = { }
		select_effect = { }
		bypass = { }
		cancel = { }
		
		cancel_if_invalid = yes
		continue_if_invalid = yes
		available_if_capitulated = no
		
		complete_tooltip = { }
		completion_reward = {
			log = "[GetDateText]: [Root.GetName]: Focus BRA_behind_the_times"
			navy_experience = 10
		}
		
		ai_will_do = {
			factor = 1
		}
	}
	
	focus = {
		id = BRA_underwater_flotilla
		icon = submarines

		x = 0
		y = 2
		relative_position_id = BRA_marinha_do_brasil
		
		cost = 10
		
		prerequisite = { focus = BRA_behind_the_times } 
		mutually_exclusive = { }
		available = { }
		historical_ai = { }
		select_effect = { }
		bypass = { }
		cancel = { }
		
		cancel_if_invalid = yes
		continue_if_invalid = yes
		available_if_capitulated = no
		
		complete_tooltip = { }
		completion_reward = {
			log = "[GetDateText]: [Root.GetName]: Focus BRA_underwater_flotilla"
			add_ideas = BRA_idea_underwater_flotilla
		}
		
		ai_will_do = {
			factor = 1
		}
	}
	
	focus = {
		id = BRA_reform_the_navy
		icon = wolfpacks

		x = 0
		y = 4
		relative_position_id = BRA_marinha_do_brasil
		
		cost = 10
		
		prerequisite = { focus = BRA_underwater_flotilla } 
		mutually_exclusive = { focus = BRA_strength_on_land }
		available = {
			threat > 0.15
		}
		historical_ai = { }
		select_effect = { }
		bypass = { }
		cancel = { }
		
		cancel_if_invalid = yes
		continue_if_invalid = yes
		available_if_capitulated = no
		
		complete_tooltip = { }
		completion_reward = {
			log = "[GetDateText]: [Root.GetName]: Focus BRA_reform_the_navy"
			add_ideas = BRA_idea_reform_the_navy
		}
		
		ai_will_do = {
			factor = 1
		}
	}
#military-army
	focus = {
		id = BRA_ee_11
		icon = motorized

		x = -1
		y = 5
		relative_position_id = BRA_nosso_exercito
		
		cost = 10
		
		prerequisite = { focus = BRA_strength_on_land } 
		mutually_exclusive = { }
		available = { }
		historical_ai = { }
		select_effect = { }
		bypass = { }
		cancel = { }
		
		cancel_if_invalid = yes
		continue_if_invalid = yes
		available_if_capitulated = no
		
		search_filters = {FOCUS_FILTER_RESEARCH}
		
		complete_tooltip = { }
		completion_reward = {
			log = "[GetDateText]: [Root.GetName]: Focus BRA_ee_11"
			add_tech_bonus = {
				name = BRA_ee_11
				bonus = 0.75
				uses = 1
				technology = APC_1
				technology = APC_2
				technology = APC_3
				technology = APC_4
				technology = APC_5
				technology = APC_6
				technology = APC_7
				technology = APC_8
			}
		}
		
		ai_will_do = {
			factor = 1
		}
	}

	focus = {
		id = BRA_acquire_new_equipment
		icon = army_logistics

		x = 1
		y = 5
		relative_position_id = BRA_nosso_exercito
		
		cost = 10
		
		prerequisite = { focus = BRA_strength_on_land } 
		mutually_exclusive = { }
		available = { }
		historical_ai = { }
		select_effect = { }
		bypass = { }
		cancel = { }
		
		cancel_if_invalid = yes
		continue_if_invalid = yes
		available_if_capitulated = no
		
		search_filters = {FOCUS_FILTER_RESEARCH}
		
		complete_tooltip = { }
		completion_reward = {
			log = "[GetDateText]: [Root.GetName]: Focus BRA_acquire_new_equipment"
			add_tech_bonus = {
				name = BRA_acquire_new_equipment
				bonus = 0.50
				uses = 1
				technology = command_control_equipment
				technology = command_control_equipment1
				technology = command_control_equipment2
				technology = command_control_equipment3
				technology = command_control_equipment4
				technology = command_control_equipment5
				technology = command_control_equipment6
			}
			add_tech_bonus = {
				name = BRA_acquire_new_equipment
				bonus = 0.50
				uses = 1
				technology = body_armor_1980
				technology = body_armor_2000
				technology = body_armor_2010
				technology = body_armor_2030
			}
		}
		
		ai_will_do = {
			factor = 1
		}
	}
	
	focus = {
		id = BRA_update_the_ifvs
		icon = apc

		x = -1
		y = 6
		relative_position_id = BRA_nosso_exercito
		
		cost = 10
		
		prerequisite = { focus = BRA_ee_11 } 
		mutually_exclusive = { }
		available = { }
		historical_ai = { }
		select_effect = { }
		bypass = { }
		cancel = { }
		
		cancel_if_invalid = yes
		continue_if_invalid = yes
		available_if_capitulated = no
		
		search_filters = {FOCUS_FILTER_RESEARCH}
		
		complete_tooltip = { }
		completion_reward = {
			log = "[GetDateText]: [Root.GetName]: Focus BRA_update_the_ifvs"
			add_tech_bonus = {
				name = BRA_update_the_ifvs
				bonus = 0.75
				uses = 1
				technology = IFV_1 
				technology = IFV_2 
				technology = IFV_3
				technology = IFV_4
				technology = IFV_5 
				technology = IFV_6
				technology = IFV_7
			}
		}
		
		ai_will_do = {
			factor = 1
		}
	}
	
	focus = {
		id = BRA_decentralized_warfare
		icon = army_doctrine

		x = 1
		y = 6
		relative_position_id = BRA_nosso_exercito
		
		cost = 10
		
		prerequisite = { focus = BRA_acquire_new_equipment } 
		mutually_exclusive = { }
		available = { }
		historical_ai = { }
		select_effect = { }
		bypass = { }
		cancel = { }
		
		cancel_if_invalid = yes
		continue_if_invalid = yes
		available_if_capitulated = no
		
		search_filters = {FOCUS_FILTER_RESEARCH}
		
		complete_tooltip = { }
		completion_reward = {
			log = "[GetDateText]: [Root.GetName]: Focus BRA_decentralized_warfare"
			add_tech_bonus = {
				name = BRA_decentralized_warfare
				bonus = 1.0
				uses = 2
				technology = decentralized_warfare
			}
		}
		
		ai_will_do = {
			factor = 1
		}
	}
	
	focus = {
		id = BRA_modern_armor
		icon = tanks3

		x = -1
		y = 7
		relative_position_id = BRA_nosso_exercito
		
		cost = 10
		
		prerequisite = { focus = BRA_update_the_ifvs } 
		mutually_exclusive = { }
		available = { }
		historical_ai = { }
		select_effect = { }
		bypass = { }
		cancel = { }
		
		cancel_if_invalid = yes
		continue_if_invalid = yes
		available_if_capitulated = no
		
		search_filters = {FOCUS_FILTER_RESEARCH}
		
		complete_tooltip = { }
		completion_reward = {
			log = "[GetDateText]: [Root.GetName]: Focus BRA_modern_armor"
			add_ideas = BRA_idea_modern_armor
			add_tech_bonus = {
				name = BRA_modern_armor
				bonus = 1.0
				uses = 1
				technology = MBT_1
				technology = MBT_2
				technology = MBT_3
				technology = MBT_4
				technology = MBT_5
				technology = MBT_7
				technology = MBT_8
			}
		}
		
		ai_will_do = {
			factor = 1
		}
	}
	
	focus = {
		id = BRA_larger_artillery
		icon = artillery2

		x = 1
		y = 7
		relative_position_id = BRA_nosso_exercito
		
		cost = 10
		
		prerequisite = { focus = BRA_decentralized_warfare } 
		mutually_exclusive = { }
		available = { }
		historical_ai = { }
		select_effect = { }
		bypass = { }
		cancel = { }
		
		cancel_if_invalid = yes
		continue_if_invalid = yes
		available_if_capitulated = no
		
		search_filters = {FOCUS_FILTER_RESEARCH}
		
		complete_tooltip = { }
		completion_reward = {
			log = "[GetDateText]: [Root.GetName]: Focus BRA_larger_artillery"
			add_tech_bonus = {
				name = BRA_larger_artillery
				bonus = 0.75
				uses = 2
				technology = artillery_1
				technology = artillery_2
				technology = artillery_3
				technology = artillery_4
				technology = SP_arty_1
				technology = SP_arty_2
				technology = SP_arty_3
				technology = SP_arty_4
			}
		}
		
		ai_will_do = {
			factor = 1
		}
	}
	
	focus = {
		id = BRA_braco_forte_mao_amiga
		icon = brazilian_armed_forces

		x = 0
		y = 8
		relative_position_id = BRA_nosso_exercito
		
		cost = 10
		
		prerequisite = { focus = BRA_modern_armor } 
		prerequisite = { focus = BRA_larger_artillery } 
		mutually_exclusive = { }
		available = { }
		historical_ai = { }
		select_effect = { }
		bypass = { }
		cancel = { }
		
		cancel_if_invalid = yes
		continue_if_invalid = yes
		available_if_capitulated = no
		
		search_filters = {FOCUS_FILTER_MANPOWER}
		
		complete_tooltip = { }
		completion_reward = {
			log = "[GetDateText]: [Root.GetName]: Focus BRA_braco_forte_mao_amiga"
			add_ideas = BRA_idea_braco_forte_mao_amiga
		}
		
		ai_will_do = {
			factor = 1
		}
	}
#military-navy
	focus = {
		id = BRA_french_naval_studies
		icon = navy

		x = -1
		y = 5
		relative_position_id = BRA_marinha_do_brasil
		
		cost = 10
		
		prerequisite = { focus = BRA_reform_the_navy } 
		mutually_exclusive = { }
		available = { }
		historical_ai = { }
		select_effect = { }
		bypass = { }
		cancel = { }
		
		cancel_if_invalid = yes
		continue_if_invalid = yes
		available_if_capitulated = no
		
		search_filters = {FOCUS_FILTER_RESEARCH}
		
		complete_tooltip = { }
		completion_reward = {
			log = "[GetDateText]: [Root.GetName]: Focus BRA_french_naval_studies"
			if = {
				limit = {
					country_exists = FRA
					NOT = { has_war_with = FRA }
				}
				
				FRA = {
					country_event = brazil.15
				}
			}
		}
		
		ai_will_do = {
			factor = 1
		}
	}
	
	focus = {
		id = BRA_lets_go_nuclear
		icon = navy3

		x = -1
		y = 6
		relative_position_id = BRA_marinha_do_brasil
		
		cost = 10
		
		prerequisite = { focus = BRA_french_naval_studies } 
		
		cancel_if_invalid = yes
		continue_if_invalid = yes
		available_if_capitulated = no
		
		search_filters = {FOCUS_FILTER_RESEARCH}

		completion_reward = {
			log = "[GetDateText]: [Root.GetName]: Focus BRA_lets_go_nuclear"
			add_tech_bonus = {
				name = BRA_nuclear_battle_cruisers
				bonus = 0.75
				uses = 1
				technology = attack_submarine_1 
				technology = attack_submarine_2
				technology = attack_submarine_3 
				technology = attack_submarine_4 
				technology = attack_submarine_5 
				technology = attack_submarine_6
				technology = attack_submarine_7 
			}
		}
		
		ai_will_do = {
			factor = 1
		}
	}
	
	focus = {
		id = BRA_assault_carriers
		icon = battleships

		x = -1
		y = 7
		relative_position_id = BRA_marinha_do_brasil
		
		cost = 10
		
		prerequisite = { focus = BRA_lets_go_nuclear } 
		mutually_exclusive = { }
		available = { }
		historical_ai = { }
		select_effect = { }
		bypass = { }
		cancel = { }
		
		cancel_if_invalid = yes
		continue_if_invalid = yes
		available_if_capitulated = no
		
		search_filters = {FOCUS_FILTER_RESEARCH}
		
		complete_tooltip = { }
		completion_reward = {
			log = "[GetDateText]: [Root.GetName]: Focus BRA_assault_carriers"
			add_tech_bonus = {
				name = BRA_assault_carriers
				bonus = 0.50
				uses = 1
				technology = LHA_0
				technology = LHA_1
				technology = LHA_2
				technology = LHA_3
				technology = LHA_4
			}
		}
		
		ai_will_do = {
			factor = 1
		}
	}
	
	focus = {
		id = BRA_usn_carriers
		icon = carriers

		x = 1
		y = 5
		relative_position_id = BRA_marinha_do_brasil
		
		cost = 10
		
		prerequisite = { focus = BRA_reform_the_navy } 
		mutually_exclusive = { }
		available = { }
		historical_ai = { }
		select_effect = { }
		bypass = { }
		cancel = { }
		
		cancel_if_invalid = yes
		continue_if_invalid = yes
		available_if_capitulated = no
		
		search_filters = {FOCUS_FILTER_RESEARCH}
		
		complete_tooltip = { }
		completion_reward = {
			log = "[GetDateText]: [Root.GetName]: Focus BRA_usn_carriers"
			add_tech_bonus = {
				name = BRA_usn_carriers
				bonus = 0.50
				uses = 1
				technology = modern_carrier_0
				technology = modern_carrier_1
				technology = modern_carrier_2
				technology = modern_carrier_3
				technology = modern_carrier_4
				technology = modern_carrier_5
				technology = modern_carrier_6
			}
		}
		
		ai_will_do = {
			factor = 1
		}
	}
	
	focus = {
		id = BRA_juruena_class
		icon = cruisers

		x = 1
		y = 6
		relative_position_id = BRA_marinha_do_brasil
		
		cost = 10
		
		prerequisite = { focus = BRA_usn_carriers } 
		mutually_exclusive = { }
		available = { }
		historical_ai = { }
		select_effect = { }
		bypass = { }
		cancel = { }
		
		cancel_if_invalid = yes
		continue_if_invalid = yes
		available_if_capitulated = no
		
		search_filters = {FOCUS_FILTER_RESEARCH}
		
		complete_tooltip = { }
		completion_reward = {
			log = "[GetDateText]: [Root.GetName]: Focus BRA_juruena_class"
			add_tech_bonus = {
				name = BRA_destroyers
				bonus = 0.50
				uses = 1
				technology = destroyer_1
				technology = destroyer_2
				technology = missile_destroyer_1
				technology = missile_destroyer_2
				technology = missile_destroyer_3
				technology = missile_destroyer_4
				technology = missile_destroyer_5
			}
		}
		
		ai_will_do = {
			factor = 1
		}
	}
	
	focus = {
		id = BRA_cgn_1985
		icon = destroyers

		x = 1
		y = 7
		relative_position_id = BRA_marinha_do_brasil
		
		cost = 10
		
		prerequisite = { focus = BRA_juruena_class } 
		mutually_exclusive = { }
		available = { }
		historical_ai = { }
		select_effect = { }
		bypass = { }
		cancel = { }
		
		cancel_if_invalid = yes
		continue_if_invalid = yes
		available_if_capitulated = no
		
		search_filters = {FOCUS_FILTER_RESEARCH}
		
		complete_tooltip = { }
		completion_reward = {
			log = "[GetDateText]: [Root.GetName]: Focus BRA_cgn_1985"
			add_tech_bonus = {
				name = BRA_assault_carriers
				bonus = 0.75
				uses = 1
				technology = frigate_1
				technology = frigate_2
				technology = missile_frigate_1
				technology = missile_frigate_2
				technology = missile_frigate_3
				technology = missile_frigate_4
				technology = missile_frigate_5
			}
		}
		
		ai_will_do = {
			factor = 1
		}
	}
	
	focus = {
		id = BRA_protegendo_nossas_riquezas
		icon = brazil_navy

		x = 0
		y = 8
		relative_position_id = BRA_marinha_do_brasil
		
		cost = 10
		
		prerequisite = { focus = BRA_cgn_1985 } 
		prerequisite = { focus = BRA_assault_carriers } 
		mutually_exclusive = { }
		available = { }
		historical_ai = { }
		select_effect = { }
		bypass = { }
		cancel = { }
		
		cancel_if_invalid = yes
		continue_if_invalid = yes
		available_if_capitulated = no
		
		search_filters = {FOCUS_FILTER_MANPOWER}
		
		complete_tooltip = { }
		completion_reward = {
			log = "[GetDateText]: [Root.GetName]: Focus BRA_protegendo_nossas_riquezas"
			add_ideas = BRA_idea_protegendo_nossas_riquezas
		}
		
		ai_will_do = {
			factor = 1
		}
	}
#military-air force

	focus = {
		id = BRA_air_force_expansion
		icon = brazil_airforce

		x = 16
		y = 5
		
		cost = 10
		
		prerequisite = { } 
		mutually_exclusive = { }
		available = { 
			OR = {
				has_completed_focus = BRA_strength_on_land
				has_completed_focus = BRA_reform_the_navy
			}
		}
		historical_ai = { }
		select_effect = { }
		bypass = { }
		cancel = { }
		
		cancel_if_invalid = yes
		continue_if_invalid = yes
		available_if_capitulated = no
		
		complete_tooltip = { }
		completion_reward = {
			log = "[GetDateText]: [Root.GetName]: Focus BRA_air_force_expansion"
			if = {
				limit = {
					NOT = {
						any_owned_state = {
							air_base > 1
							air_base < 3
						}
					}
				}
				random_owned_controlled_state = {
					limit = {
						free_building_slots = {
							building = air_base
							size > 5
						}
					}
					add_building_construction = {
						type = air_base
						level = 5
						instant_build = yes
					}
				}			
			}

			random_owned_controlled_state = {
				limit = {
					air_base > 1
					air_base < 3
				}
				add_building_construction = {
					type = air_base
					level = 2
					instant_build = yes
				}
			}
			random_owned_controlled_state = {
				limit = {
					air_base > 1
					air_base < 3
				}
				add_building_construction = {
					type = air_base
					level = 2
					instant_build = yes
				}
			}
			random_owned_controlled_state = {
				limit = {
					air_base > 1
					air_base < 3
				}
				add_building_construction = {
					type = air_base
					level = 1
					instant_build = yes
				}
			}
		}
		
		ai_will_do = {
			factor = 1
		}
	}
	
	focus = {
		id = BRA_invest_in_heli
		icon = close_air_support

		x = -1
		y = 1
		relative_position_id = BRA_air_force_expansion
		
		cost = 10
		
		prerequisite = { focus = BRA_air_force_expansion } 
		mutually_exclusive = { }
		available = { }
		historical_ai = { }
		select_effect = { }
		bypass = { }
		cancel = { }
		
		cancel_if_invalid = yes
		continue_if_invalid = yes
		available_if_capitulated = no
		
		search_filters = {FOCUS_FILTER_RESEARCH}
		
		complete_tooltip = { }
		completion_reward = {
			log = "[GetDateText]: [Root.GetName]: Focus BRA_invest_in_heli"
			add_tech_bonus = {
				name = BRA_invest_in_heli
				bonus = 0.50
				uses = 1
				technology = early_helicopter
				technology = attack_helicopter1
				technology = attack_helicopter2
				technology = attack_helicopter3
				technology = attack_helicopter4
				technology = attack_helicopter5
				technology = transport_helicopter1
				technology = transport_helicopter2
				technology = transport_helicopter3
				technology = transport_helicopter4
				technology = transport_helicopter5
			}
		}
	}
	
	focus = {
		id = BRA_carrier_planes
		icon = escort_fighters

		x = 1
		y = 1
		relative_position_id = BRA_air_force_expansion
		
		cost = 10
		
		prerequisite = { focus = BRA_air_force_expansion } 
		mutually_exclusive = { }
		available = { }
		historical_ai = { }
		select_effect = { }
		bypass = { }
		cancel = { }
		
		cancel_if_invalid = yes
		continue_if_invalid = yes
		available_if_capitulated = no
		
		search_filters = {FOCUS_FILTER_RESEARCH}
		
		complete_tooltip = { }
		completion_reward = {
			log = "[GetDateText]: [Root.GetName]: Focus BRA_carrier_planes"
			add_tech_bonus = {
				name = BRA_carrier_planes
				bonus = 0.50
				uses = 1
				technology = CV_MR_Fighter1
				technology = CV_MR_Fighter2
				technology = CV_MR_Fighter3
				technology = CV_MR_Fighter4
				technology = CV_MR_Fighter5
				technology = CV_MR_Fighter6
				technology = CV_MR_Fighter7
				technology = CV_L_Strike_fighter1
				technology = CV_L_Strike_fighter2
				technology = CV_L_Strike_fighter3
				technology = CV_L_Strike_fighter4
				technology = CV_L_Strike_fighter5
			}
		}
		
		ai_will_do = {
			factor = 1
		}
	}
	
	focus = {
		id = BRA_cas_research
		icon = flying_tigers

		x = -1
		y = 2
		relative_position_id = BRA_air_force_expansion
		
		cost = 10
		
		prerequisite = { focus = BRA_invest_in_heli } 
		mutually_exclusive = { }
		available = { }
		historical_ai = { }
		select_effect = { }
		bypass = { }
		cancel = { }
		
		cancel_if_invalid = yes
		continue_if_invalid = yes
		available_if_capitulated = no
		
		search_filters = {FOCUS_FILTER_RESEARCH}
		
		complete_tooltip = { }
		completion_reward = {
			log = "[GetDateText]: [Root.GetName]: Focus BRA_cas_research"
			add_tech_bonus = {
				name = BRA_cas_research
				bonus = 0.50
				uses = 1
				technology = cas1
				technology = cas2
				technology = cas3
				technology = cas4
				technology = cas5
			} 
		}
		
		ai_will_do = {
			factor = 1
		}
	}
	
	focus = {
		id = BRA_maritime_routine
		icon = naval_bombers

		x = 1
		y = 2
		relative_position_id = BRA_air_force_expansion
		
		cost = 10
		
		prerequisite = { focus = BRA_carrier_planes } 
		mutually_exclusive = { }
		available = { }
		historical_ai = { }
		select_effect = { }
		bypass = { }
		cancel = { }
		
		cancel_if_invalid = yes
		continue_if_invalid = yes
		available_if_capitulated = no
		
		search_filters = {FOCUS_FILTER_RESEARCH}
		
		complete_tooltip = { }
		completion_reward = {
			log = "[GetDateText]: [Root.GetName]: Focus BRA_maritime_routine"
			add_tech_bonus = {
				name = BRA_maritime_routine
				bonus = 0.50
				uses = 1
				technology = naval_plane1
				technology = naval_plane2
				technology = naval_plane3
				technology = naval_plane4
				technology = naval_plane5
				technology = naval_plane6
			}	
		}
		
		ai_will_do = {
			factor = 1
		}
	}
	
	focus = {
		id = BRA_mr_fighters
		icon = fighters

		x = -1
		y = 3
		relative_position_id = BRA_air_force_expansion
		
		cost = 10
		
		prerequisite = { focus = BRA_cas_research } 
		mutually_exclusive = { }
		available = { }
		historical_ai = { }
		select_effect = { }
		bypass = { }
		cancel = { }
		
		cancel_if_invalid = yes
		continue_if_invalid = yes
		available_if_capitulated = no
		
		search_filters = {FOCUS_FILTER_RESEARCH}
		
		complete_tooltip = { }
		completion_reward = {
			log = "[GetDateText]: [Root.GetName]: Focus BRA_mr_fighters"
			add_tech_bonus = {
				name = BRA_mr_fighters
				bonus = 0.50
				uses = 1
				technology = MR_Fighter1
				technology = MR_Fighter2
				technology = MR_Fighter3
				technology = MR_Fighter4
				technology = MR_Fighter5
				technology = MR_Fighter6
				technology = MR_Fighter7
			} 
		}
		
		ai_will_do = {
			factor = 1
		}
	}
	
	focus = {
		id = BRA_light_fighters
		icon = fighters2

		x = 1
		y = 3
		relative_position_id = BRA_air_force_expansion
		
		cost = 10
		
		prerequisite = { focus = BRA_maritime_routine } 
		mutually_exclusive = { }
		available = { }
		historical_ai = { }
		select_effect = { }
		bypass = { }
		cancel = { }
		
		cancel_if_invalid = yes
		continue_if_invalid = yes
		available_if_capitulated = no
		
		search_filters = {FOCUS_FILTER_RESEARCH}
		
		complete_tooltip = { }
		completion_reward = {
			log = "[GetDateText]: [Root.GetName]: Focus BRA_light_fighters"
			add_tech_bonus = {
				name = BRA_light_fighters
				bonus = 0.50
				uses = 1
				technology = L_Strike_fighter1
				technology = L_Strike_fighter2
				technology = L_Strike_fighter3
				technology = L_Strike_fighter4
				technology = L_Strike_fighter5
			} 
		}
		
		ai_will_do = {
			factor = 1
		}
	}
	
#cardoso final days

	focus = {
		id = BRA_cardosos_last_years
		icon = psdb_focus

		x = 25
		y = 0
		
		cost = 5
		
		prerequisite = { } 
		mutually_exclusive = { }
		available = { 
			has_country_leader = { name = "Fernando Henrique Cardoso" } 
		}
		historical_ai = { }
		select_effect = { }
		bypass = { 
			NOT = { has_country_leader = { name = "Fernando Henrique Cardoso" } }
		}
		cancel = { 
			NOT = { has_country_leader = { name = "Fernando Henrique Cardoso" } }
		}
		
		cancel_if_invalid = yes
		continue_if_invalid = yes
		available_if_capitulated = no
		
		search_filters = {FOCUS_FILTER_POLITICAL}
		
		complete_tooltip = { }
		completion_reward = {
			log = "[GetDateText]: [Root.GetName]: Focus BRA_cardosos_last_years"
			add_stability = -0.05
			add_political_power = 100
		}
		
		ai_will_do = {
			factor = 1
		}
	}
	
	focus = {
		id = BRA_amazonian_development_project
		icon = construction2

		x = -2
		y = 1
		relative_position_id = BRA_cardosos_last_years
		
		cost = 10
		
		prerequisite = { focus = BRA_cardosos_last_years } 
		mutually_exclusive = { }
		available = { }
		historical_ai = { }
		select_effect = { }
		bypass = { }
		cancel = { }
		
		cancel_if_invalid = yes
		continue_if_invalid = yes
		available_if_capitulated = no
		
		search_filters = {FOCUS_FILTER_INDUSTRY FOCUS_FILTER_RESOURCE}
		
		complete_tooltip = { }
		completion_reward = {
			log = "[GetDateText]: [Root.GetName]: Focus BRA_amazonian_development_project"
			country_event = brazil.3
			unlock_decision_category_tooltip = BRA_amazon_resource_development_decision_category
		}
		
		ai_will_do = {
			factor = 1
		}
	}
	
	focus = {
		id = BRA_project_devastate_the_amazon
		icon = money_on_fire

		x = -2
		y = 2
		relative_position_id = BRA_cardosos_last_years
		
		cost = 10
		
		prerequisite = { focus = BRA_amazonian_development_project } 
		mutually_exclusive = { }
		available = { 
			has_country_flag = amazonian_development_project 
		}
		historical_ai = { }
		select_effect = { }
		bypass = { 
			has_country_flag = denied_amazonian_development_project
		}
		cancel = { }
		
		cancel_if_invalid = yes
		continue_if_invalid = yes
		available_if_capitulated = no
		
		search_filters = {FOCUS_FILTER_INTERNAL_FACTION FOCUS_FILTER_POLITICAL FOCUS_FILTER_STABILITY}
		
		complete_tooltip = { }
		completion_reward = {
			log = "[GetDateText]: [Root.GetName]: Focus BRA_project_devastate_the_amazon"
			country_event = brazil.6
		}
		
		ai_will_do = {
			factor = 1
		}
	}
	
	focus = {
		id = BRA_dismantle_the_agency
		icon = labor_unions

		x = -2
		y = 3
		relative_position_id = BRA_cardosos_last_years
		
		cost = 10
		
		prerequisite = { focus = BRA_project_devastate_the_amazon } 
		mutually_exclusive = { }
		available = { }
		historical_ai = { }
		select_effect = { }
		bypass = { }
		cancel = { }
		
		cancel_if_invalid = yes
		continue_if_invalid = yes
		available_if_capitulated = no
		
		search_filters = {FOCUS_FILTER_STABILITY}
		
		complete_tooltip = { }
		completion_reward = {
			log = "[GetDateText]: [Root.GetName]: Focus BRA_dismantle_the_agency"
			add_stability = 0.075
			subtract_from_variable = { treasury = 15.0 }
			custom_effect_tooltip = BRA_dismantle_the_agency_tt
		}
		
		ai_will_do = {
			factor = 1
		}
	}
	
	focus = {
		id = BRA_march_of_the_excluded
		icon = concessions

		x = 0
		y = 1
		relative_position_id = BRA_cardosos_last_years
		
		cost = 10
		
		prerequisite = { focus = BRA_cardosos_last_years } 
		mutually_exclusive = { }
		available = { }
		historical_ai = { }
		select_effect = { }
		bypass = { }
		cancel = { }
		
		cancel_if_invalid = yes
		continue_if_invalid = no
		available_if_capitulated = no
		
		complete_tooltip = { }
		completion_reward = {
			log = "[GetDateText]: [Root.GetName]: Focus BRA_march_of_the_excluded"
			country_event = brazil.14
		}
		
		ai_will_do = {
			factor = 1
		}
	}
	
	
	focus = {
		id = BRA_native_protests
		icon = native_americans

		x = 0
		y = 2
		relative_position_id = BRA_cardosos_last_years
		
		cost = 10
		
		prerequisite = { focus = BRA_march_of_the_excluded } 
		mutually_exclusive = { }
		available = { }
		historical_ai = { }
		select_effect = { }
		bypass = { }
		cancel = { }
		
		cancel_if_invalid = yes
		continue_if_invalid = yes
		available_if_capitulated = no
		
		search_filters = {FOCUS_FILTER_EXPENDITURE FOCUS_FILTER_POLITICAL}
		
		complete_tooltip = { }
		completion_reward = {
			log = "[GetDateText]: [Root.GetName]: Focus BRA_native_protests"
			add_stability = -0.02
			if = {
				limit = { has_idea = police_02 }
				swap_ideas = { remove_idea = police_02 add_idea = police_03 }
			}
			add_popularity = {
				ideology = nationalist
				popularity = 0.075
			}	
			recalculate_party = yes
		}
		
		ai_will_do = {
			factor = 1
		}
	}
	
	focus = {
		id = BRA_angry_natives
		icon = secret_weapons

		x = 0
		y = 3
		relative_position_id = BRA_cardosos_last_years
		
		cost = 10
		
		prerequisite = { focus = BRA_native_protests } 
		mutually_exclusive = { }
		available = { }
		historical_ai = { }
		select_effect = { }
		bypass = { }
		cancel = { }
		
		cancel_if_invalid = yes
		continue_if_invalid = yes
		available_if_capitulated = no
		
		search_filters = {FOCUS_FILTER_INDUSTRY}
		
		complete_tooltip = { }
		completion_reward = {
			log = "[GetDateText]: [Root.GetName]: Focus BRA_angry_natives"
			add_ideas = BRA_idea_angry_natives
		}
		
		ai_will_do = {
			factor = 1
		}
	}
	
	focus = {
		id = BRA_reinstating_imf_debts
		icon = imf

		x = 2
		y = 1
		relative_position_id = BRA_cardosos_last_years
		
		cost = 10
		
		prerequisite = { focus = BRA_cardosos_last_years } 
		mutually_exclusive = { }
		available = { }
		historical_ai = { }
		select_effect = { }
		bypass = { }
		cancel = { }
		
		cancel_if_invalid = yes
		continue_if_invalid = yes
		available_if_capitulated = no
		
		complete_tooltip = { }
		completion_reward = {
			log = "[GetDateText]: [Root.GetName]: Focus BRA_reinstating_imf_debts"
			add_ideas = BRA_idea_imf_debts
			add_to_variable = { debt = 225 }
			add_to_variable = { treasury = 225 }
			custom_effect_tooltip = BRA_reinstating_imf_debts_tt
		}
		
		ai_will_do = {
			factor = 1
		}
	}
	
	focus = {
		id = BRA_a_modern_recession
		icon = economic_crisis

		x = 2
		y = 2
		relative_position_id = BRA_cardosos_last_years
		
		cost = 10
		
		prerequisite = { focus = BRA_reinstating_imf_debts } 
		mutually_exclusive = { }
		available = { }
		historical_ai = { }
		select_effect = { }
		bypass = { }
		cancel = { }
		
		cancel_if_invalid = yes
		continue_if_invalid = yes
		available_if_capitulated = no
		
		search_filters = {FOCUS_FILTER_INDUSTRY}
		
		complete_tooltip = { }
		completion_reward = {
			log = "[GetDateText]: [Root.GetName]: Focus BRA_a_modern_recession"
			if = {
				limit = { has_idea = recession }
				swap_ideas = { remove_idea = recession add_idea = stagnation }
			}
			if = {
				limit = { has_idea = stagnation }
				add_political_power = 100 #If Player has already boosted to stagnation
			}
			subtract_from_variable = { treasury = 10 }
			custom_effect_tooltip = BRA_lose_10_billion_tt
		}
		
		ai_will_do = {
			factor = 1
		}
	}
	
	focus = {
		id = BRA_crippled_currency
		icon = better_money

		x = 2
		y = 3
		relative_position_id = BRA_cardosos_last_years
		
		cost = 10
		
		prerequisite = { focus = BRA_a_modern_recession } 
		mutually_exclusive = { }
		available = { }
		historical_ai = { }
		select_effect = { }
		bypass = { }
		cancel = { }
		
		cancel_if_invalid = yes
		continue_if_invalid = yes
		available_if_capitulated = no
		
		search_filters = {FOCUS_FILTER_INDUSTRY FOCUS_FILTER_STABILITY}
		
		complete_tooltip = { }
		completion_reward = {
			log = "[GetDateText]: [Root.GetName]: Focus BRA_crippled_currency"
			add_ideas = BRA_idea_crippled_currency
			add_popularity = {
				ideology = democratic
				popularity = -0.05
			}	
			recalculate_party = yes
		}
		
		ai_will_do = {
			factor = 1
		}
	}
	
	focus = {
		id = BRA_cardoso_is_gone
		icon = forceful_treaty

		x = 0
		y = 4
		relative_position_id = BRA_cardosos_last_years
		
		cost = 10
		
		prerequisite = { focus = BRA_crippled_currency } 
		prerequisite = { focus = BRA_angry_natives }
		prerequisite = { focus = BRA_dismantle_the_agency }
		available = {
			NOT = { has_country_leader = { name = "Fernando Henrique Cardoso" } }
		}
		
		cancel_if_invalid = yes
		continue_if_invalid = yes
		available_if_capitulated = no
		
		search_filters = {FOCUS_FILTER_POLITICAL FOCUS_FILTER_STABILITY}

		completion_reward = {
			log = "[GetDateText]: [Root.GetName]: Focus BRA_cardoso_is_gone"
			add_stability = 0.10
			add_political_power = 50 
		}
		
		ai_will_do = {
			factor = 1
		}
	}
}