1={13058 }
2={13003 }
3={6361 }
4={6393 }
5={3325 }
6={399 }
7={13254 }
8={6196 }
9={9237 }
10={6237 }
11={6268 }
12={3301 }
13={9239 }
14={11374 }
15={9458 }
16={11361 }
17={3329 }
18={1280 }
19={4135 }
20={6463 }
21={13010 }
22={10995 }
23={13243 }
24={13016 }
25={13013 }
26={12960 }
27={369 }
28={6405 }
29={3396 }
30={53 }
31={91 }
32={3171 }
33={46 }
34={9109 }
35={6331 }
36={408 }
37={11366 }
38={9264 }
39={405 }
40={11494 }
41={3397 }
42={519 }
43={586 }
44={9535 }
45={6521 }
46={68 }
47={3262 }
48={9403 }
49={153 }
50={516 }
51={9574 }
52={9418 }
53={6583 }
54={11420 }
55={11535 }
56={11518 }
57={3629 }
58={3506 }
59={6547 }
60={9734 }
61={943 }
62={6786 }
63={11849 }
64={527 }
65={11804 }
66={13017 }
67={4934 }
68={177 }
69={10188 }
70={2165 }
71={12132 }
72={3612 }
73={9600 }
74={318 }
75={653 }
76={3703 }
77={6788 }
78={316 }
79={9750 }
80={773 }
81={923 }
82={11803 }
83={12047 }
84={6891 }
85={12003 }
86={6966 }
87={9812 }
88={6756 }
89={11707 }
90={6936 }
91={6993 }
92={6906 }
93={1176 }
94={9793 }
95={13071 }
96={6884 }
97={724 }
98={3118 }
99={1751 }
100={13251 }
101={9038 }
102={67 }
103={9169 }
104={9228 }
105={496 }
106={9221 }
107={3255 }
108={6222 }
109={9483 }
110={11312 }
111={11232 }
112={3497 }
113={676 }
114={9316 }
115={9412 }
116={11386 }
117={6440 }
118={3569 }
119={9692 }
120={11539 }
121={9690 }
122={3730 }
123={546 }
124={6650 }
125={3654 }
126={3596 }
127={6611 }
128={9586 }
129={11845 }
130={3623 }
131={3939 }
132={9602 }
133={9874 }
134={11858 }
135={11856 }
136={3833 }
137={3896 }
138={9875 }
139={3914 }
140={9791 }
141={1109 }
142={7096 }
143={3401 }
144={12058 }
145={11984 }
146={7193 }
147={3707 }
148={6600 }
149={13202 }
150={11588 }
151={522 }
152={9716 }
153={6923 }
154={9919 }
155={3851 }
156={928 }
157={3788 }
158={12029 }
159={3921 }
160={11897 }
161={6813 }
162={4512 }
163={10403 }
164={3916 }
165={6826 }
166={1938 }
167={8123 }
168={12413 }
169={10876 }
170={7977 }
171={12879 }
172={11212 }
173={5058 }
174={5024 }
175={8118 }
176={3403 }
177={7934 }
178={8073 }
179={3725 }
180={2048 }
181={8051 }
182={10760 }
183={3477 }
184={1074 }
185={4486 }
186={11107 }
187={9322 }
188={1056 }
189={1088 }
190={6353 }
191={3004 }
192={1493 }
193={1578 }
194={13079 }
195={9199 }
196={9153 }
197={9150 }
198={5074 }
199={1920 }
200={8000 }
201={11919 }
202={13278 }
203={1108 }
204={1201 }
205={1065 }
206={1015 }
207={1086 }
208={13206 }
209={13207 }
210={7170 }
211={7001 }
212={4115 }
213={11979 }
214={4073 }
215={7011 }
216={11910 }
217={12771 }
218={12764 }
219={9957 }
220={2088 }
221={12796 }
222={10795 }
223={4133 }
224={11052 }
225={4033 }
226={13250 }
227={1953 }
228={8043 }
229={97 }
230={4985 }
231={2072 }
232={396 }
233={326 }
234={10775 }
235={260 }
236={288 }
237={3199 }
238={10921 }
239={1964 }
240={12840 }
241={5210 }
242={6020 }
243={9082 }
244={5160 }
245={8133 }
246={6678 }
247={12929 }
248={3854 }
249={12989 }
250={6542 }
251={2220 }
252={10932 }
253={13280 }
254={9312 }
255={9331 }
256={9365 }
257={2196 }
258={9260 }
259={11174 }
260={12908 }
261={2159 }
262={12935 }
263={12971 }
264={11357 }
265={6790 }
266={5185 }
267={874 }
268={2200 }
269={13072 }
270={13018 }
271={7900 }
272={4556 }
273={5106 }
274={2171 }
275={10400 }
276={1429 }
277={5231 }
278={1418 }
279={1468 }
280={1217 }
281={2183 }
282={11644 }
283={11661 }
284={3076 }
285={9630 }
286={673 }
287={530 }
288={11736 }
289={11213 }
290={11296 }
291={2151 }
292={7872 }
293={12504 }
294={9739 }
295={9547 }
296={2115 }
297={9530 }
298={9529 }
299={12958 }
300={9426 }
301={4735 }
302={10968 }
303={12896 }
304={1731 }
305={9472 }
306={3364 }
307={3518 }
308={4941 }
309={6417 }
310={10766 }
311={10951 }
312={6027 }
313={6391 }
314={12741 }
315={3318 }
316={3349 }
317={8207 }
318={8244 }
319={1903 }
320={13015 }
321={11327 }
322={10831 }
323={11343 }
324={11108 }
325={3165 }
326={11475 }
327={5136 }
328={3181 }
329={11314 }
330={11324 }
331={2056 }
332={11065 }
333={6727 }
334={11236 }
335={577 }
336={1992 }
337={8021 }
338={11280 }
339={13269 }
340={4997 }
341={12843 }
342={9687 }
343={12762 }
344={10919 }
345={9569 }
346={9493 }
347={9614 }
348={8039 }
349={10406 }
350={9828 }
351={8071 }
352={9327 }
353={8122 }
354={8065 }
355={8006 }
356={13240 }
357={2094 }
358={2038 }
359={6990 }
360={12802 }
361={12747 }
362={2100 }
363={8015 }
364={6771 }
365={4989 }
366={5101 }
367={5045 }
368={9231 }
369={5034 }
370={10771 }
371={10814 }
372={13234 }
373={4920 }
374={10113 }
375={989 }
376={6436 }
377={11943 }
378={12857 }
379={1126 }
380={1141 }
381={5095 }
382={12842 }
383={9960 }
384={1058 }
385={4046 }
386={12760 }
387={4116 }
388={1115 }
389={11957 }
390={10082 }
391={4194 }
392={9118 }
393={4962 }
394={7041 }
395={1204 }
396={4060 }
397={10754 }
398={13014 }
399={9060 }
400={7982 }
401={2039 }
402={12739 }
403={4637 }
404={7573 }
405={8125 }
406={829 }
407={1636 }
408={1822 }
409={4893 }
410={7584 }
411={10826 }
412={6120 }
413={7943 }
414={6114 }
415={4949 }
416={12761 }
417={8044 }
418={6856 }
419={1978 }
420={1910 }
421={6832 }
422={6450 }
423={13208 }
424={13247 }
425={3573 }
426={4003 }
427={8005 }
428={1898 }
429={10729 }
430={13275 }
431={2032 }
432={3 }
433={660 }
434={10480 }
435={1104 }
436={12037 }
437={9161 }
438={12799 }
439={9410 }
440={9951 }
441={373 }
442={11155 }
443={2179 }
444={12777 }
445={7334 }
446={12978 }
447={7537 }
448={10943 }
449={12943 }
450={13000 }
451={1637 }
452={10077 }
453={12494 }
454={12349 }
455={10389 }
456={7090 }
457={11009 }
458={10324 }
459={7574 }
460={4237 }
461={4414 }
462={7436 }
463={12954 }
464={4420 }
465={7402 }
466={3653 }
467={10208 }
468={12920 }
469={7232 }
470={4883 }
471={1349 }
472={11000 }
473={7455 }
474={9334 }
475={1116 }
476={4087 }
477={11449 }
478={9840 }
479={12251 }
480={4967 }
481={10229 }
482={1213 }
483={6927 }
484={8010 }
485={7139 }
486={11179 }
487={10993 }
488={11178 }
489={10825 }
490={112 }
491={11162 }
492={11968 }
493={7078 }
494={115 }
495={13228 }
496={4996 }
497={4210 }
498={1607 }
499={11966 }
500={12090 }
501={120 }
502={3651 }
503={1296 }
504={10223 }
505={10486 }
506={12360 }
507={7531 }
508={7587 }
509={10158 }
510={12131 }
511={12167 }
512={4251 }
513={10289 }
514={164 }
515={182 }
516={181 }
517={1520 }
518={12133 }
519={12232 }
520={4363 }
521={12297 }
522={10129 }
523={9948 }
524={10075 }
525={4216 }
526={11169 }
527={4412 }
528={6015 }
529={4355 }
530={12299 }
531={11990 }
532={7152 }
533={10291 }
534={1087 }
535={7302 }
536={996 }
537={7131 }
538={9974 }
539={293 }
540={12076 }
541={1076 }
542={6116 }
543={1237 }
544={7200 }
545={6501 }
546={13021 }
547={4140 }
548={4137 }
549={12062 }
550={9300 }
551={13048 }
552={11815 }
553={6206 }
554={11850 }
555={12342 }
556={7727 }
557={11187 }
558={1575 }
559={3427 }
560={12820 }
561={12316 }
562={357 }
563={6107 }
564={7637 }
565={2188 }
566={6308 }
567={7568 }
568={13055 }
569={7290 }
570={1612 }
571={7671 }
572={10517 }
573={1107 }
574={7137 }
575={6370 }
576={7987 }
577={12733 }
578={1114 }
579={4191 }
580={4961 }
581={11079 }
582={9939 }
583={3119 }
584={618 }
585={3086 }
586={12767 }
587={13205 }
588={10750 }
589={8121 }
590={13227 }
591={5042 }
592={1783 }
593={5081 }
594={13267 }
595={10062 }
596={4792 }
597={12675 }
598={11959 }
599={1091 }
600={12027 }
601={9899 }
602={912 }
603={11915 }
604={7125 }
605={7121 }
606={7175 }
607={12085 }
608={1177 }
609={4102 }
610={4094 }
611={1191 }
612={11960 }
613={4069 }
614={11076 }
615={9998 }
616={6193 }
617={12352 }
618={10124 }
619={10011 }
620={13026 }
621={13025 }
622={7658 }
623={6094 }
624={11181 }
625={3438 }
626={9570 }
627={12113 }
628={6580 }
629={1401 }
630={3302 }
631={12249 }
632={13229 }
633={10811 }
634={7654 }
635={10219 }
636={7369 }
637={1419 }
638={4524 }
639={10263 }
640={2170 }
641={10804 }
642={348 }
643={11183 }
644={9098 }
645={11304 }
646={3154 }
647={105 }
648={6538 }
649={11315 }
650={6180 }
651={11362 }
652={6290 }
653={3306 }
654={335 }
655={3275 }
656={11412 }
657={3291 }
658={4802 }
659={6372 }
660={9050 }
661={6403 }
662={9258 }
663={9271 }
664={10226 }
665={11395 }
666={3487 }
667={509 }
668={3698 }
669={6724 }
670={6753 }
671={7624 }
672={11632 }
673={9628 }
674={11633 }
675={1775 }
676={12696 }
677={10670 }
678={4774 }
679={10536 }
680={7722 }
681={1674 }
682={1702 }
683={4859 }
684={10597 }
685={4795 }
686={7751 }
687={4725 }
688={12565 }
689={13063 }
690={1399 }
691={12446 }
692={6833 }
693={9446 }
694={453 }
695={3575 }
696={486 }
697={9566 }
698={504 }
699={3511 }
700={9558 }
701={3548 }
702={535 }
703={784 }
704={11383 }
705={11609 }
706={11599 }
707={6669 }
708={1599 }
709={3564 }
710={1467 }
711={6997 }
712={11645 }
713={1305 }
714={4850 }
715={4867 }
716={10161 }
717={12658 }
718={12179 }
719={10547 }
720={977 }
721={1483 }
722={4923 }
723={10187 }
724={4467 }
725={1459 }
726={7682 }
727={12465 }
728={10742 }
729={7563 }
730={1222 }
731={6149 }
732={6153 }
733={1301 }
734={13001 }
735={4233 }
736={10265 }
737={12112 }
738={4427 }
739={4241 }
740={4429 }
741={10955 }
742={2163 }
743={2155 }
744={5181 }
745={10927 }
746={7579 }
747={2139 }
748={13005 }
749={13002 }
750={1786 }
751={2211 }
752={7387 }
753={7891 }
754={10228 }
755={381 }
756={12603 }
757={6728 }
758={2947 }
759={4720 }
760={10244 }
761={634 }
762={4666 }
763={4753 }
764={12202 }
765={10481 }
766={4445 }
767={3710 }
768={11830 }
769={6778 }
770={11740 }
771={11769 }
772={9758 }
773={3823 }
774={6971 }
775={659 }
776={4531 }
777={11656 }
778={9450 }
779={1760 }
780={1719 }
781={4691 }
782={6974 }
783={1621 }
784={7834 }
785={3708 }
786={4880 }
787={4759 }
788={1857 }
789={12633 }
790={7045 }
791={7527 }
792={12325 }
793={10824 }
794={7422 }
795={12246 }
796={4510 }
797={7552 }
798={12778 }
799={11743 }
800={1500 }
801={11149 }
802={11150 }
803={12684 }
804={11772 }
805={12573 }
806={7920 }
807={10422 }
808={9695 }
809={12673 }
810={10151 }
811={4727 }
812={11128 }
813={11131 }
814={13069 }
815={1440 }
816={11133 }
817={12021 }
818={13024 }
819={4357 }
820={13042 }
821={13035 }
822={13052 }
823={13047 }
824={13019 }
825={13051 }
826={13080 }
827={7115 }
828={7964 }
829={10848 }
830={10809 }
831={10871 }
832={5021 }
833={10746 }
834={7913 }
835={11737 }
836={13089 }
837={11600 }
838={10732 }
839={11596 }
840={11710 }
841={10886 }
842={4991 }
843={12823 }
844={13093 }
845={11570 }
846={8017 }
847={2031 }
848={9745 }
849={10728 }
850={9736 }
851={13092 }
852={1633 }
853={10482 }
854={9613 }
855={4476 }
856={7245 }
857={11573 }
858={12304 }
859={1594 }
860={1635 }
861={7632 }
862={4598 }
863={4450 }
864={13009 }
865={11350 }
866={379 }
867={7123 }
868={11106 }
869={3284 }
870={7991 }
871={1937 }
872={10348 }
873={10264 }
874={4526 }
875={12254 }
876={12121 }
877={8107 }
878={12828 }
879={1585 }
880={8239 }
881={6084 }
882={10360 }
883={8190 }
884={2218 }
885={2168 }
886={2142 }
887={8184 }
888={10967 }
889={8179 }
890={6609 }
891={12999 }
892={12965 }
893={12496 }
894={12440 }
895={6096 }
896={2195 }
897={10952 }
898={8211 }
899={7354 }
900={9926 }
901={7641 }
902={12953 }
903={8149 }
904={2225 }
905={10202 }
906={11020 }
907={8075 }
908={5023 }
909={11676 }
910={6682 }
911={10983 }
912={11469 }
913={7993 }
914={5026 }
915={12194 }
916={12235 }
917={5317 }
918={9110 }
919={7076 }
920={7209 }
921={9348 }
922={11514 }
923={11033 }
924={13209 }
925={9366 }
926={9360 }
927={11049 }
928={10891 }
929={13276 }
930={135 }
931={13242 }
932={12101 }
933={11190 }
934={9833 }
935={6935 }
936={6198 }
937={10777 }
938={3035 }
939={13282 }
940={13285 }
941={10234 }
942={13286 }
943={1370 }
944={729 }
945={13287 }
946={13288 }
947={13289 }
948={13290 }
949={8217 }
950={5131 }
951={9215 }
952={9192 }
953={12905 }
954={549 }
955={3311 }
956={12098 }
957={6939 }
958={11582 }
959={9631 }
960={6926 }
961={6770 }
962={9609 }
963={3646 }
964={3474 }
965={3488 }
966={3547 }
967={9575 }
968={809 }
969={10109 }
970={6948 }
971={918 }
972={9456 }
973={6526 }
974={11905 }
