state = {
	id = 385
	name = "STATE_385" 
	manpower = 5637699
	state_category = state_06
	
	resources = {
		oil = 2
	}

	history = {
		owner = ALG
		victory_points = { 7065 5 } #Sétif
		victory_points = { 4046 1 } #Béjaia
		victory_points = { 10078 1 } #Jijel
		victory_points = { 7166 1 } #Tizi Ouzou
		
		buildings = {
			infrastructure = 3
			internet_station = 1
			industrial_complex = 1
			air_base = 2
			
			10078 = {
				naval_base = 2
			}
			
		}
		add_core_of = ALG 
		2017.1.1 = {
			buildings = {
				internet_station = 2
			}
			add_manpower = 2000000
			add_manpower = 68204
		}
	}

	provinces = {
		7166 4046 7065 10078
	}
}