
state = {
	id = 886
	name = "STATE_886"
	
	history = {
		owner = BRA
		victory_points = {
			845 5 
		}
		victory_points = {
			5148 3 
		}
		victory_points = {
			2204 1 
		}
		victory_points = {
			8175 1 
		}
		victory_points = {
			2142 1 
		}
		buildings = {
			infrastructure = 3
			internet_station = 1
			industrial_complex = 1
			synthetic_refinery = 3
			air_base = 1

		}
		add_core_of = BRA
		2017.1.1 = {
			buildings = {
				internet_station = 3
				industrial_complex = 1
			}
			add_manpower = 392814
		}
	}

	provinces = {
		2111 2142 2147 2204 5148 8175 817 845 3621 3857 3874 
	}
	manpower = 3091652
	buildings_max_level_factor = 1.000
	state_category = state_05
}
