state = {
	id = 929
	name = "STATE_929"

	history = {
		owner = HLS
		victory_points = {
			13276 20
		}
		buildings = {
			infrastructure = 8
			internet_station = 2
		}
		add_core_of = HLS
		2017.1.1 = {
			buildings = {
				internet_station = 4
			}
			#add_manpower = 1
		}

	}

	provinces = {
		13276
	}
	manpower = 1000
	buildings_max_level_factor = 1.000
	state_category = state_00
}
