
state={
	id=93
	name="STATE_93"
	resources={
		tungsten=5.000
		steel=8.000
	}

	history={
		owner = SPR
		victory_points = {
			9979 5 
		}
		victory_points = {
			7183 5 
		}
		victory_points = {
			875 5 
		}
		victory_points = {
			1176 5 
		}
		victory_points = {
			1048 5 
		}
		victory_points = {
			10111 1 
		}
		victory_points = {
			9815 1 
		}
		victory_points = {
			1048 1 
		}
		victory_points = {
			875 1 
		}
		victory_points = {
			7183 5 
		}
		buildings = {
			infrastructure = 5
			internet_station = 2
			industrial_complex = 2
			arms_factory = 4
			dockyard = 2
			air_base = 3
			1048 = {
				naval_base = 5

			}
			9979 = {
				naval_base = 2

			}

		}
		add_core_of = SPR
		2017.1.1 = {
			add_manpower = 945781
			buildings = {
				internet_station = 4
				industrial_complex = 3

			}

		}

	}

	provinces={
		279 747 875 950 1048 1090 1176 1178 1192 3810 3871 4182 6744 7068 7098 7153 7183 9815 9891 9979 10009 10063 10111 11749 11956 12038 12070 
	}
	manpower=6791511
	buildings_max_level_factor=1.000
	state_category=state_06
}
