
state = {
	id = 942
	name = "STATE_942"
	manpower = 3134
	
	state_category = state_01

	history = {
		owner = CHL
		victory_points = {
			13286 1 
		}
		buildings = {
			infrastructure = 1
			13286 = {
				naval_base = 1
			}
		}
		add_core_of = CHL
		2017.1.1 = {
			buildings = {
				internet_station = 2
			}
			add_manpower = 4627
		}
	}

	provinces = {
		13286 
	}
}
