
state = {
	id = 943
	name = "STATE_943"
	manpower = 1
	
	state_category = state_01

	history = {
		owner = PHI
		buildings = {
			infrastructure = 1
			1370 = {
				naval_base = 1
			}
		}
		add_core_of = PHI
		add_claim_by = CHI
		add_claim_by = TAI
		2017.1.1 = {
		}
	}

	provinces = {
		1370
	}
}
