state = {
	id = 946
	name = "STATE_946"
	history = {
		owner = MNC
		add_core_of = MNC
		buildings = {
			infrastructure = 9
			internet_station = 3

		}
		2017.1.1 = {
			buildings = {
				internet_station = 1
				infrastructure = 1
			}
			add_manpower = 6245
		}
		victory_points = {
			13288 1
		}
	}
	provinces = {
		13288
	}
	manpower = 32147
	buildings_max_level_factor = 1.000
	state_category = state_00
}
