#Written by Hiddengearz
# All infantry equipment
equipments = {
	
	#Land drones no longer used, now a stat boost
	L_Drone_equipment = {
		is_archetype = yes
		is_buildable = no
		type = infantry
		group_by = archetype
		
		priority = 1
		
		interface_category = interface_category_land
		
		active = no
		
		#build_cost_ic = 1.39
		resources = {
			
		}
		
	}
	#1985
	land_Drone_equipment = {
		year = 1985
		is_buildable = no
		archetype = L_Drone_equipment
		active = no
		
		resources = {
			
		}
		
	}
	#1995
	land_Drone_equipment1 = {
		year = 1995
		is_buildable = no
		archetype = L_Drone_equipment
		parent = land_Drone_equipment
		#priority = 5
		visual_level = 1
		
		resources = {
			
		}
	}
	#2005
	land_Drone_equipment2 = {
		year = 2005
		is_buildable = no
		archetype = L_Drone_equipment
		parent = land_Drone_equipment1
		#priority = 5
		visual_level = 2
		
		resources = {
			
		}
	}
	#2015
	land_Drone_equipment3 = {
		year = 2015
		is_buildable = no
		archetype = L_Drone_equipment
		parent = land_Drone_equipment2
		#priority = 5
		visual_level = 3
		
		resources = {
			
		}
	}
	#2025
	land_Drone_equipment4 = {
		year = 2025
		is_buildable = no
		archetype = L_Drone_equipment
		parent = land_Drone_equipment3
		#priority = 5
		visual_level = 3
		
		resources = {
			
		}
	}
	#2035
	land_Drone_equipment5 = {
		year = 2035
		is_buildable = no
		archetype = L_Drone_equipment
		parent = land_Drone_equipment4
		#priority = 5
		visual_level = 3
		
		resources = {
			
		}
	}
	
	
	cnc_equipment = {
		is_archetype = yes
		is_buildable = no
		type = infantry
		group_by = archetype
		
		priority = 10
		
		interface_category = interface_category_land
		
		active = no
		
		#Misc Abilities
		reliability = 0.9
		max_organisation = 0.3 #percentage
		maximum_speed = 8
		
		#Space taken in convoy
		lend_lease_cost = 1
		
		build_cost_ic = 1.20
		
		resources = {
			oil = 1
			tungsten = 1
		}
		
	}
	#1975
	command_control_equipment = {
		year = 1975
		
		archetype = cnc_equipment
		active = no
		#priority = 5
		visual_level = 0
		
		#Misc Abilities
		reliability = 0.9
		max_organisation = 0.3 #percentage
		default_morale = 0.1
		
		#Space taken in convoy
		lend_lease_cost = 1
		
		build_cost_ic = 1.40

		resources = {
			oil = 1
			tungsten = 2
		}
		
	}
	#1985
	command_control_equipment1 = {
		year = 1985
		
		archetype = cnc_equipment
		parent = command_control_equipment
		#priority = 5
		visual_level = 1

		#Misc Abilities
		reliability = 0.9
		max_organisation = 0.4 #percentage
		default_morale = 0.15
		
		#Space taken in convoy
		lend_lease_cost = 1
		
		build_cost_ic = 1.52

		resources = {
			oil = 2
			tungsten = 2
		}
	}
	#1995
	command_control_equipment2 = {
		year = 1995
		
		archetype = cnc_equipment
		parent = command_control_equipment1
		#priority = 5
		visual_level = 2
		
		#Misc Abilities
		reliability = 0.9
		max_organisation = 0.5 #percentage
		default_morale = 0.2
		
		#Space taken in convoy
		lend_lease_cost = 1
		
		build_cost_ic = 1.80

		resources = {
			oil = 2
			tungsten = 2
		}
	}
	#2005
	command_control_equipment3 = {
		year = 2005
		
		archetype = cnc_equipment
		parent = command_control_equipment2
		#priority = 5
		visual_level = 3
		
		#Misc Abilities
		reliability = 0.9
		max_organisation = 0.6 #percentage
		default_morale = 0.25
		
		#Space taken in convoy
		lend_lease_cost = 1
		
		build_cost_ic = 1.92

		resources = {
			oil = 2
			tungsten = 3
		}
	}
	#2015
	command_control_equipment4 = {
		year = 2015
		
		archetype = cnc_equipment
		parent = command_control_equipment3
		#priority = 5
		visual_level = 3
		
		#Misc Abilities
		reliability = 0.9
		max_organisation = 0.7 #percentage
		default_morale = 0.3
		
		#Space taken in convoy
		lend_lease_cost = 1
		
		build_cost_ic = 2.11
		resources = {
			oil = 2
			tungsten = 3
		}
	}
	#2025
	command_control_equipment5 = {
		year = 2025
		
		archetype = cnc_equipment
		parent = command_control_equipment4
		#priority = 5
		visual_level = 3
		
		#Misc Abilities
		reliability = 0.9
		max_organisation = 0.8 #percentage
		default_morale = 0.35
		
		#Space taken in convoy
		lend_lease_cost = 1
		
		build_cost_ic = 2.30
		resources = {
			oil = 2
			tungsten = 3
		}
	}
	#2035
	command_control_equipment6 = {
		year = 2035
		
		archetype = cnc_equipment
		parent = command_control_equipment5
		#priority = 5
		visual_level = 3
		
		#Misc Abilities
		reliability = 0.9
		max_organisation = 0.9 #percentage
		default_morale = 0.40
		
		#Space taken in convoy
		lend_lease_cost = 1
		
		build_cost_ic = 2.85
		resources = {
			oil = 3
			tungsten = 3
		}
	}
}