scripted_gui = {
	nuking_window = {
		window_name = "nuking_window_container"

		context_type = selected_state_context
		parent_window_token = selected_state_view

		visible = {
			always = yes
		}

		ai_enabled = {
			always = no
		}

		triggers = {
			launch_nuke_button_click_enabled = {
				if = {
					limit = {
						NOT = {
							has_game_rule = {
								rule = nukes_game_rule
								option = yes
							}
						}
					}
				}
				owner = { has_war_with = ROOT }
				ROOT = {
					has_political_power > 99
					num_of_nukes > 0
					has_deployed_air_force_size = {
						size > 0
						type = strategic_bomber
					}
				}
			}
		}

		effects = {
			launch_nuke_button_click = {
				ROOT = {
					add_political_power = -100
					launch_nuke = {
						state = PREV
						use_nuke = yes
					}
				}
			}
		}
	}
}