#Scripted triggers				Scope				Explanation
#can_upgrade_gdp				COUNTRY SCOPE		TRUE if SCOPE COUNTRY GDP can be upgraded
#no_building_slots				STATE				TRUE if there are no shared slots for any building in STATE

no_building_slots = {
	custom_trigger_tooltip = {
		tooltip = TT_NO_BUILDING_SLOTS
		NOT = {
			OR = {
				any_owned_state = {
					free_building_slots = {
						building = industrial_complex
						size > 0
						include_locked = no
					}
				}
				any_owned_state = {
					free_building_slots = {
						building = arms_factory
						size > 0
						include_locked = no
					}
				}
				any_owned_state = {
					free_building_slots = {
						building = dockyard
						size > 0
						include_locked = no
					}
				}
				any_owned_state = {
					free_building_slots = {
						building = synthetic_refinery
						size > 0
						include_locked = no
					}
				}
				#any_owned_state = {
				#	free_building_slots = {
				#		building = fuel_silo
				#		size > 0
				#		include_locked = no
				#	}
				#}
				any_owned_state = {
					free_building_slots = {
						building = nuclear_reactor
						size > 0
						include_locked = no
					}
				}
			}
		}
	}
}

max_1_building_slots = {
	custom_trigger_tooltip = {
		tooltip = TT_MAX_1_BUILDING_SLOTS
		NOT = {
			OR = {
				any_owned_state = {
					free_building_slots = {
						building = industrial_complex
						size > 1
						include_locked = no
					}
				}
				any_owned_state = {
					free_building_slots = {
						building = arms_factory
						size > 1
						include_locked = no
					}
				}
				any_owned_state = {
					free_building_slots = {
						building = dockyard
						size > 1
						include_locked = no
					}
				}
				any_owned_state = {
					free_building_slots = {
						building = synthetic_refinery
						size > 1
						include_locked = no
					}
				}
				#any_owned_state = {
				#	free_building_slots = {
				#		building = fuel_silo
				#		size > 1
				#		include_locked = no
				#	}
				#}
				any_owned_state = {
					free_building_slots = {
						building = nuclear_reactor
						size > 1
						include_locked = no
					}
				}
			}
		}
	}
}

can_upgrade_gdp = {
	OR = {
		and = {
			has_idea = gdp_1
			OR = {
				AND = {
					num_of_factories < 79
					no_building_slots = yes
				}
				AND = {
					num_of_factories > 78
					max_1_building_slots = yes
				}
			}
		}
		and = {
			has_idea = gdp_2
			OR = {
				AND = {
					num_of_factories < 79
					no_building_slots = yes
				}
				AND = {
					num_of_factories > 78
					max_1_building_slots = yes
				}
			}
		}
		and = {
			has_idea = gdp_3
			OR = {
				AND = {
					num_of_factories < 79
					no_building_slots = yes
				}
				AND = {
					num_of_factories > 78
					max_1_building_slots = yes
				}
			}
		}
		and = {
			has_idea = gdp_4
			OR = {
				AND = {
					num_of_factories < 79
					no_building_slots = yes
				}
				AND = {
					num_of_factories > 78
					max_1_building_slots = yes
				}
			}
		}
		and = {
			has_idea = gdp_5
			OR = {
				AND = {
					num_of_factories < 79
					no_building_slots = yes
				}
				AND = {
					num_of_factories > 78
					max_1_building_slots = yes
				}
			}
		}
		and = {
			has_idea = gdp_6
			OR = {
				AND = {
					num_of_factories < 79
					no_building_slots = yes
				}
				AND = {
					num_of_factories > 78
					max_1_building_slots = yes
				}
			}
		}
		and = {
			has_idea = gdp_7
			OR = {
				AND = {
					num_of_factories < 79
					no_building_slots = yes
				}
				AND = {
					num_of_factories > 78
					max_1_building_slots = yes
				}
			}
		}
		and = {
			has_idea = gdp_8
			OR = {
				AND = {
					num_of_factories < 79
					no_building_slots = yes
				}
				AND = {
					num_of_factories > 78
					max_1_building_slots = yes
				}
			}
		}
		and = {
			has_idea = gdp_9
			OR = {
				AND = {
					num_of_factories < 79
					no_building_slots = yes
				}
				AND = {
					num_of_factories > 78
					max_1_building_slots = yes
				}
			}
		}
		and = {
			has_idea = gdp_10
			OR = {
				AND = {
					num_of_factories < 79
					no_building_slots = yes
				}
				AND = {
					num_of_factories > 78
					max_1_building_slots = yes
				}
			}
		}
		and = {
			has_idea = gdp_11
			OR = {
				AND = {
					num_of_factories < 79
					no_building_slots = yes
				}
				AND = {
					num_of_factories > 78
					max_1_building_slots = yes
				}
			}
		}
	}
}