﻿division_template = {
	name = "Commando Brigade"

	regiments = {
		Special_Forces = { x = 0 y = 0 }
		Special_Forces = { x = 0 y = 1 }
		Special_Forces = { x = 0 y = 2 }
	}

	support = {
	}

	priority = 2
}

division_template = {
	name = "Mechanised Division"

	regiments = {
		armor_Bat = { x = 0 y = 0 }
		armor_Bat = { x = 0 y = 1 }
		Arm_Inf_Bat = { x = 0 y = 2 }

		Mech_Inf_Bat = { x = 1 y = 0 }
		Mech_Inf_Bat = { x = 1 y = 1 }
		SP_Arty_Bat = { x = 1 y = 2 }

		Mech_Inf_Bat = { x = 2 y = 0 }
		Mech_Inf_Bat = { x = 2 y = 1 }
		SP_Arty_Bat = { x = 2 y = 2 }
	}

	support = {
		L_Engi_Comp = { x = 0 y = 0 }
		Mech_Recce_Comp = { x = 0 y = 1 }
		SP_AA_Battery = { x = 0 y = 2 }
	}

}

division_template = {
	name = "Infantry Division"

	regiments = {
		Mot_Inf_Bat = { x = 0 y = 0 }
		Mot_Inf_Bat = { x = 0 y = 1 }
		Mot_Inf_Bat = { x = 0 y = 2 }

		Mot_Inf_Bat = { x = 1 y = 0 }
		Mot_Inf_Bat = { x = 1 y = 1 }
		Arty_Bat = { x = 1 y = 2 }

		Mot_Inf_Bat = { x = 2 y = 0 }
		Mot_Inf_Bat = { x = 2 y = 1 }
		Arty_Bat = { x = 2 y = 2 }
	}

	support = {
		L_Engi_Comp = { x = 0 y = 0 }
		Mot_Recce_Comp = { x = 0 y = 1 }
		SP_AA_Battery = { x = 0 y = 2 }
	}

}

units = {

	division = {
		name = "Azazi Commando Brigade"
		location = 5010		#Addis Ababa
		division_template = "Commando Brigade"
		start_experience_factor = 0.3
		start_equipment_factor = 0.01
	}

	#Central Command
	division = {
		name = "8th Mechanised Division"
		location = 5010		#
		division_template = "Mechanised Division"
		start_experience_factor = 0.1
		start_equipment_factor = 0.01
	}
	division = {
		name = "31st Army Division"
		location = 5097		#
		division_template = "Infantry Division"
		start_experience_factor = 0.1
		start_equipment_factor = 0.01
	}
	division = {
		name = "35th Army Division"
		location = 345		#
		division_template = "Infantry Division"
		start_experience_factor = 0.1
		start_equipment_factor = 0.01
	}
	division = {
		name = "24th Army Division"
		location = 10734		#
		division_template = "Infantry Division"
		start_experience_factor = 0.1
		start_equipment_factor = 0.01
	}
	division = {
		name = "22nd Army Division"
		location = 12856		#
		division_template = "Infantry Division"
		start_experience_factor = 0.1
		start_equipment_factor = 0.01
	}
	division = {
		name = "33rd Army Division"
		location = 326		#
		division_template = "Infantry Division"
		start_experience_factor = 0.1
		start_equipment_factor = 0.01
	}

	#Northern Command
	division = {
		name = "4th Mechanised Division"
		location = 2072		#
		division_template = "Mechanised Division"
		start_experience_factor = 0.1
		start_equipment_factor = 0.01
	}
	division = {
		name = "14th Army Division"
		location = 533		#
		division_template = "Infantry Division"
		start_experience_factor = 0.1
		start_equipment_factor = 0.01
	}
	division = {
		name = "21st Army Division"
		location = 1984		#
		division_template = "Infantry Division"
		start_experience_factor = 0.1
		start_equipment_factor = 0.01
	}
	division = {
		name = "11th Army Division"
		location = 510		#
		division_template = "Infantry Division"
		start_experience_factor = 0.1
		start_equipment_factor = 0.01
	}
	division = {
		name = "25th Army Division"
		location = 518		#
		division_template = "Infantry Division"
		start_experience_factor = 0.1
		start_equipment_factor = 0.01
	}
	division = {
		name = "22nd Army Division"
		location = 520		#
		division_template = "Infantry Division"
		start_experience_factor = 0.1
		start_equipment_factor = 0.01
	}

	#South Eastern Command
	division = {
		name = "6th Mechanised Division"
		location = 208		#
		division_template = "Mechanised Division"
		start_experience_factor = 0.1
		start_equipment_factor = 0.01
	}
	division = {
		name = "19th Army Division"
		location = 10775		#
		division_template = "Infantry Division"
		start_experience_factor = 0.1
		start_equipment_factor = 0.01
	}
	division = {
		name = "44th Army Division"
		location = 8019		#
		division_template = "Infantry Division"
		start_experience_factor = 0.1
		start_equipment_factor = 0.01
	}
	division = {
		name = "13th Army Division"
		location = 338		#
		division_template = "Infantry Division"
		start_experience_factor = 0.1
		start_equipment_factor = 0.01
	}
	division = {
		name = "12th Army Division"
		location = 12757		#
		division_template = "Infantry Division"
		start_experience_factor = 0.1
		start_equipment_factor = 0.01
	}
	division = {
		name = "32nd Army Division"
		location = 4995		#
		division_template = "Infantry Division"
		start_experience_factor = 0.1
		start_equipment_factor = 0.01
	}

	#Western Command
	division = {
		name = "7th Mechanised Division"
		location = 315		#
		division_template = "Mechanised Division"
		start_experience_factor = 0.1
		start_equipment_factor = 0.01
	}
	division = {
		name = "23rd Army Division"
		location = 352		#
		division_template = "Infantry Division"
		start_experience_factor = 0.1
		start_equipment_factor = 0.01
	}
	division = {
		name = "43rd Army Division"
		location = 367		#
		division_template = "Infantry Division"
		start_experience_factor = 0.1
		start_equipment_factor = 0.01
	}
	division = {
		name = "26th Army Division"
		location = 328		#
		division_template = "Infantry Division"
		start_experience_factor = 0.1
		start_equipment_factor = 0.01
	}

}

instant_effect = {

	add_equipment_to_stockpile = {
		type = command_control_equipment
		amount = 3500
		producer = SOV
	}

	add_equipment_to_stockpile = {
		type = infantry_weapons3		#AK-103
		amount = 3000
		producer = SOV
	}

	add_equipment_to_stockpile = {
		type = infantry_weapons		#AKM
		amount = 30000
		producer = SOV
	}

	add_equipment_to_stockpile = {
		type = infantry_weapons		#G3
		amount = 1000
		producer = GER
	}

	add_equipment_to_stockpile = {
		type = infantry_weapons		#Vz. 58
		amount = 1000
		producer = CZE
	}

	add_equipment_to_stockpile = {
		type = MBT_1		#T-55
		amount = 800
		producer = SOV
	}

	add_equipment_to_stockpile = {
		type = MBT_1		#T-62
		#version_name = "T-62"
		amount = 470
		producer = SOV
	}

	add_equipment_to_stockpile = {
		type = MBT_2		#T-72
		amount = 700
		producer = SOV
	}

	add_equipment_to_stockpile = {
		type = IFV_1		#BMP-1
		amount = 100
		producer = SOV
	}

	add_equipment_to_stockpile = {
		type = APC_1		#BTR-60
		amount = 350
		producer = SOV
	}

	add_equipment_to_stockpile = {
		type = SP_R_arty_0		#BM-21 Grad
		amount = 158
		producer = SOV
	}

	add_equipment_to_stockpile = {
		type = SP_arty_0		#2S5 Giatsint
		#version_name = "2S5 Giatsint-S"
		amount = 10
		producer = SOV
	}

	add_equipment_to_stockpile = {
		type = SP_arty_0		#2S1 Gvozdika
		#version_name = "2S1 Gvozdika"
		amount = 10
		producer = SOV
	}

	add_equipment_to_stockpile = {
		type = SP_arty_1		#2S19 Msta
		amount = 10
		producer = SOV
	}

	add_equipment_to_stockpile = {
		type = artillery_0		#D-30
		amount = 640
		producer = SOV
	}

	add_equipment_to_stockpile = {
		type = artillery_0		#m101
		#version_name = "M101"
		amount = 52
		producer = USA
	}

	add_equipment_to_stockpile = {
		type = SP_Anti_Air_0		#Shilka
		#version_name = "ZSU-23-4 Shilka"
		amount = 60
		producer = SOV
	}

	add_equipment_to_stockpile = {
		type = SP_Anti_Air_0		#S-125 Pechora
		#version_name = "S-125 Pechora"
		amount = 25
		producer = SOV
	}

	add_equipment_to_stockpile = {
		type = SP_Anti_Air_0		#SA-6 Gainful
		#version_name = "SA-6 Gainful"
		amount = 20
		producer = SOV
	}

	add_equipment_to_stockpile = {
		type = SP_Anti_Air_0		#SA-8 Osa
		amount = 50
		producer = SOV
	}

	add_equipment_to_stockpile = {
		type = Anti_Air_0		#Strela
		amount = 1500
		producer = SOV
	}

	add_equipment_to_stockpile = {
		type = Heavy_Anti_tank_0		#TOW
		amount = 22
		producer = USA
	}

	add_equipment_to_stockpile = {
		type = Heavy_Anti_tank_1		#Spiral
		#version_name = "AT-6 Spiral"
		amount = 10
		producer = SOV
	}

	add_equipment_to_stockpile = {
		type = Heavy_Anti_tank_2		#Kornet
		amount = 900
		producer = SOV
	}

	add_equipment_to_stockpile = {
		type = Anti_tank_0		#Malyutka
		amount = 800
		producer = SOV
	}

	add_equipment_to_stockpile = {
		type = Anti_tank_1		#Fagot
		amount = 400
		producer = SOV
	}

	add_equipment_to_stockpile = {
		type = util_vehicle_0		#ZIL trucks
		amount = 8000
		producer = SOV
	}

	add_equipment_to_stockpile = {
		type = AS_Fighter1		#MiG-23
		amount = 15
		producer = SOV
	}

	add_equipment_to_stockpile = {
		type = AS_Fighter2		#Su-27
		amount = 24
		producer = SOV
	}

	add_equipment_to_stockpile = {
		type = L_Strike_fighter2		#L-39
		amount = 24
		producer = CZE
	}

	add_equipment_to_stockpile = {
		type = transport_plane1		#C-130 Hercules
		amount = 2
		producer = USA
	}

	add_equipment_to_stockpile = {
		type = transport_helicopter1		#Mi-8
		amount = 24
		producer = SOV
	}

	add_equipment_to_stockpile = {
		type = attack_helicopter1		#Mi-24
		amount = 28
		producer = SOV
	}

}


