﻿division_template = {
	name = "Motor Rifle Brigade" #Mechanized

	regiments = {
		Mech_Inf_Bat = { x = 0 y = 0 }
		Mech_Inf_Bat = { x = 0 y = 1 }
		Arm_Inf_Bat = { x = 0 y = 2 }
		armor_Bat = { x = 1 y = 0 }
		SP_Arty_Bat = { x = 2 y = 0 }
		SP_Arty_Bat = { x = 2 y = 1 }
		SP_Arty_Bat = { x = 2 y = 2 }
		SP_AA_Bat = { x = 2 y = 3 }
		Mech_Recce_Bat = { x = 3 y = 0 }
		H_Engi_Bat = { x = 3 y = 1 }
	}
}

division_template = {
	name = "Guards Motor Rifle Brigade" #Armored Inf

	regiments = {
		Arm_Inf_Bat = { x = 0 y = 0 }
		Arm_Inf_Bat = { x = 0 y = 1 }
		Mech_Inf_Bat = { x = 0 y = 2 }
		armor_Bat = { x = 1 y = 0 }
		SP_Arty_Bat = { x = 2 y = 0 }
		SP_Arty_Bat = { x = 2 y = 1 }
		SP_Arty_Bat = { x = 2 y = 2 }
		SP_AA_Bat = { x = 2 y = 3 }
		Mech_Recce_Bat = { x = 3 y = 0 }
		H_Engi_Bat = { x = 3 y = 1 }
	}
	priority = 2
}

division_template = {
	name = "Motor Rifle Division" #Mechanized

	regiments = {
		Mech_Inf_Bat = { x = 0 y = 0 }
		Mech_Inf_Bat = { x = 0 y = 1 }
		Mech_Inf_Bat = { x = 0 y = 2 }
		Mech_Inf_Bat = { x = 0 y = 3 }

		Arm_Inf_Bat = { x = 1 y = 0 }
		Arm_Inf_Bat = { x = 1 y = 1 }
		Arm_Recce_Bat = { x = 1 y = 2 }

		armor_Bat = { x = 2 y = 0 }
		armor_Bat = { x = 2 y = 1 }
		armor_Bat = { x = 2 y = 2 }
		armor_Bat = { x = 2 y = 3 }

		Arty_Bat = { x = 3 y = 0 }
		Arty_Bat = { x = 3 y = 1 }
		Arty_Bat = { x = 3 y = 2 }
		Arty_Bat = { x = 3 y = 3 }
		Mot_Recce_Bat = { x = 3 y = 4 }

		SP_AA_Bat = { x = 4 y = 0 }
		SP_AA_Bat = { x = 4 y = 1 }
		SP_Arty_Bat = { x = 4 y = 2 }
		H_Engi_Bat = { x = 4 y = 3 }
		H_Engi_Bat = { x = 4 y = 4 }
	}
	support = {
		armor_Recce_Comp = { x = 0 y = 0 }
	}
}

division_template = {
	name = "Guards Motor Rifle Division" #Armored Inf

	regiments = {
		Arm_Inf_Bat = { x = 0 y = 0 }
		Arm_Inf_Bat = { x = 0 y = 1 }
		Arm_Inf_Bat = { x = 0 y = 2 }
		Arm_Inf_Bat = { x = 0 y = 3 }
		Arm_Inf_Bat = { x = 0 y = 4 }
		Mech_Inf_Bat = { x = 1 y = 0 }
		Mech_Inf_Bat = { x = 1 y = 1 }
		armor_Bat = { x = 1 y = 2 }
		armor_Bat = { x = 1 y = 3 }
		armor_Bat = { x = 1 y = 4 }
		SP_Arty_Bat = { x = 2 y = 0 }
		SP_Arty_Bat = { x = 2 y = 1 }
		SP_Arty_Bat = { x = 2 y = 2 }
		SP_Arty_Bat = { x = 2 y = 3 }
		SP_Arty_Bat = { x = 2 y = 4 }
		SP_Arty_Bat = { x = 3 y = 0 }
		SP_AA_Bat = { x = 3 y = 1 }
		SP_AA_Bat = { x = 3 y = 2 }
		Mech_Recce_Bat = { x = 4 y = 0 }
		Mech_Recce_Bat = { x = 4 y = 1 }
		H_Engi_Bat = { x = 4 y = 2 }
		H_Engi_Bat = { x = 4 y = 3 }
	}
	priority = 2
}

division_template = {
	name = "Light Motor Rifle Brigade" #Arctic & Mountain

	regiments = {
		Mot_Inf_Bat = { x = 0 y = 0 }
		Mot_Inf_Bat = { x = 0 y = 1 }
		Mot_Inf_Bat = { x = 0 y = 2 }
		Mot_Inf_Bat = { x = 0 y = 3 }
		SP_Arty_Bat = { x = 1 y = 0 }
		SP_Arty_Bat = { x = 1 y = 1 }
		SP_Arty_Bat = { x = 1 y = 2 }
		SP_AA_Bat = { x = 1 y = 3 }
		Mot_Recce_Bat = { x = 2 y = 0 }
		L_Engi_Bat = { x = 2 y = 1 }
	}
}

division_template = {
	name = "Tank Brigade"

	regiments = {
		armor_Bat = { x = 0 y = 0 }
		armor_Bat = { x = 0 y = 1 }
		armor_Bat = { x = 0 y = 2 }
		Arm_Inf_Bat = { x = 1 y = 0 }
		SP_Arty_Bat = { x = 2 y = 0 }
		SP_Arty_Bat = { x = 2 y = 1 }
		SP_AA_Bat = { x = 2 y = 2 }
		Arm_Recce_Bat = { x = 3 y = 0 }
		H_Engi_Bat = { x = 3 y = 1 }
	}
}

division_template = {
	name = "Tank Division"

	regiments = {
		armor_Bat = { x = 0 y = 0 }
		armor_Bat = { x = 0 y = 1 }
		armor_Bat = { x = 0 y = 2 }
		Arm_Inf_Bat = { x = 0 y = 3 }
		armor_Bat = { x = 1 y = 0 }
		armor_Bat = { x = 1 y = 1 }
		armor_Bat = { x = 1 y = 2 }
		Arm_Inf_Bat = { x = 1 y = 3 }
		SP_Arty_Bat = { x = 2 y = 0 }
		SP_Arty_Bat = { x = 2 y = 1 }
		SP_Arty_Bat = { x = 2 y = 2 }
		SP_Arty_Bat = { x = 2 y = 3 }
		SP_Arty_Bat = { x = 3 y = 0 }
		SP_Arty_Bat = { x = 3 y = 1 }
		SP_AA_Bat = { x = 4 y = 0 }
		SP_AA_Bat = { x = 4 y = 1 }
		Arm_Recce_Bat = { x = 4 y = 2 }
		H_Engi_Bat = { x = 4 y = 3 }
	}
	priority = 2
}

division_template = {
	name = "Spetsnaz Brigade"

	regiments = {
		Special_Forces = { x = 0 y = 0 }
		Special_Forces = { x = 0 y = 1 }
		Special_Forces = { x = 0 y = 2 }
		Special_Forces = { x = 0 y = 3 }
	}
	priority = 2
}

division_template = {
	name = "Airmobile Brigade"

	regiments = {
		Arm_Air_assault_Bat = { x = 0 y = 0 }
		Arm_Air_assault_Bat = { x = 0 y = 1 }
		Arm_Air_assault_Bat = { x = 0 y = 2 }
		Arty_Bat = { x = 1 y = 0 }
	}
	support = {
		armor_Recce_Comp = { x = 0 y = 0 }
		Mot_Recce_Comp = { x = 0 y = 1 }
		L_Engi_Comp = { x = 0 y = 2 }
		SP_AA_Battery = { x = 0 y = 3 }
	}
	priority = 2
}

division_template = {
	name = "Airborne Brigade"

	regiments = {
		Arm_Air_Inf_Bat = { x = 0 y = 0 }
		Arm_Air_Inf_Bat = { x = 0 y = 1 }
		Arm_Air_Inf_Bat = { x = 0 y = 2 }
		Arty_Bat = { x = 1 y = 0 }
	}
	support = {
		armor_Recce_Comp = { x = 0 y = 0 }
		Mot_Recce_Comp = { x = 0 y = 1 }
		L_Engi_Comp = { x = 0 y = 2 }
		SP_AA_Battery = { x = 0 y = 3 }
	}
	priority = 2
}

division_template = {
	name = "Air Assault Brigade"

	regiments = {
		Mech_Air_Inf_Bat = { x = 0 y = 0 }
		Mech_Air_Inf_Bat = { x = 0 y = 1 }
		Arm_Air_Inf_Bat = { x = 0 y = 2 }
		Arty_Bat = { x = 1 y = 0 }
	}
	support = {
		armor_Recce_Comp = { x = 0 y = 0 }
		Mot_Recce_Comp = { x = 0 y = 1 }
		L_Engi_Comp = { x = 0 y = 2 }
		SP_AA_Battery = { x = 0 y = 3 }
	}
	priority = 2
}

division_template = {
	name = "Airborne Division"

	regiments = {
		Arm_Air_Inf_Bat = { x = 0 y = 0 }
		Arm_Air_Inf_Bat = { x = 0 y = 1 }
		Arm_Air_Inf_Bat = { x = 0 y = 2 }
		Arm_Air_Inf_Bat = { x = 1 y = 0 }
		Arm_Air_Inf_Bat = { x = 1 y = 1 }
		Arm_Air_Inf_Bat = { x = 1 y = 2 }
		Arty_Bat = { x = 2 y = 0 }
		Arty_Bat = { x = 2 y = 1 }
		Arty_Bat = { x = 2 y = 2 }
		SP_AA_Bat = { x = 2 y = 3 }
		Arm_Recce_Bat = { x = 3 y = 0 }
		Mot_Recce_Bat = { x = 3 y = 1 }
		L_Engi_Bat = { x = 3 y = 2 }
	}
	priority = 2
}

division_template = {
	name = "Air Assault Division"

	regiments = {
		Mech_Air_Inf_Bat = { x = 0 y = 0 }
		Mech_Air_Inf_Bat = { x = 0 y = 1 }
		Mech_Air_Inf_Bat = { x = 0 y = 2 }
		Mech_Air_Inf_Bat = { x = 0 y = 3 }
		Arm_Air_Inf_Bat = { x = 1 y = 0 }
		Arm_Air_Inf_Bat = { x = 1 y = 1 }
		Arty_Bat = { x = 2 y = 0 }
		Arty_Bat = { x = 2 y = 1 }
		Arty_Bat = { x = 2 y = 2 }
		SP_AA_Bat = { x = 2 y = 3 }
		Arm_Recce_Bat = { x = 3 y = 0 }
		Mot_Recce_Bat = { x = 3 y = 1 }
		L_Engi_Bat = { x = 3 y = 2 }
	}
	priority = 2
}

division_template = {
	name = "Machinegun Artillery Division"

	regiments = {
		L_Inf_Bat = { x = 0 y = 0 }
		L_Inf_Bat = { x = 0 y = 1 }
		armor_Bat = { x = 0 y = 2 }
		SP_Arty_Bat = { x = 1 y = 0 }
		SP_Arty_Bat = { x = 1 y = 1 }
		SP_Arty_Bat = { x = 1 y = 2 }
		SP_Arty_Bat = { x = 1 y = 3 }
		SP_AA_Bat = { x = 2 y = 0 }
		L_Engi_Bat = { x = 2 y = 1 }
	}
	priority = 0
}

division_template = {
	name = "Naval Infantry Regiment"

	regiments = {
		Mech_Marine_Bat = { x = 0 y = 0 }
		Mech_Marine_Bat = { x = 0 y = 1 }
	}
	support = {
		armor_Comp = { x = 0 y = 0 }
		Mech_Recce_Comp = { x = 0 y = 1 }
		SP_Arty_Battery = { x = 0 y = 2 }
		SP_AA_Battery = { x = 0 y = 3 }
	}
}

division_template = {
	name = "Naval Infantry Brigade"

	regiments = {
		Mech_Marine_Bat = { x = 0 y = 0 }
		Mech_Marine_Bat = { x = 0 y = 1 }
		Arm_Marine_Bat = { x = 0 y = 2 }
		armor_Bat = { x = 0 y = 3 }
		SP_Arty_Bat = { x = 1 y = 0 }
		SP_Arty_Bat = { x = 1 y = 1 }
		SP_Arty_Bat = { x = 1 y = 2 }
		SP_AA_Bat = { x = 1 y = 3 }
		Arm_Recce_Bat = { x = 2 y = 0 }
		Special_Forces = { x = 2 y = 1 }
	}
}

division_template = {
	name = "Artillery Brigade"

	regiments = {
		Mot_Inf_Bat = { x = 0 y = 0 }
		Mot_Recce_Bat = { x = 0 y = 1 }
		Arty_Bat = { x = 1 y = 0 }
		Arty_Bat = { x = 1 y = 1 }
		Arty_Bat = { x = 1 y = 2 }
	}
}

division_template = {
	name = "MLRS Brigade"

	regiments = {
		Mot_Inf_Bat = { x = 0 y = 0 }
		Mot_Recce_Bat = { x = 0 y = 1 }
		SP_Arty_Bat = { x = 1 y = 0 }
		SP_Arty_Bat = { x = 1 y = 1 }
		SP_Arty_Bat = { x = 1 y = 2 }
	}
}

division_template = {
	name = "Recce Brigade"

	regiments = {
		Special_Forces = { x = 0 y = 0 }
		Special_Forces = { x = 0 y = 1 }
		Arm_Recce_Bat = { x = 0 y = 2 }
		SP_Arty_Bat = { x = 1 y = 0 }
		SP_AA_Bat = { x = 1 y = 1 }
	}
	support = {
		armor_Recce_Comp = { x = 0 y = 0 }
		L_Engi_Comp = { x = 0 y = 1 }
	}
	priority = 2
}
units = {

###### OOB ######
### Eastern MD
	 division = {
		name = "70th Motor Rifle Brigade"
		location = 3977
		division_template = "Motor Rifle Brigade"
		start_experience_factor = 0.5
		start_equipment_factor = 0.01
	}
	division = {
		name = "60th Motor Rifle Brigade"
		location = 3977
		division_template = "Motor Rifle Brigade"
		start_experience_factor = 0.5
		start_equipment_factor = 0.01
	}
	division = {
		name = "14th Spetsnaz Brigade"
		location = 3977
		division_template = "Spetsnaz Brigade"
		start_experience_factor = 0.7
		start_equipment_factor = 0.01
	}

	division = {
		name = "57th Motor Rifle Brigade"
		location = 11643
		division_template = "Motor Rifle Brigade"
		start_experience_factor = 0.5
		start_equipment_factor = 0.01
	}

	division = {
		name = "59th Motor Rifle Brigade"
		location = 7763
		division_template = "Motor Rifle Brigade"
		start_experience_factor = 0.5
		start_equipment_factor = 0.01
	}

	division = {
		name = "38th Motor Rifle Brigade"
		location = 12654
		division_template = "Motor Rifle Brigade"
		start_experience_factor = 0.5
		start_equipment_factor = 0.01
	}
#	division = {
#		name = "165th Artillery Brigade"
#		location = 12654
#		division_template = "Artillery Brigade"
#		start_experience_factor = 0.5
#		start_equipment_factor = 0.01
#	}

	division = {
		name = "36th Motor Rifle Brigade"
		location = 4719
		division_template = "Motor Rifle Brigade"
		start_experience_factor = 0.5
		start_equipment_factor = 0.01
	}

	division = {
		name = "64th Motor Rifle Brigade"
		location = 12189
		division_template = "Motor Rifle Brigade"
		start_experience_factor = 0.5
		start_equipment_factor = 0.01
	}

	division = {
		name = "69th Motor Rifle Brigade"
		location = 7672
		division_template = "Motor Rifle Brigade"
		start_experience_factor = 0.5
		start_equipment_factor = 0.01
	}

	division = {
		name = "39th Motor Rifle Brigade"
		location = 12446
		division_template = "Motor Rifle Brigade"
		start_experience_factor = 0.5
		start_equipment_factor = 0.01
	}

#	division = {
#		name = "200th Artillery Brigade"
#		location = 4705
#		division_template = "Artillery Brigade"
#		start_experience_factor = 0.5
#		start_equipment_factor = 0.01
#	}

#	division = {
#		name = "338th MLRS Brigade"
#		location = 6684
#		division_template = "MLRS Brigade"
#		start_experience_factor = 0.5
#		start_equipment_factor = 0.01
#	}

	division = {
		name = "5th Tank Brigade"
		location = 7816
		division_template = "Tank Brigade"
		start_experience_factor = 0.5
		start_equipment_factor = 0.01
	}

	division = {
		name = "39th Motor Rifle Brigade"
		location = 4766
		division_template = "Motor Rifle Brigade"
		start_experience_factor = 0.5
		start_equipment_factor = 0.01
	}

	division = {
		name = "18th Machinegun Artillery Division"
		location = 13037
		division_template = "Machinegun Artillery Division"
		start_experience_factor = 0.5
		start_equipment_factor = 0.01
	}

#Central MD

	division = {
		name = "201st Military Base"
		location = 1384 #Tajikistan
		division_template = "Motor Rifle Brigade"
		start_experience_factor = 0.5
		start_equipment_factor = 0.01
	}

	division = {
		name = "7th Tank Brigade"
		location = 1334
		division_template = "Tank Brigade"
		start_experience_factor = 0.5
		start_equipment_factor = 0.01
	}

	division = {
		name = "15th Motor Rifle Brigade"
		location = 11225
		division_template = "Motor Rifle Brigade"
		start_experience_factor = 0.5
		start_equipment_factor = 0.01
	}
	division = {
		name = "23rd Motor Rifle Brigade"
		location = 11225
		division_template = "Motor Rifle Brigade"
		start_experience_factor = 0.5
		start_equipment_factor = 0.01
	}

	division = {
		name = "21st Motor Rifle Brigade"
		location = 3330
		division_template = "Motor Rifle Brigade"
		start_experience_factor = 0.5
		start_equipment_factor = 0.01
	}
#	division = {
#		name = "385th Artillery Brigade"
#		location = 3330
#		division_template = "Artillery Brigade"
#		start_experience_factor = 0.5
#		start_equipment_factor = 0.01
#	}

	division = {
		name = "28th Motor Rifle Brigade"
		location = 1821
		division_template = "Motor Rifle Brigade"
		start_experience_factor = 0.5
		start_equipment_factor = 0.01
	}

	division = {
		name = "32nd Motor Rifle Brigade"
		location = 7274
		division_template = "Motor Rifle Brigade"
		start_experience_factor = 0.5
		start_equipment_factor = 0.01
	}
	division = {
		name = "24th Spetsnaz Brigade"
		location = 7274
		division_template = "Spetsnaz Brigade"
		start_experience_factor = 0.7
		start_equipment_factor = 0.01
	}

	division = {
		name = "35th Motor Rifle Brigade"
		location = 1794
		division_template = "Motor Rifle Brigade"
		start_experience_factor = 0.5
		start_equipment_factor = 0.01
	}

	division = {
		name = "55th Mountain Motor Rifle Brigade"
		location = 4680
		division_template = "Light Motor Rifle Brigade"
		start_experience_factor = 0.5
		start_equipment_factor = 0.01
	}

	division = {
		name = "35th Motor Rifle Brigade"
		location = 1794
		division_template = "Motor Rifle Brigade"
		start_experience_factor = 0.5
		start_equipment_factor = 0.01
	}

	division = {
		name = "74th Motor Rifle Brigade"
		location = 7757
		division_template = "Motor Rifle Brigade"
		start_experience_factor = 0.5
		start_equipment_factor = 0.01
	}
#	division = {
#		name = "120th Artillery Brigade"
#		location = 7757
#		division_template = "Artillery Brigade"
#		start_experience_factor = 0.5
#		start_equipment_factor = 0.01
#	}

	division = {
		name = "3rd Spetsnaz Brigade"
		location = 1297
		division_template = "Spetsnaz Brigade"
		start_experience_factor = 0.7
		start_equipment_factor = 0.01
	}

#Southern MD
	division = {
		name = "693rd Motor Rifle Brigade"
		location = 1530 #South Ossetia
		division_template = "Motor Rifle Brigade"
		start_experience_factor = 0.5
		start_equipment_factor = 0.9
		force_equipment_variants = { infantry_weapons1 = { owner = "SOV" } }
		force_equipment_variants = { APC_4 = { owner = "SOV" } }
		force_equipment_variants = { IFV_2 = { owner = "SOV" } }
		force_equipment_variants = { command_control_equipment1 = { owner = "SOV" } }
		force_equipment_variants = { Anti_Air_2 = { owner = "SOV" } }
		force_equipment_variants = { Anti_tank_1 = { owner = "SOV" } }
		force_equipment_variants = { Heavy_Anti_tank_2 = { owner = "SOV" } }
		force_equipment_variants = { SP_arty_0 = { owner = "SOV" } }
		force_equipment_variants = { infantry_weapons4 = { owner = "SOV" } }
		force_equipment_variants = { MBT_2 = { owner = "SOV" } } #
		force_equipment_variants = { SP_Anti_Air_1 = { owner = "SOV" } }
	}

	division = {
		name = "17th Motor Rifle Brigade"
		location = 666
		division_template = "Motor Rifle Brigade"
		start_experience_factor = 0.5
		start_equipment_factor = 0.01
	}

	division = {
		name = "18th Guards Motor Rifle Brigade"
		location = 3722
		division_template = "Guards Motor Rifle Brigade"
		start_experience_factor = 0.5
		start_equipment_factor = 0.01
	}

	division = {
		name = "19th Motor Rifle Brigade"
		location = 9628
		division_template = "Motor Rifle Brigade"
		start_experience_factor = 0.5
		start_equipment_factor = 0.01
	}

	division = {
		name = "136th Motor Rifle Brigade"
		location = 6689
		division_template = "Motor Rifle Brigade"
		start_experience_factor = 0.5
		start_equipment_factor = 0.01
	}

	division = {
		name = "205th Motor Rifle Brigade"
		location = 6750
		division_template = "Motor Rifle Brigade"
		start_experience_factor = 0.5
		start_equipment_factor = 0.01
	}

	division = {
		name = "205th Motor Rifle Brigade"
		location = 6750
		division_template = "Motor Rifle Brigade"
		start_experience_factor = 0.5
		start_equipment_factor = 0.01
	}

	division = {
		name = "100th Recce Brigade"
		location = 9674
		division_template = "Recce Brigade"
		start_experience_factor = 0.5
		start_equipment_factor = 0.01
	}

	division = {
		name = "150th Motor Rifle Division"
		location = 9417
		division_template = "Guards Motor Rifle Division"
		start_experience_factor = 0.5
		start_equipment_factor = 0.01
	}

	division = {
		name = "8th Mountain Motor Rifle Brigade"
		location = 670
		division_template = "Light Motor Rifle Brigade"
		start_experience_factor = 0.5
		start_equipment_factor = 0.01
	}

	division = {
		name = "34th Mountain Motor Rifle Brigade"
		location = 9649
		division_template = "Light Motor Rifle Brigade"
		start_experience_factor = 0.5
		start_equipment_factor = 0.01
	}

	division = {
		name = "33rd Recce Brigade"
		location = 3717
		division_template = "Recce Brigade"
		start_experience_factor = 0.5
		start_equipment_factor = 0.01
	}

	division = {
		name = "20th Motor Rifle Brigade"
		location = 3529
		division_template = "Motor Rifle Brigade"
		start_experience_factor = 0.5
		start_equipment_factor = 0.01
	}

	division = {
		name = "10th Spetsnaz Brigade"
		location = 3734
		division_template = "Spetsnaz Brigade"
		start_experience_factor = 0.7
		start_equipment_factor = 0.01
	}

	division = {
		name = "22nd Spetsnaz Brigade"
		location = 9417
		division_template = "Spetsnaz Brigade"
		start_experience_factor = 0.7
		start_equipment_factor = 0.01
	}

#	division = {
#		name = "120th Artillery Brigade"
#		location = 670
#		division_template = "Artillery Brigade"
#		start_experience_factor = 0.5
#		start_equipment_factor = 0.01
#	}

#	division = {
#		name = "338th MLRS Brigade"
#		location = 6516
#		division_template = "MLRS Brigade"
#		start_experience_factor = 0.5
#		start_equipment_factor = 0.01
#	}

	division = {
		name = "76th Motor Rifle Brigade"
		location = 12441 #Armenia
		division_template = "Motor Rifle Brigade"
		start_experience_factor = 0.5
		start_equipment_factor = 0.9
		force_equipment_variants = { infantry_weapons1 = { owner = "SOV" } }
		force_equipment_variants = { APC_4 = { owner = "SOV" } }
		force_equipment_variants = { IFV_2 = { owner = "SOV" } }
		force_equipment_variants = { command_control_equipment1 = { owner = "SOV" } }
		force_equipment_variants = { Anti_Air_2 = { owner = "SOV" } }
		force_equipment_variants = { Anti_tank_1 = { owner = "SOV" } }
		force_equipment_variants = { Heavy_Anti_tank_2 = { owner = "SOV" } }
		force_equipment_variants = { SP_arty_0 = { owner = "SOV" } }
		force_equipment_variants = { MBT_2 = { owner = "SOV" } } #
		force_equipment_variants = { SP_Anti_Air_1 = { owner = "SOV" } }
	}

	division = {
		name = "73rd Motor Rifle Brigade"
		location = 12441 #Armenia
		division_template = "Motor Rifle Brigade"
		start_experience_factor = 0.5
		start_equipment_factor = 0.9
		force_equipment_variants = { infantry_weapons1 = { owner = "SOV" } }
		force_equipment_variants = { APC_4 = { owner = "SOV" } }
		force_equipment_variants = { IFV_2 = { owner = "SOV" } }
		force_equipment_variants = { command_control_equipment1 = { owner = "SOV" } }
		force_equipment_variants = { Anti_Air_2 = { owner = "SOV" } }
		force_equipment_variants = { Anti_tank_1 = { owner = "SOV" } }
		force_equipment_variants = { Heavy_Anti_tank_2 = { owner = "SOV" } }
		force_equipment_variants = { SP_arty_0 = { owner = "SOV" } }
		force_equipment_variants = { infantry_weapons4 = { owner = "SOV" } }
		force_equipment_variants = { MBT_2 = { owner = "SOV" } } #
		force_equipment_variants = { SP_Anti_Air_1 = { owner = "SOV" } }
	}

	division = {
		name = "200th Motor Rifle Brigade"
		location = 9140
		division_template = "Light Motor Rifle Brigade"
		start_experience_factor = 0.5
		start_equipment_factor = 0.01
	}

	division = {
		name = "80th Motor Rifle Brigade"
		location = 197
		division_template = "Light Motor Rifle Brigade"
		start_experience_factor = 0.5
		start_equipment_factor = 0.01
	}

#Western MD
#	division = {
#		name = "449th Detached Fireworks Division"
#		location = 6414
#		division_template = "Artillery Brigade"
#		start_experience_factor = 0.5
#		start_equipment_factor = 0.01
#	}

	division = {
		name = "27th Motor Rifle Brigade"
		location = 6380
		division_template = "Motor Rifle Brigade"
		start_experience_factor = 0.5
		start_equipment_factor = 0.01
	}

	division = {
		name = "2nd Spetsnaz Brigade"
		location = 11202
		division_template = "Spetsnaz Brigade"
		start_experience_factor = 0.7
		start_equipment_factor = 0.01
	}

	division = {
		name = "16th Spetsnaz Brigade"
		location = 11351
		division_template = "Spetsnaz Brigade"
		start_experience_factor = 0.7
		start_equipment_factor = 0.01
	}

#	division = {
#		name = "79th MLRS Brigade"
#		location = 6245
#		division_template = "MLRS Brigade"
#		start_experience_factor = 0.5
#		start_equipment_factor = 0.01
#	}

	division = {
		name = "25th Motor Rifle Brigade"
		location = 95
		division_template = "Motor Rifle Brigade"
		start_experience_factor = 0.5
		start_equipment_factor = 0.01
	}

	division = {
		name = "138th Motor Rifle Brigade"
		location = 9206
		division_template = "Motor Rifle Brigade"
		start_experience_factor = 0.5
		start_equipment_factor = 0.01
	}

#	division = {
#		name = "9th Artillery Brigade"
#		location = 9098
#		division_template = "Artillery Brigade"
#		start_experience_factor = 0.5
#		start_equipment_factor = 0.01
#	}

	division = {
		name = "4th Guards Tank Division"
		location = 6290
		division_template = "Tank Division"
		start_experience_factor = 0.5
		start_equipment_factor = 0.01
	}
	division = {
		name = "2nd Guards Motor Rifle Division"
		location = 3391
		division_template = "Guards Motor Rifle Division"
		start_experience_factor = 0.5
		start_equipment_factor = 0.01
	}

	division = {
		name = "45th Spetsnaz Brigade"
		location = 3391
		division_template = "Spetsnaz Brigade"
		start_experience_factor = 0.7
		start_equipment_factor = 0.01
	}

	division = {
		name = "1st Tank Brigade"
		location = 6591
		division_template = "Tank Brigade"
		start_experience_factor = 0.5
		start_equipment_factor = 0.01
	}

	division = {
		name = "6th Tank Brigade"
		location = 9718
		division_template = "Tank Brigade"
		start_experience_factor = 0.5
		start_equipment_factor = 0.01
	}

	division = {
		name = "9th Motor Rifle Brigade"
		location = 117
		division_template = "Motor Rifle Brigade"
		start_experience_factor = 0.5
		start_equipment_factor = 0.01
	}

#	division = {
#		name = "288th Artillery Brigade"
#		location = 11375
#		division_template = "Artillery Brigade"
#		start_experience_factor = 0.5
#		start_equipment_factor = 0.01
#	}

# VDV
	division = {
		name = "98th Guards Airborne Division"
		location = 6269
		division_template = "Airborne Division"
		start_experience_factor = 0.6
		start_equipment_factor = 0.01
	}

	division = {
		name = "106th Guards Airborne Division"
		location = 6262
		division_template = "Airborne Division"
		start_experience_factor = 0.6
		start_equipment_factor = 0.01
	}

	division = {
		name = "76h Guards Air Assault Division"
		location = 11202
		division_template = "Air Assault Division"
		start_experience_factor = 0.6
		start_equipment_factor = 0.01
	}

	division = {
		name = "83rd Guards Airborne Brigade"
		location = 3977
		division_template = "Airborne Brigade"
		start_experience_factor = 0.6
		start_equipment_factor = 0.01
	}

	division = {
		name = "11th Guards Airborne Brigade"
		location = 7816
		division_template = "Airborne Brigade"
		start_experience_factor = 0.6
		start_equipment_factor = 0.01
	}

	division = {
		name = "56th Guards Airborne Brigade"
		location = 9475
		division_template = "Airborne Brigade"
		start_experience_factor = 0.6
		start_equipment_factor = 0.01
	}

	division = {
		name = "31st Guards Air Assault Brigade"
		location = 9338
		division_template = "Air Assault Brigade"
		start_experience_factor = 0.6
		start_equipment_factor = 0.01
	}

#Marines / Naval Infantry
	division = {
		name = "810th Marine Brigade"
		location = 3686
		division_template = "Naval Infantry Brigade"
		start_experience_factor = 0.5
		start_equipment_factor = 0.01
	}

	division = {
		name = "61st Red Banner Marine Brigade"
		location = 3134
		division_template = "Naval Infantry Brigade"
		start_experience_factor = 0.5
		start_equipment_factor = 0.01
	}

	division = {
		name = "336th Guards Marine Brigade"
		location = 6332
		division_template = "Naval Infantry Brigade"
		start_experience_factor = 0.5
		start_equipment_factor = 0.01
	}

	division = {
		name = "155th Marine Brigade"
		location = 957
		division_template = "Naval Infantry Brigade"
		start_experience_factor = 0.5
		start_equipment_factor = 0.01
	}

	division = {
		name = "40th Krasnodar-Harbin Marine Brigade"
		location = 7878
		division_template = "Naval Infantry Brigade"
		start_experience_factor = 0.5
		start_equipment_factor = 0.01
	}

	#### NAVY ####











}

instant_effect = {

	### Aircraft

	add_equipment_to_stockpile = {
	type = Int_Fighter1 #MIG-31
	amount = 194
	}

	add_equipment_to_stockpile = {
	type = CV_MR_Fighter2 #MiG-29K
	amount = 4
	}

	add_equipment_to_stockpile = {
	type = CV_MR_Fighter3 #SU-33
	amount = 18
	}

	add_equipment_to_stockpile = {
	type = AS_Fighter2 #SU-27
	amount = 292
	}

	add_equipment_to_stockpile = {
	type = AS_Fighter2 #SU-35
	amount = 151
	}

	add_equipment_to_stockpile = {
	type = MR_Fighter2 #MiG-29
	amount = 217
	}

	add_equipment_to_stockpile = {
	type = Strike_fighter2 #Su-24
	amount = 478
	}

	add_equipment_to_stockpile = {
	type = Strike_fighter3 #Su-34
	amount = 57
	}

	add_equipment_to_stockpile = {
	type = cas1 #SU-25
	amount = 115
	}

	add_equipment_to_stockpile = {
	type = cas2 #SU-25T
	amount = 237
	}

	add_equipment_to_stockpile = {
	type = strategic_bomber1 #tu95
	amount = 60
	}

	add_equipment_to_stockpile = {
	type = strategic_bomber2 #tu22
	amount = 63
	}

	add_equipment_to_stockpile = {
	type = strategic_bomber3 #tu160
	amount = 16
	}

	add_equipment_to_stockpile = {
	type = naval_plane2 #tu142
	amount = 13
	}

	add_equipment_to_stockpile = {
		type = L_Strike_fighter2	 #Aero L-39
		amount = 200
		producer = CZE
	}

	### Helicopters

	add_equipment_to_stockpile = {
		type = attack_helicopter1 		#Mi-24
		amount = 325
		producer = SOV
	}

	add_equipment_to_stockpile = {
		type = attack_helicopter2 		#Mi-28
		amount = 82
		producer = SOV
	}

	add_equipment_to_stockpile = {
		type = attack_helicopter3 		#Ka-50
		amount = 16
		producer = SOV
	}

	add_equipment_to_stockpile = {
		type = attack_helicopter3 		#Ka-52
		#version_name = "Kamov Ka-52 Alligator"
		amount = 90
		producer = SOV
	}

	add_equipment_to_stockpile = {
		type = transport_helicopter1 		#Mi-8
		amount = 701
		producer = SOV
	}

	add_equipment_to_stockpile = {
		type = transport_helicopter1 		#Mi-14
		#version_name = "Mil Mi-14"
		amount = 60
		producer = SOV
	}

	add_equipment_to_stockpile = {
		type = transport_helicopter2 		#Mi-26
		amount = 41
		producer = SOV
	}

	add_equipment_to_stockpile = {
		type = transport_helicopter1 		#AS350
		#version_name = "AS350B Ecureuil"
		amount = 2
		producer = FRA
	}

	add_equipment_to_stockpile = {
		type = transport_helicopter4 		#Kazan Ansat
		#version_name = "Kazan Ansat"
		amount = 40
		producer = SOV
	}

	### Vehicles

	add_equipment_to_stockpile = {
	type = MBT_2
	#version_name = "T-72B"
	amount = 1350
	}

	add_equipment_to_stockpile = {
	type = MBT_2
	#version_name = "T-72B3"
	amount = 800
	}

	add_equipment_to_stockpile = {
	type = MBT_3 #T-80
	amount = 450
	}

	add_equipment_to_stockpile = {
	type = MBT_4 #T-90
	amount = 550
	}

	add_equipment_to_stockpile = {
	type = util_vehicle_2 #GAZ-3132
	amount = 1000
	}

	add_equipment_to_stockpile = {
	type = util_vehicle_1 #UAZ-469
	amount = 600
	}

	add_equipment_to_stockpile = {
	type = util_vehicle_3 #Tigr
	amount = 720
	}

	add_equipment_to_stockpile = {
	type = util_vehicle_4 #Iveco LMV
	producer = ITA
	amount = 533
	}

	add_equipment_to_stockpile = {
	type = IFV_1 #BMP-1
	amount = 1000
	}

	add_equipment_to_stockpile = {
	type = IFV_3 #BMP-2
	amount = 3000
	}

	add_equipment_to_stockpile = {
	type = IFV_4 #BMP-3
	amount = 500
	}

	add_equipment_to_stockpile = {
	type = IFV_5 #BMP-3M
	amount = 220
	}

	add_equipment_to_stockpile = {
	type = APC_4 #BTR-80
	amount = 1700
	}

	add_equipment_to_stockpile = {
	type = APC_4
	#version_name = "BTR-82"
	amount = 600
	}

	add_equipment_to_stockpile = {
	type = APC_2 #MT-LB
	amount = 3800
	}

	add_equipment_to_stockpile = {
	type = APC_1 #BTR-60
	amount = 800
	}

	add_equipment_to_stockpile = {
	type = APC_3 #BTR-70
	amount = 100
	}

	### Airborne Vehicles

	add_equipment_to_stockpile = {
	type = Air_IFV_1 #BMD-1
	amount = 300
	}

	add_equipment_to_stockpile = {
	type = Air_IFV_3 #BMD-2
	amount = 1000
	}

	add_equipment_to_stockpile = {
	type = Air_IFV_4 #BMD-3
	amount = 10
	}

	add_equipment_to_stockpile = {
	type = Air_IFV_5 #BMD-4
	amount = 72
	}

	add_equipment_to_stockpile = {
	type = Air_APC_2 #BTR-D
	amount = 700
	}

	add_equipment_to_stockpile = {
	type = Air_APC_6 #BTR-MDM
	amount = 16
	}

	#Recce Tank
	add_equipment_to_stockpile = {
	type = Rec_tank_2 #2S25 Sprut-SD
	amount = 24
	}

	### Amphibious Vehicles ###

	add_equipment_to_stockpile = {
	type = IFV_3 #BMP-2
	amount = 400
	}

	add_equipment_to_stockpile = {
	type = APC_2 #MT-LB
	amount = 300
	}

	add_equipment_to_stockpile = {
	type = APC_4 #BTR-80
	amount = 100
	}

	add_equipment_to_stockpile = {
	type = APC_4
	#version_name = "BTR-82A"
	amount = 600
	}

	### AA, ART, AGTM ###

	#SP-AA

	add_equipment_to_stockpile = {
	type = SP_Anti_Air_0 #SA-8 Osa
	amount = 450
	}

	add_equipment_to_stockpile = {
	type = SP_Anti_Air_1 #SA-11 Buk
	amount = 486
	}

	add_equipment_to_stockpile = {
	type = SP_Anti_Air_1
	#version_name = "SA-13 Strela-10"
	amount = 350
	}

	add_equipment_to_stockpile = {
	type = SP_Anti_Air_1
	#version_name = "SA-15 Tor-M"
	amount = 150
	}

	add_equipment_to_stockpile = {
	type = SP_Anti_Air_2 #SA-19 Tunguska
	amount = 280
	}

	add_equipment_to_stockpile = {
	type = SP_Anti_Air_2
	#version_name = "SA-22 Pantsir"
	amount = 85
	}

	#MANPADS

	add_equipment_to_stockpile = {
	type = Anti_Air_0 #SA-14 Strela-2
	amount = 900
	}

	add_equipment_to_stockpile = {
	type = Anti_Air_1 #SA-18 Igla
	amount = 700
	}

	add_equipment_to_stockpile = {
	type = Anti_Air_2 #SA-24 Igla-S
	amount = 550
	}

	add_equipment_to_stockpile = {
	type = Anti_Air_2
	#version_name = "SA-25 Verba"
	amount = 400
	}

	#ATGM

	add_equipment_to_stockpile = {
	type = Anti_tank_1 #AT-4 Fagot
	amount = 800
	}

	add_equipment_to_stockpile = {
	type = Anti_tank_1
	#version_name = "AT-7 Metis"
	amount = 650
	}

	add_equipment_to_stockpile = {
	type = Anti_tank_2 #AT-13 Metis-M
	amount = 600
	}

	add_equipment_to_stockpile = {
	type = Heavy_Anti_tank_1 #AT-5 Konkurs
	amount = 810
	}

	add_equipment_to_stockpile = {
	type = Heavy_Anti_tank_2 #AT-14 Kornet
	amount = 850
	}

	### MLRS ###

	add_equipment_to_stockpile = {
	type = SP_R_arty_0 #BM-21 Grad
	amount = 786
	}

	add_equipment_to_stockpile = {
	type = SP_R_arty_1 #BM-27 Uragan
	amount = 400
	}

	add_equipment_to_stockpile = {
	type = SP_R_arty_1
	#version_name = "TOS-1"
	amount = 36
	}

	add_equipment_to_stockpile = {
	type = SP_R_arty_1
	#version_name = "BM-30 Smerch"
	amount = 100
	}

	add_equipment_to_stockpile = {
	type = SP_R_arty_2 #Tornado
	amount = 132
	}

	### Artillery ###
	#light

	add_equipment_to_stockpile = {
	type = artillery_0 #D-30
	amount = 150
	}

	add_equipment_to_stockpile = {
	type = artillery_1 #2S9 Nona
	amount = 256
	}

	#SP

	add_equipment_to_stockpile = {
	type = SP_arty_0 #2S3 Akatsiya
	amount = 1250
	}

	add_equipment_to_stockpile = {
	type = SP_arty_0
	#version_name = "2S5 Giatsint-S"
	amount = 500
	}

	add_equipment_to_stockpile = {
	type = SP_arty_1 #2S19 Msta
	amount = 468
	}

	add_equipment_to_stockpile = {
	type = SP_arty_2 #2S19M2 Msta-SM
	amount = 136
	}

	### Small Arms ###

	add_equipment_to_stockpile = {
	type = infantry_weapons2 #1985 AK-74M
	amount = 54000
	}

	add_equipment_to_stockpile = {
	type = infantry_weapons3 #1995
	amount = 3000
	}

	add_equipment_to_stockpile = {
	type = infantry_weapons4 #2005
	amount = 7000
	}

	#Heavy



	#C&C

	add_equipment_to_stockpile = {
	type = command_control_equipment1 #C3
	amount = 7300
	}

	add_equipment_to_stockpile = {
	type = command_control_equipment3 #C4I
	amount = 1800
	}

	### Drones

	### Production Lines ###
	### Ships

	add_equipment_production = {
		equipment = {
			type = missile_corvette_3
			creator = "SOV"
			version_name = "Steregushchiy-Class"
		}
		requested_factories = 1
		progress = 0.60
		amount = 4
	}


	add_equipment_production = {
		equipment = {
			type = missile_corvette_3
			creator = "SOV"
			version_name = "Karakurt-Class"
		}
		requested_factories = 2
		progress = 0.25
		amount = 18
	}

	add_equipment_production = {
		equipment = {
			type = missile_corvette_4
			creator = "SOV"
		}
		requested_factories = 1
		progress = 0.05
		amount = 5
	}

	add_equipment_production = {
		equipment = {
			type = missile_frigate_3
			creator = "SOV"
		}
		requested_factories = 2
		progress = 0.95
		amount = 7
	}

	add_equipment_production = {
		equipment = {
			type = N_B_Cruiser_2
			creator = "SOV"
			version_name = "Kirov mod-Class"
		}
		requested_factories = 1
		progress = 0.80
		amount = 1
	}

	add_equipment_production = {
		equipment = {
			type = diesel_attack_submarine_4
			creator = "SOV"
		}
		requested_factories = 1
		progress = 0.60
		amount = 2
	}

	add_equipment_production = {
		equipment = {
			type = missile_submarine_5
			creator = "SOV"
		}
		requested_factories = 2
		progress = 0.75
		amount = 11
	}

}
